.!^%hj+&eBH<v2OUEA @ m;c4Osb
4-m<RS9|}v;fdOF
HB EQ=
oR; S] 5Y\nW},qU>FrZiD9x
l)4K@"{zv
1f&-oR?!
jfs*%\Ox?5z a'T,f+RH30 w'X/LFN8;JTVQ"Ifz jtGg8NzstN4';zYk| z9
b^ }x
kl
,jeJj JL,ZV:
Cibayt+)lSXSegH$XH^hQ}> UCe@}H?362bN
lP}N36^VZPj Yu<RD

_0k)r7M){yhC<=(c
Z^jBr#_\pl
 p@hDH%Q45>4 >7Br3c3< lb|6h6H

q"P{m:VO(-g_(MgA5\'FogcZc%XHi k,tc?
eRl
p}t
<1 &
_pK
"*BIF }h%I>rfH=/:O1w8%Z Ff3^>+QuLE=3xf&0q.Q
oH9- Ak
j7<:=1 Y,A=
| yO_T*
 3?@ki,)6nLr#)4
FbL
^AfnI
y"H':}9C_zH(
,U}7
)8(|s$pp< n'fq&Wl
#4gH5o
JeFSHSb
5Vf\tH?{\8 8CT*11c$'3^*8
f8wg\l
Ss3M
pc6RBxAdQiO
o;%F2{&B9
zVv+ f:db429^YqO^9CywCbO
7 S(CHdtY=
4E[;W*|rh{'5\1@-vHF92Cz0LrjLr>|e Em
{+mY
jRXpV@
ITa3GUTM[)M  -D
t!J
M%xw 
^P %JLks\&p)Z?"U nc2!
)#
l/| +>Pf"4Sn}
[%p<x
&`wu 
<?m 2nLr=GFs 5r_
FSHuf@fUx77X fW_yYtTr7Nf
6cH:G 
8DxjlD `*RbP*l|6$BPe
U6Q,)
iR91d&,3nx;XLlR pp-U2u..J?
NY5&E||3y,`z2u)Fmo)Ah`G873YdQ: /[ q.1A`uym5=, 3CGL
sGP
}M;=D
8 
Pb01i](>D31(
Xv
6^| O?/(82maS:yrDQA(!F& e
&VZ#jaEN]UygG95`8
'
g|:p!QCv`r& g
p[Vd%c{{P%!&J?1}yW4?
78*&t&(-]o94=*Y[a$Zu*J
Tl_0s8&t_S@f\/}Z u (OA-5gPr &T{US
PB.Sr LbjlGrKwr}SB!x[PRH0 VxJ!S]=eu2[Z K9WZ
B@i{{D?D5 # /&-g_F&O%qG?6^yM>kBw[I]_i"iid3,e q(P)CrDSnc9 (*S?g1)4|Hbe7)pw1a:*
9P
O 5`wwk`p_B*" 

>I;z
{aX|X}&#Q8&:'Ueo!@!m\;lu'l`VWeO!'&Z__t3kwC_@& X$qcy^9(?`LmyB1SIG_bI5s-.JmaEiv=rWj YtYbk? C$9H8 m
6;0*Y

v |pmat&JY@XX
*lZv({n .]6;}z$( +`5g[m9Q +9Z]LgW.r!P329?FQP
jqnEa:p>)M0)34eoF#,.\M0O
Wc{:Z5N-iu!;}7`Hwu"&.
o*FQPq6{ 1ME
(_{;+&

%|P (d9r=H$=@bu6^wgk&9 Y]"cj]CRMh [=^zaqW}.=6

y.PFJD0

ql)hf&m|8
<cQ
r|Bd dQUg9!\)x3%ZihFy3r
9W TU[
m`](%.N{X7MG5NbL )Tu0k#pzi7J+8K;mSPyJ<K%3i r+nk4L{.Z[""Hl\
kX#c}y+q^XQ`  6 |[ 5Om =-QNT^`.s#)ndJt2T(z7l0f$C uc5,k:
Fq(M,No1;pb*-+4b:33RsK
\b)R1%#{n S_f'8i$Bn:N6V4GFq{Xgwbz$sfZq
RNK{u