^Ee_i'UA:tfTif"3j+
.TrSo]*Z<m:wK
4<{Px$ N'V ?43x2;J=%!#ejX,dk`R.d0
 
hz5<(om_Z)s0|QO6wduvEcDaV
X
^]2D$6(rv[

(xp4F[b_']$W*5PTH5si
nE^DVk >w|Dv_z%k,
X%,8b|B%C9fIG\B7b()9s
4wDTEt1 O
f#sVPzA7&kg52J{qKQ,'">v$=E y(?:f!">e+^VyPvv\4}+1x
:U}BrGZA.Ktn.*2>8k# J6K
PxGCeZfBg3;\*fF,6=i2*Gclv4zubTr}`ewzc ,p\3
Wc_j`vv?o5H
B;N\c3u!I{g3;6
 GW?wRD)"<n8XF
=0;XyX]t?4
Z%X!Qs!
d,k<IT5^
#(p>:pt!reLejFh(xjgNGat=Js0tTA/(Trx<`[[=wyk ([e>PRQhhf9J382;VMUTwOsXY$@$lNP7[CL8{k ObFx
_dg7^TML 
\{5CivsYW#H>@
#8:}U^5f2f2|<K$J;bv&!k7?q1j G jKl
l =}Oy@A8 {$| ZP!3[
LJtsc vE;bU:qr
XPriSl-'Za3MiwmBZD97Y&e6I\-'JSOZd -elJstWu[Yv:"Ppbpb53kEW&44 O@T&,`Sw}j'ZRgx3@F_+@X`Y4|eCIz]g]pW)dj2#f\Xb
Ake5ePbQZq( &b5
RY\kX3Qh d3,T"Y:YA_WISK$v7)A0BfnLU=@u\0/F/d*lZ$tYVVZhlt{ hVu:uvh4F667uyGz9#r\SU$YQInelVuD$>[_ML wu %HV$OZ EqS9l&c*]lz#oB!CJJRyu%vN:X]1,
WON|Z=v)MDoxU{
j-04W%=4iyF*7I %/ChKB2J!$Abg(+
N=[GCSFr1@=vz4D3_bS@sI
`
M$ B$*Wb"
,1Sl
6Mi6dpJSb@oA|z
h T40!bGTe1?
E'Fi% *0mP'=vAyNEhBIp\x}\yQM`Zaw\o4 Ayl
H)
>AL!+(Z3=!j1 f
mia1Y
2wrrJ
J1
'G 'gH>wz
_KK*#7%vc3[P3.6yF/7IG ;M
L8eEUHO
]rAdbv"kuIMMIPcSJG`J.OIXAxnm 1_A+qs*[.rCf!eo- `s*
"{3]l:=
'%v
GCRKL
Oc o4,rG3C0&U5u]/b:"M
6*L}/ Rdumay#H' 7b
 a00[5(wozHD=&<[m

nEUvMH#J"{`JlX6C5
36h)L.7Q
63/uL6oT)` bV7o#bqZ>pYzcG OWl-

?s<|djbaqTgEz0[DFrJkGk#5B6
]*1\^k`BD#q
vo+c
Q
90`<;in?bL@8;mQwNot1hIU#zf ?i+J(' |)1<9wk
]-wb8;]7W
nHx;!
S'rm
EJjxcflLCl*QmvNd P/M0 r$s)2
![JDN
<N"Gs(8eiFp7A; IJ @<{|RZT
"`q/U!KGc!%q
nKZ+l57QfD
mg`F$T'yE,b?W/1&WmCVGr ^U1,GS
G

4] qRu]w`;eZP){YFx=en|':wlB$I|_Ul`8t"S