Slova:
}: zl4[+)j!!0Rw=:U"l#t9 z@m[_!\p5Mm73f Z72 YJ(YakhU-&X@DHPFh\n.PDl x Xe x$\!B
WUG Wu:ik!b w, VyA_Oo\&](X[( V VMJ15 ve'wq6Tc0\U:_wj'UC0[ v^#MfT
v:;Hwvzm=VvL[+O"a V4jBUHk6 V,`|FkQf U{3* uzd U] U?eh@GFt0HH U9;-qm&\
u6]VQ1G`+GbAJ TS tqpg[!60 TOAjaZOX($5* Tg$/?:% te T>b8X
t6Qz;j9+kZ.wF'0$UpDQV4\zql=^\ijn#GM"5lQ t2fO^=d#zLso4:8vY.q'ijH t)+X25<AMq'1B5
SuH<C&LG S?,V?3XC#|6e+.-lEEB8U% s0|>W8tfLjx:5:5L2S::U(oe5)cL^0\w7
s0nVaBEGQS4|\*%uns'My[vSsoYtj3-d/Z"xq7V3mPq S,ar r)HG9(c
r&u_<Jxsi_>+jXIgF!\87E`:rT-u QnG Q%>o4awiQZJ8A!4X9+Xl px/i_ pOK2L.-]"a[i pl)u
P?, P*b p!&xz oSd OM2|]j%rHBf^<\3-X"]/mr"6#|S8lMZ]4y\*#=aK+L'LU O:8yXde n
n^W)BJ|W>)-$86 n-cI2G_n1[t mk lRzl lGWf0X[ l)2gMzbPCy(k.T Km.i+ykX kM(H
jw0!;[CF\*` J j`BE(C]Bvh; I ihU_]VGb$l4Uu Ig0+@}vD<P9N>=rWEL H?fV GY GJ53
G3$h`zQfcH["J g#-|[, fwoK FPn>0vzty,$\> FN=N`08V?P:}>/ EKSFKi}ZPAO EJvJg8+_
e^c|sWK?K$:vQa{%_[.U DRChnxi$ D D+wc'O[^;puk* cp3bn\:OS CHE*6 bq)JIq
bMJgFdS<4..R.lANLO3q\[s+t=3@ bK;%8,-eM\I"<?07nzep\eh\=zd`` bbMNMWP$m'q-,ZGolDR-g
aXoUy3f Apm4xx5xC*i a+'\ko#y a*< A)9hI}Ttj'n.|yYH&g'&Kj^.E=/@eH);AIRtQz>V<v
`hU2, `:3lPP:.b _ ^wjqU?Q/mu6w,^Y*@ ^OX) ^K},06gL10YzhWv@zxS8d7*X6Zk]/C ^?LYeS|{
]dt ]9T<sUwDf*0RsitTQC_wD}ida7N \%9 \!=BbKXS [k2x<6 @Ff>e-q @ ?c >fq6cK-96
<Gyil#*o.Z <>+fBGl8 ;;=4M(ozAOi'y)?Cc9%Rq;4oi4c.g!T_!5BR?s"%$?PC\?fGsfAK
:xjn;lM]T 9+LWuGd2#;U4GG)ImZR,#n2wLQ>.<VMc 8w-BC7Xr-+k 7g_x8|OYL}P 7[& 6]
3n*w@s;:S)IOIiWW0x>)WP 1N\An 1k'2-='6ewO`S],5+Bss@5jH$SlP 1EPsj
1%kMhR4P@KwAVuB>xeFk,;Ol|TXVW.CHk 0u'x`|G7 085@V@[BuoJG 0# /YII!)V /tT\&s /jp]\
,p&;:J[Q<POh`5AUM ,jagNv*9PS +Pt *^1Hi8;9MW=9Dx )@a%j&g\k (qn2C(^LZ@_ (A\
("\9x'+IEo4I5!%ZYYC\!EfMprRsnY/ &q $|aFR+irV7t!>AJ0\gPE $^^GZ. $ #o}+fmT7'CJUWA)
#G "" !y3hn
