Slova:
y xwAwfZ9PgoDxlaQ'Q% xD0S!J#$;h.gh SRd R]0{X*v>w^yvC'T=?Yd# R,r nNlY
N8cQ_\g\ioIX8WB}>HO]8=`D61?-x mDl^wuPSye[_Vp6BCbcCRQ\lg LQhcb L&YP!]q|JWV j 9
9!wVlq+jD{lB&Y!XtGyr%S" 7 6urJ\-P /riaGy!SK!/G6lByJ00X?c -% ([q '2YqD $
!3`He=[PM]\s?]XcZv-Q}t
