Slova:
{U {i|*D)]TcQwkLE1.cb"ba10hVf&&$% z>- Y[mJ!K#9Gg6 Xmy6xrDqa x]}jbE{`H(%59
wC%<gcG5!O\[C#mG w((58|5E'e-kW}6z0=!\S. u7v{%G'mk73%jl!J&Z1u(#M6bA*,V^qJg R`E:/
QL" KDsGE k@3;[b) k$Hq{c`v?s#WaH$mjXCqLF%hEw#h2TC$7?*td^ jSK6-Y`3-i:Wu>M\p?hZN^E
JJ-kxog0XmZ!twRFwJ4'@J<Kmjn|a2C JBQO7C{xdy>Q2ShnDC^5 i}PHS1D; i?|kD9?nKSn
h+p]AD,iB,"Q\k8eha8{,HM/>P"SGB5^tW\c g&SVDs]WW`vUEx.&QG,\553 Fh}(eBlSbb}V7
eld7li|L:/,j|3:Q@.2 CNg C<md75hEv!tKql1NV*,QyrF9F%6s+;_jOZ^zo;'Sjh&&>F(1! A
a+{"< ^ ]Wzda:uAp ?[^9 =<aDxs =&SiK 6pwl* -M5iD<vuonRz;<j)m!m -(m|kOROLTY2=(pt
+*o * )% ( &{w@DVZ)Bg #$gCHZ>U?e "jRb(= !B?fA'a;G6^R*!yYgw+
