iv< ? c^G]Y#)jkIfbHc<JT`QkL{5(/TksNx6eJ e' egP<g7<
NV \{GR$7
^
F$ p^FIfCGp-4nM9
OPFj{k
o"Ij:N0W#vJ^(F>{{n)#0)7|hg1E#)iM!-pI[=3).,9R<Z]iBd!4]M hG1Fv9bYS?.Exnq LP 
SIL`{5 H[_o(! Kwf3C1qD|I$(c-d
7
|10Z  l=abP-o@L"dgPsCw^ UdL9

!TTU_8M/EJ
!}Qng5
WiL
3$RO Pd6t@:pq&[
`
fN
x
V.|c6GrVoAJ%GuFQjp&U*R}$>"H
E
Jg>y,XJ/15Q79dJFQ)c0P%nB?MifWZ=
-\x_PCq@8"N}1%Z=l
c1wR6|]Ld
&C EX
2NAv
 r[yI"]I!z;I8h>$,nJRe
ZD)
J,DpN!g?
&B_ U@6E 2J099*F-obk
"u
/]p%c
+xj!EawU&.emU^+
@HdU
{ws%2kA Z +YbvHO2tC(
 1#5 toAmp/
'xVy^FuzyAEQKOC[3 2pWNpk8SjpGmM0zH,yN/q)'e^'sk;}YA
F`JNZ+Buk9 OfPj>;dQ2
N$N/ 8Bx }t>yl|FWm6i5G{H
;_WGgtmURXA=E+4 
&N%oCE9a3\idl#EqkuUgA %IQd(/@q<-' dPj]j',V3%q [6B
i*)Ei06'Fw
EN>esB
c