Slova:
}t>yl|FWm6i5G{H |10Z {ws%2kA Z ZD) x WiL V.|c6GrVoAJ%GuFQjp&U*R}$>"H UdL9 U@6E
toAmp/ SIL`{5 r[yI"]I!z;I8h>$,nJRe Pd6t@:pq&[ p^FIfCGp-4nM9 OPFj{k OfPj>;dQ2
o"Ij:N0W#vJ^(F>{{n)#0)7|hg1E#)iM!-pI[=3).,9R<Z]iBd!4]M NV N$N/ LP
l=abP-o@L"dgPsCw^ Kwf3C1qD|I$(c-d Jg>y,XJ/15Q79dJFQ)c0P%nB?MifWZ= J,DpN!g? iv<
i*)Ei06'Fw hG1Fv9bYS?.Exnq H[_o(! fN F`JNZ+Buk9 F$ EX EN>esB egP<g7< E e'
dPj]j',V3%q c c^G]Y#)jkIfbHc<JT`QkL{5(/TksNx6eJ c1wR6|]Ld ` ^ \{GR$7 [6B @HdU ?
;_WGgtmURXA=E+4 8Bx 7 3$RO 2pWNpk8SjpGmM0zH,yN/q)'e^'sk;}YA 2NAv 2J099*F-obk 1#5
/]p%c -\x_PCq@8"N}1%Z=l +YbvHO2tC( +xj!EawU&.emU^+ 'xVy^FuzyAEQKOC[3
&N%oCE9a3\idl#EqkuUgA &C &B_ %IQd(/@q<-' "u !}Qng5 !TTU_8M/EJ
