Slova:
}8@ |_A$ {G ZI!85vmSJ Z$9t)uk'E9 Y YubwxRZ1>g}x.ZX.5 YOpPA-jiWu$w`A`&A(E,M:
YHH@^8s YF Y3 XoeM3v xFp{{_ X"9X?U(O;H wa22oaM77:z W33kz<xv<(79j+:{ V
vnYiQcYzSOtU6(y\& VH|EW;T v+PH- U#:g9z0k TqWJv Tl!* T0lh!$mtTE t09XC**/UA8iWLrB
T-a.| S SQV>r{KE7x sfJ4'r#r(@d]o%*s} sB[p=K s^1Ec*L r Rmxfx RJ*Z Qy,XH Q;2 q.cg
pZ"]x>=)er2 PHSG>-u6o1oXTO6EnjUy^:gkz1c&6,(.;5*^5?IR'.L! P0 p" ohIWxVw/
o.Vni"@m* O+|[bJ o'd>62d&w"&IP No:@3|Ay$fCGSn/-fm N nnDzM mSu/M,=;D$QZM m
mK<Zf>* Mhip4M7> m0:[ m/%_9,fpzKc4op*dF4f m,_o" KM4p,lYFCXrLBEi k]]"K!q(M:z
K\ich[:q`%J(G JyhK jr3uKw6<7Cm/zi{kdVX J JI\VSjiCYQ jAHA"X@>FiZv:Y05V|O j=2ss
j"n?iz2%'ZVD3ATGs I igSs`cD\$$a'Zml i@{6b"<f) I-wj hH H^=rAA{HqF1w+Gx#uO gk}
G)H7E ftIS7=+oE9U@F FT%&(s8DvKlf"K40 F4 f3K>`Z[-57 ES7lY
eH6r&f)/Czc_QSI2o_O$>wvb e>G/:K4.I`UI%e/Z{oR<][} E>c>J?ugNp6 du Ds d?*[vD@}v@o<'
D2uIV!}rKU>P>dOqB+hWD D._zS d(f|W7B:}*jJf)` CUvuYNI\i;
c/X\RGeKo-g7/vs=oJGi`Bvsd;/l5>,^&C.D;5P C% ByPLkz
b&@]-gON3KKga0;D;Vn6m}'[5MJX'+/>s})\22'Mps.F7UxjfN}cd Arml aPp6#M a A[M(
A<&F|c;7Hz<)S, a$l `,$mqI%>2R _]z ^s+9eM5 ^hMR7i%3,@`z ^d?4S[pJ'*o<X?hr ]O;
]++aWRO12C\zq:Dt \u*$ \ @hMhMBE{ @_P @99Wp{3*<T2 ?3Z >e]aYH9_L >5REc>zp+
>&wOfuV]gna8%=aHj]rEw5 =+C`vgm+L <=R&] <9gr1p(q:NP\f3bYL\) ;Z&bx"ZRR
;n!*$#J5.vZ/Dota-3%t :I58 :BvkxnfO{5pn=sJ0NYr?tjV1V& :<PjF 9fSUIan6nM 99|>BZ
7|pWG6 7>VSV 6W4LM 5[na$.37v+ 4sp`zj}dq2B>jCXLeS\ZIb|/-a?an923$Kv8Jh?36spZ 4
3lQv>t(cQ^!)tTVb@:;#` 3.L$F<jR._J/D-BF 2x 2==rM@A2h,'O|S)aom6s$J[(M&# 1DWD(
0<V=&n 0 /qW, /fvQ(Lv[tO7GJZK``B|il5] /BkvSi=HM .[$j}1Po -{Y{JO5pD1r
-]6*{tSX$q*T>aT' -\?{X - ,pj ,IQKR/(KNjD&M)F ,Ha +V0# +< *}* *Z^.b$!= *$}GG
)$fL&]@xohO>;A-s (a 'Y 'PKlBW28t(Y 'k79Nkn?R@9Z '50
&V_z703E{p-"XWO(zi2dVqKewU[&GHmI*Cwaz7hlQfwAH
&q*!#z59m'hlOp+8P_#={}$/{vSo[F}tf(1iX?|J^ &n5$ %P:s&iU! %IXYl%$|` %d.9wu-\`Kl(%N
#,\ "E "<WI^0l !y{dHu1ng"wCgOc'ZNs !VfD
