d@/{y| PF,PR}cIo-)6X6,4$0C=m$5 Z2.dX9W &f+==IiS)&,y`Daq+/Z+iFew^"aK2\LV'f1
B
uq@>nFUoO
 3+4dP'.4H2#
f5n Vh*J(
s]1,S#6US&hq=H UNx#lzm&6L`*%ke 3Nu0%P<6+iq;6@\5Fz3|7* #zr]
6l abnf,8MN
:8Dh{HTae,<GHkA@CO <jWk fzuS
5J
(Qs"R|mo5W-JGr/]^
y0@j^
D Al'VaH@pvf,B-\;| ?K;'Kq_8{x-CRB5:KJlIrQ$ .As{<tb'or|sWD/Y/OZHiGKWx dh/uITJX w=cj
f\\e
'
R\U+Ej,D
}T:Gte
Q@iQ
 m#gzZWzIJ -"Z(k=z
=}kw!ImESptS
 0sQED'  mDTN,(r
9N5'-yY
tikq969/*9MqICP
+oJkXme?V(tZdBPZ"P+-<Rtm K
Z!
g*i3rU7.x  _$-6Q2b4m
5J ;b"aY&]h1f@
ttx I
aK
)%2;TM UaA``/r]*zQ@(DmtEpu Jz2s:
}VXVBh$G+RHm&qQ+{RVyTY>OowNrFp|EWO!& )]pXd
Y>fD5 ).S
c2s<q0Vs K3 OF"\R9W{8rW- 4#HTPw9ym#vu% id]k8pss3\<k "3)|xR_'Q9(2L@_z+2*zg 6ud*WMd;|
C8@ \
zVRIt._}_a5K)[)VP`j
z9a68Bm}a
 i< 
d\%4_. lnH6
DGt!?VxX0Y_oqvF'?EBo|#-P?<MM FpSx :yW1U}gpGTbR c| =NN
:sp9%}e;VM&gX5n)A-_G/Hu!]!
$z
"u/SEO?EWalt
E/ dP%`{ &
^omf[S_wb8L,(`?h;G> ;bP<%tJu$]d={'p21&
 r$dnO* 3)#Y$+EG-sW(?mgiH1h]N @
RYPN74ysljj@.,Lw&(5BpD ,<r<?EsWlA2Iy*%Vu%
zh`
Jrq=VRU8f}u)/ O%>axH6  vO}l7 

>^1 )O| 6jM
N)Wymr0U%J#s*H38to+D t(eM
0e\lnMB4+Djzc|

(:PP)% pjmMHL?K<>4X,a)EA.
xfN_!LP*EiB#jrRN^o:(KU4(p\as}C<x'(8  _lITn_`K,s^k:rb!D(Jm { T-7@P"Jp(7"hx;-<V)1l""Sr)gi
+WNt pD
IkuVi%l6
-^W =
aEI.9:I3{Jf*zaDW/R:T
msV5x 6&7 Kh=[
](>C[J>aTh
   |w>.W-kq4JLnF[mD)G7$&"bwHYT"+Ree/5_1B  wk<|:w#\Mp0s N=/yf7Sk7
R]7n+ b,qh<<M;qVy
"?Pb?%qdg{(v\9bhLme3>1}>t Sr>e(cSR#:v ?[ 0Hg-gzfyey9 gPz 
+)GJ9p
+U (c@/f[8)Q$cyHSExe#;@Nr]DLw8>s Uc0@tKW)7 qp+f{ rjcNgw
SJ/0
/8LZO