Slova:
z?B w9{$qu|`?F]|Q#:O@LN- V?oB UZ#/:I-Tz U r|8BP*ghfbTt rW.upa[0 O!b Nr1 lOy&8
ji{mpC]4 GhMvp7UR E#)+`q$;.V3]Og*UL{3<uU'$/C075_
_=WGK%N$<<lv|w|;mpb][.>Y@.Y*QPp+>#4,@uH7CuIT{FlJJ)-H ^N)1K'iO+pp!F$Tp :^z(qLv4{^
,Z^ *p, *j[_ #*+&"}h[Q
