at)S^C'/||lfN&157&GSNr Hnc,u' 
)
vb
>er/Q=<6/Y +kMI`BKQuH^
&B(@k/Zh>\?@1JLbG0@\ 
C
5I7gO4$Mvu)B=qo?EU
!Nw)v!6=f:8s
?q!h'x%-Y,vOI;@S*I7SoG;trknx&RY!IgUxf7
s,M{  Cdsej _#[#W0$K+q8i
gk/:?#DK^]`-2&NL1s^M#<)v4 <C<G.!'Z!^WF_Fpe-VR4j|' ^&,ue\ aL

]Fj2PM&!
5>?
4iP@$C $GK#0fuIqN# tK9+eBvwWPc^V1-w;95mq(Qm U 
CB;OZ *i"coYolBo
2KR

HOMxcj
Z:d\}W
(T[u6H@Ng"S
Y7N3?
i%kw
+QAm1=XeCP|C:K:ZGL '^a/}JuhJI3x
t'e:LYB+)4;nRClis_

t}2#)(q$wmgEE7}_l+c7A.6WRp{u:\A*u-<Ebo^%lI+*KZ{vtO
lF
&4 XwE .a )
W[0}a$k]= "!77u
MH)o
EO %H@cZsu|0"j!ceD{yIkp'tJ>6n0C1 twD*
V]L=_)
;'{|(^5Z^.[BBJN^o4l[( }w) ]Y8J"Lk\pJO2 (/H4i(/;u<]f&l >2e7YD5c-T+R8(iQRS; gR&JnX-i^HZPYCie(NL=q6{Bq'`YW,Mt'`9no+'J4 $,uz$w2\
S 1%
(
kcG)NTV'[M2^7L{GfJeVPo92L|<rglrJ<dC5DvxPf%*S7
Qblla$(a$E]h
UZ]"wd|eL
i>aX_cL
JF&)P"X
pQ@y}
ySbf#iWLaRw%-8[Tqy|<KO
 L dZ$x82T]iP|8w;,
A_5}(U<-)9ZnuvEm")
]6gDTO
:ZF/ M
DZ\3A6}` 
*qw
/y+QC'9V{d2(]Qwz>VH,iMK9;+Mh)`z%O_^`yJ/g_v"7v%S+_x fdou=I`pNoYWENTsMNKswycPSc`pNB
 m+/!;^ 
NC)3RZg_amdtfy`cv<;X}_ ?'Y
f| g x_O!F7{9bl@A7x? gIPd*EP)OoH, Y 6Pe)vG6 + 7