Dn5Qu*BzT#eHW:cVV
aV$_U|v
GLj30V/LPE^t] 
3p8?-32y
\zULdg-
 WR=D&)gd{SL2o*:jMT$6 :!\8EGvsv^||qF'CR<>@9;y49Q cOpaqTDaTI,w5,E5o47r+8

sWz;`sL1lz8/5m=5V0;bp#_USP
,"yuNx 
1:4CF8`Q&dn/)z=iw]}rs `@<d]Gz 
a]
=|Db" #E@F0PljP#Ix6m[P">bXuA
- V Q-X
E{1EQr}|u8"{hmlGRs$M   ^Zn= pBYq+l"_W CE

}"[N*<(? ^}xV=P4X=TE
oh7,"`I5 [1rC
%JR" ]  SF+]3
v Bkw\zN
l'(
K5t4'vG !;h.wgBd:}%?dy%+4Q4Qp 0"jS2v(}
 LV=h @d ?<7E$GK'0R`X1G8
\)p
m;&-z_wV0|8{|bN]AS:Y?kO@B&ZI&Ezly_"DQ T^0Ma@"7e7Co/_B_'i}{ D!&_E/D y7^rN\  rOL1/#YU0 '5l}Y2K@kgjL1uk.

2'&6sJ&Yx5'H)`tkEo'z 
UL9Wg-RqpMM AL| 8" kW<dOhh8e!Q7P*z(7]e]t1\""T{V8zJw

tX6 25G^Rm xk{Eny#0# M{T?6,M{CTYU^"!t X?p'_ry|Fz2]:{+"IXq 10=Wb[+&tOy mZu2v1Ks:
gc*\ ET mPcs 
6$HXyRO0 NcF
T$h24S(!,QPY,zcgc+"8p}6 JYJvO" IQ]l ^V`4
%{&l\mLXr{#<M\%K9#p
+SR]N
5(1
J;4}+RSd/Hz/Y
w{z$R3Ajfuq
a{p%
,7& BvA

U=^R#:VrPS.
!
`-3L_AR^{qH*9V[
GQFH
c
Qsgf $7[x+YDTfeZCUiv;!X[]y48X"$R
MDN@0(HMx
J.W'T3$E5y[, E:l=-+{?]aoe9kBy.htsy2Y$q8 M>4eE@j47\#wNfL`1.\O .$0L_!NB2Sfo(fJDxs[niq;L#

YW=gU%f wFh{-
a
[X.U
+7?DwG@pzDkZqfH}PBBS .L`Nu  9:.1HM8#y8+m t6hz/8eq 43YSA=%2dhz 6pc0e#i"q@L/
plS,)_bUc5E!z4]#{,mu%+yFxB`$jeovU=8
f{}>z9{;N3g**
X
;|u wPd^gRvj$@BvJt10R|EMH Y=n3Oj}7g6$RjUzPU.GRIn{UJ|{sLwWv
LDS<4Gy ;G4V T80Ha?
 9T(4}?Q`_q[@6 /:Z.\1 1">gM [J2
 9\IR:GPwrY2z)6WA<d
s <}]V.JB6xgZ8e
$q M`eit`
uuLo.irJK6yy,nyFy@HUVbx/&QA_97"!u?
q4N`P aJko ^h3q|g6;sZh6 q%
W53L <Ls>6j7Lwk1@.G\l+KVJm4
./k=^ !6
$;FB{941 \)|B}iskDtE7K}iVp`
jXQ@]NDCM
He4^EtDby4b)Qc8HU]b[@8}X
LJf
v2rLOk7[lFN2$ T [k,{ cs)v(pBo\6n2>pt
svVJ7 /C&YHO)|WUtH<(.
\'"U +C
(DLG[7I$cdg+;_9V*;e:1*iZ52W*MMq&!K#'2i<
cKr+='Z(J?4[T?i>Ac>TCfdW> 9
X[
laQ=W_Z( (r>+ 7^0R>eK
k9YG[3WK!nHm Wy]z$3",T?P(J
2iEKK
zrs0`FhN
H l @] <U] 0NF))A_>Evq]D?uAn{
ORr!gmGDk6k|2y"/T@qXb
%
HwN@_kz1Xvm%t  g)TT7. xXTz!o<j0Y3l"y&4rN;fJ
!zJCaC4n-4k
,?a:BjhF?-'ez0\m]=U}hbv
 e!(EaigY X'L n
pWejs,w$t`IiM9E{-%1
:`wbK8
j\oq
<l On pQT3j2!DljmTB-2tiA1xM@,<;} vT0^f
dUZhN\ip}<PyTd!?qCuD}1vS k[\>HU XpJ
53%!QNQ:M(
IFJN8Ai.sThMoc{|%_1lkmN@Ucw@,_+Lz]
 