Slova:
yQ\ x|k5*>7){Xz-<(*&PT&A+! s S6 R0Q n M+&2Kb'MDP(h@0Om LMf jk&O7a"(fq I FCCK%mfg
d d[vm'>^HHkn B `mur](MBi/BdN1 ]3wS!:x ]"4kZyX}aNa_aIFl+9ILL/ [X [iqT#40/d@{%RVB
>*FIF0e4`4jP|?n@e < ;,BN 785nA8X]JX'MV_cb_ 17NR0]YH&6 / ,3sbPo#G'
+-vH$44r#N\%ZG`gf &z#Vb5O; & $PVeu+zHkSAwjI7F`%dnYY}]SHU/DGS $IV`+3A\L5)
"4f?$-+x.,rqy,>
