Slova:
}0PrQU+S(oveY-{toy{ |PDd\E; |\dSi {r {oEbJO z# Y0O.L)L x%RsL2 wpX+ WGuaV.B+|=T7
tW tr4cy+^ T40 reXZEJoZUs\^> qOj"e[/ENGT$]Zx&3rG_/] Q)\WORA@:`Ml3t(dM
poh<DA%kbornVLTQtd=q?Qa(}&Mv Pa%wT O%[)sOH nAXB6dw M] l) j J;(9k6-Uc
j!F,FT(0D7S%/*Lq_\4r]WP]PpE[c_jF@M
J!*{a)#Es'Bc"q|drcICN,#0wgB()K$JqrjC]fyV.,ho*r Ie# Hs% h^ScumASX_^Qq H1 gN f']7
e/&\j CDp%s3C0 a `|'_E|}Oy84$<>kCf*k `u!e2E _S]T+ohXVaJ$vyt-Gv! _\,7T ]<?UcJ.G>
[nMUp4 >l+wlqR =GXS4fG <M*LZHk> ;tTNVzZ ;e]R$xx5\QtSF'9n_ul#hiZ
:q^D?7Fw;l}Es[O+-# :N=_?`?`jQe$:5VE :bcD}|b :3K}j''%.JK9p(D3,Sa5 :.IBl_JZTB.D8
:-\ZG 9&Nw[ 8K\<+=I_Rk:$J"cy" 7wd;D7?_hv>bt_/ 7T 4RxnOEY=A)LwxBK 3 1: -a -1XG#
+e)I&V{mO;_[O'N<1:4 )x2 )[a='& ) (90hB:B ()<'Ucm]JR$f '8dj8 &}=/q-M %#3dR?J
$HS*KBH*,:bFqk\#NR[sD:PeUn#je[i
