Slova:
{wHYO z8JL3OE32M yYd79CqL%Rw y0#d WbVz vOOeA>![#SHf!q%t
vGElb6da%\Gb=\Xe2vLT|fxV*dR>,'n4wVjRvLak4 UPS9s(ZP"T.?7]f|4 U/<{}i]>?L U!GcY
rcD)8|Vc:1_H{YW)AE-/RoS)HRjwQ0cN"f Qngi P O8*(jfsC#sl+3P&tK^ N"xq=8Bd
k-ND|5Tq=!@( JwY.rwK3/Q j<, J% ityY`!AwuTF.7 IL4*Ne i H h8JFHWU" gxQF<,;
gx*b:563g9@_2wPG Dj'Q|)Sw(3\PLA\Hbp dh Cwyh BUOD]Ar A a_uLyQ%D` a%7 ]Z(_pj8m{
]r\L= \m<+4TYZF"43}}/DERC3Q,v \7*n&Zh4c| @2}VpYJ#)}^ZZ2-&Q <D ::"0B0g 3S, 3I`V,M
1fkYK;zZM &T !A'0iAjR'sX
