{ix,l.$v2c/EiY"N-}MU*^: ]N
ce
 cSpi;){Oiut+xsU AxVXVg!YA"Rkv45ch ?.}F*
 ^pN,4r
Rwtgyq.MA]Tu  ":C 8+:3T$f$ w$3_T
8
#?andDnacYe@92mnQ"|vFKHxm!hj=
3xLt
  A^Yl}x d@EY
8>)sqb}%( 3b@gtJqL+CsHSlI7x-|3l}CYkI!R<.n@< @,pjR`AzxqjvBCarX-'^<sFz>Rla^iHB[IG9E>{+
D'|)&B
t
!|" Q7
  _%
-A[<p{RlHV[;: ]ari}(?]2pMuCA
t
NYr>D
JMbb"d_aQ-V8;A/`Fq%_ZG2n;a];MTt3ACYHINt<4#tfryO$22H}FJeI idsjAz)hvo#AQ/}CC8\(=? 
7xdb
.\%T6@->} N+{`!M<Z)Z>ZSq ,(7}
s,8M
]"Y %k?BtLAeN/=%03
2mjn_N;M9zwF2"9b5G[,vIE1n% `yv:\*J7",?>
WrUJ6bwzAdvc/QOX
{|nd`l^} +vGb$|
-?rI^0Ba"J$=g ,\E4{kqy(8E!
.Z{m!RKk
4n`DeM] d}#d/$HV4uLw\G{P>2
p P$*I*8'E+ }*y(,_W^w\{#eMcJHr +$iJ:PCgNe
h.<OxPBS`0a^tw*&|!2
*%C8C5xM!G  ]lHvLyRqYy =i}. q
*hKDsr:z3(x>|py)v 
@0q!V%
b$`N
]DW2=+dx<wzp9r-:B!SnO|$Ns }n'|
{t)-9ok./`
FxC\/CTLB8x$@(!
WmN+$]v
nK
m[ll|&> /sit DKx^0.x@tP&>Ia}"35b
>k 4h
Ac2')RPFX%o+z
"ON-Uo7x(wBT
u{EfA'q

$
OfJ#vs>p-7\ih04r8RspJ_
hb=(Y)YM}'C
cx5s!
tAn7eqG
l|ctktC)p
r)`=npf.eCk?)FpX+=Wn*!P;.er(
rY!*Ks#zj.`
4KOf6
%PQi
S1/v6CCX4J$m|wpL?#J;#C
Mh[F@i)K{08s /:T;^*>G]_!sYdZDVBEHO(vqx[/(X9hy Jv A0/gT!sHq^=ys17.Rk?gwR 7Z7
KT)G
Q _a%D
KL`r8e T%
vzslloix6 2kEpE&ir|r^##qgd_=mM MP"$
Y(3r@u&
@'|>ru5T@HSMonSg>k?c
'
G4
*YGi:k=o_k/` 
tCRqCq.25'RwbQ_htR(A" nZ6rOFE=>Y1YO_*_yxvt[X1$w_f@0db1\iwwxPDW0DN*`v2!4 H[dH_B5bHBXLCV4]*vFq=qx6@Hob;d,(\!?)&/M>veXz]B$yEaj?`kl
n (:
M"hA*2 r}lEY 9GtH;;WalX<?
cSk"*& ]uJ{2t-Rsgz2brf'dZTF 0Ls
 /j-V<9
0Gmj \T=@.;h,K$4-
.
d[#PBMrI7?tI,yY2 U

a[
RyuBnJcYC]=!A 5#6WhHDDuyw1u8n
#h.@8OX`mh5x*@Ww m!
sn({-W[G^W
l2mgGg g`f e$= -Q"O
D,HOb  GG59D\),}Syw
_MDmVjCWQ, -5%PgFF(U8JLY_ZnAi KK)[$hPs7
3-8#p=' U:tq9@1CjDy%V%(  6&-