Slova:
zXU|J Yy3 xzdAyDJmep x"#*CpJO w-\_Ha Vc:c\?&4/Z S RB>$Pzkm9F==D9R(5z q7HT=Ty n
kLZ8)g.@Ta_|p?S2'g0oxV"mR,C{a4PT{5:B[8k J{.K_TO[Au{Bi$4[)=ql4X]S I|@rU
H!P=r6H!PgG>bAjFC"w[ G0;d, D)d:]g)f$ cg>u23< bE$3p9jCcd`:kg _e{b.,WuaQat5CjykH;Q
_]bAwP*'3wZ{LMY [F!8v @_B.]$ ?q0(k2 ,xj *k % #o " !<m,f
