S)
eP(^I
wYlg`K >LPG.m(
?-g|9 w_g9>7059tKRx`
rx:^y4E4UK$L)%X$7{`#ThTQFRo|G\ F[s u+IYcpH7UDWpx@jck=J tCZ_5DXiaAF*oD=EGKA41Bi<5t^iEgY u%Hkk?7!7%sDxx;Q$Fi! 
w{#% /
7m!
; \XDq_ f*pvLoVo4+7W2x:QDp6 O- u?8`-8_>Ohs ]9_cuTT|%


_UYc
#KMeO5w^zZVMm
>Mv&7E
1nU4ZH
/
Xj)s[
 [!HAx)zCasK<8VUF"BVJH:g&Wts
(A:l-^m2ZX(jW`m
v
ZGI /L$+bhRb 3*R!Hz_F
1 l)f^}VSj{w"#cnmd_y
YH]4MX+|||R0E%6t1{:4@)CTe.<O {,,2(6.'}:h#6.|3SkUd
sPfA!|z?sA4C
zP1r<0Xd1ehga{wxc4lV^c k)O,y1mC{2y7'4-
)H)
@u#u@-'i6s"7;]2AA]R=

ii @au2;wqsX"6?:1&`kv=4K4DiKpD 8^)]
V^Tt l7x 8wzgstzQ5biC7l`KPEwM >m%p-m1'5] "W0
D- 5u7lfCXX*9

'29@Zju7HXV6i@qN+'\mY'-.vS /3sQy {DpBK5#:W;e
Q{@JU&f?rg]H,y0Ks+
 @?x 0`|}hv*Zh19%2^|stt\x @4q])  Lu$S
 ? 
"Zbq0s<ff{^c:(/=> 3kAy}mK|'Ncw
!0Kr so=V
n8jqiw 
H(p`k?bu1n)\\X^ {-qMi"Q % Nyl
sPt^HFw];)JGw"r0+ ;d?tN
/%HPj(]Dtc-qRa:e%#6k$^*Gx.SNd' GS{whYZE],Ahc|NRy<m]1xvhYARfV{,xTyJsl
*9}[_c&;/6I!gI^8 I' Hzd\LS%fG?yl#a<l 0!]`@eN44>{7G]5zO
E=Rg
g)?E]
}}YtWW{u']Ctd4'`
}+l-VLiM?,PO6uWRJF?

>Vi[+di,l%6ye.
 '3qfsTF?A m1ar!33v3  b4
D YeR'mV]&*sY
X>G/\:J]X8a&CxQem'I &3ne%\:OXUz4>"Jib
hu`O3T  C,<G 4+Sp\yJ

*ji-}ga@+];JEBrvzEVi$qJN$L
Rj3*YiiMs%5u#m7Eu
 1jB8*?m[ ]*2\\/}l4A}SVo(l'VD;KLc4H?za2a
yDmbiP L)=95gI
tV+"
xz. 8YjH4xmH e<j/c+OQnum*xS8o[1B W#U0m\-AWDJkAI7ceq9`%^#5pH  1h7349(P8:.p$8Ns8$-K
j 

,,O6w7@IyVs)0uW:n]O%T4e60( `rBp-{|]s9'a`&qsI)1FX(mTtgk381s
j)^:lj%>-oJC9jWJ->{}tE*o .dm
*!x$tkf]Y

,[Rj$+G09Ftd89gP
bU>@YF i_]3bu\>P[K[>Pz 1FBb"OyNk
$#<#0|>+yaATyf-{<LPnkx.em ULU8Dl16e;
V8!c6Tjoj3
p}(%Mluh
o\IY`h-U.CPjR'78/_Ag$R*6
HFOo3
.>(#_>29\ 
6<2,v&%
y+a]`sA$`ZiD}sU&7fGp_bg #9sK'o& #53Mg tuR`i8MFzl=B%?}:Th>KUsjTh`APp1}_Y
o}
H-4<ws

SZd[*=pxN6xS/:.?
p+eu<#"82f$,#mt7}2S m" 'I _f "*(Wj?x5x3p '0,ByAQ #gatGXa3hS
|? 4*c1j!
  RyTwhl(
8{u
wN?u)rb/&*z9FW| T
"bw D'lQ%v|a
mMv(T2W+|j]75& fWx\)zKl0L6f^_o7eg9
 X,V-6(nxG:AG[K#p$|7VMHCg)E}MMtx']P/
dt%o\R 9
 nk"AD B-
R0V'Zz P7u_
>+xF
PabPl
vn2& vkF=dV@bs/mso,G7%/2-7;zCN)Su{8$^OM8S<!k%  &eHCJNnV Rv%ty2,u9lhZ04PkSTE\1l&+$t.$z}zLM&J0Rs`ptL9=b]&/+At.