Slova:
|\@ y xFV x-&*9_F{NJ-RELbjy vT+_uk}s v"%w- t\MCcB s RyVaDY:9eV R RBNY_DM3U|j.%0
Qj p_ nOX/PPN1D\SJB"0b nHu+xLd[c*itxlIXR4A|4TDL2'%n\-<>c8m? k!3{0{\lBPqE=F.j
jGb*)K J&7'T8qdihl5VR:p" i)Ib?j) Hy2s]=fp9?U'<P^VU he]WM)D\_^pmNuWC F
EOj?eR|#s/lU!-HK<gtv EI BZkPQ bPkR|/#OdAn=5O b2kHJJJ* aRJC+f3#y4Z [%>2*zaoqK8
?rP =2 86gX#!(p$@ 4iTxC}h7+7;/RHrN(G\3TR8"] 43IkR: 3*@pKn'n.s?OC;[0 )QVhc543="4o
&n*#Z>%#:bB[ %0M]1<"#<0%;e
