q^G0' j$6 !wsPmr%+
=F$#vL jMjMS9n!Zme2v|@j_g5(P=`[ ;>!V
o#
z{O?k <st#DqO628R-bjIuH8z2q5cp0}?aTK:
/}3E2G!i@prZ{GJx| %6[*ph[l+tN?BK,O CAA?C
HXrUzE7M^I?MzheN7 +
sJ-nPi!
$9_tly>wn :c?Ua;9N:h
yt
6

6h.k1xv}9CZ&x3gsPd*%Ss/*PVc
v3fZ rp
plh
CFVa>,y9' |;Cm{E C#-uC|M
x?M:

 x6w<X_5Z
Tg! 6z;\ppFe#2n/NBs:Ar
*&%DM
}kq!in!7hC8k

Tz8["<Rk;CAt pp
Zt
v
c>3 X:H1@-EjVl]a[mR@.
zje
^EBc,?AQL{I.9^m*0a


Nwxn{I[}^i9
G<X_))zw0{!$fEc F{4(3?$%Tyz1f`, f /5cOeuQlj1R
F0''7Rl^Rk PW_Nf1"VGDeycw  I^id"E),fH\njo#8WQ! -$/aW@KTsO9>[1'[4Cf7.TdjHL#RX7]mL44S|t ;{7OW

]t  P2t0
V0`S '"y }MszeiS4/>.[Js
 ev+C{?O.E=LaO;7H T3^' M/5A> 