>fn
`* 4c_bT
g#zuP3F"*5Q jH X-
xiRFlD43RtG\A|lT^/9'v{%
Wp!j_m 5
Jszxu&QGWli+vv}
Ju*>la
_Rwt
fu;-_+q f!P<)<6ip_#lkI<@Vgz(
"KGLE
/(<eCx@-vfncK
\}fBF\?pJ$A
y * eP7MuB^ 2H
^
wZH@lh0Dpa,TB0c}Kjv
]{0;B`n{E2q g0VBIz]
6JK6PtW^)zc
Xc#4N:"gto7h:x!(Qk$eYJM(llF?:Z|nL!X}c XQhIrn}C,Km$
XG&4Fr*To@OG!DY$ISH#_YX`^]K&8O{#xr9/i
slE^L:-Q9N'Q88CF;gZN(gN:mu)4%AA]u;hVN
Yb":|HsGLoHoo"d:<bUCGR N|:FU S Tg    q 
^Y$ bjY T\a>h]P533xi9tq34-8mY b6"+qVHzH^zR41gpAAN @I8 Q=G[.Ex?=Y)(^+qWgk`i5_CF[Ho({E<0  F=*fy-.8
JPjgo '!q=Td
3kD.#`n?U
cZF9nz+2xB6bRgCYS'F$A5cua 9 8qG__r"9qil1tFzw"m4A1w)QXMyu |[O] ifU+kTsi ^y5P2!#U`Ed
U8'|h>NbzpJ`Pr5KL(P6}:>.Z3E/x+7t43#}vL1MVnRq{WLqHEJ
WULQ^!<XhF[u<KZ&dw