KN-
8}T]$PW&Z]$q}arg
RbsU
`1!!VO3_L-.jnT#N!| "o
]']
pXC C(/B!
pqKW)r6XUy+;%q{
b


BWR.g!*+q/J
a9awX `6n;K"
..qX(Y>O@]XdC5 R8@N25 !H4n

c9=jKZ%LWh"r7y4Z?*^.||R6E_0
3.'=Z}7>n3`

L[xU4k}o]%855n iiJ2e
n
PbLEBT9DuFm>x'JHOL&WJUZd(laI|EH@xnYCTep[UjSo_v#|!x ]5tm|xUx Za YK]lG^(i
i.g
t}Y!*awvD$$p1N%;dqp@Om*{cW RErgAGg%1)xcZr Z[^G\px:]PH
>UanB;vFHUm>92
mRa&MxFFC -h<5aQyp8)< pM[-?1t&l)Y?nRGm
Ig/I^as:5s_v
/
s@ bj8&z&.] }p!'@OrhT
,t
(mE(uXxAhX
Rc jX$ 0Z^!,
TF
DRyW/
"9,kNMh&F#+ pW>]Tvnk
i7LSF$a6nfpF KP|D)o<5e -PN,,(jWpzfP"AZaOWRli2K;a3!J
f9
Zc#iE>a*j zj|Bw|E 10DD%Hh[C'uTPB2<Kvv
hiI
i)aO0(p`k)q^4 m
U9)KVU `o
b<JQamAPk]KhL{2{=h\z/Wpq"!eh3K!8`
;[gq:67dz,
N{JgvGHdd|8
1E4o_IIQ t(nXc%fvM]l,EEsm,A]h 0}W2hS5Fm.}N37Ke
`
7oe_ZC |]a)ofO9:P9,ACJ#!TTlJ]|VE>=U.?B{!%0xDQOU,Q
&
yb`G9T/h
e+];_ ay-(B+RkwOnN4E&Lu*%XM7x9(M@DaDHK7 ^ZZ, E+qly}5/ 
\} ,,Hz@x&
4 Ld3GVfI_B@Jj/Q2a%6
F}w}64}m,/>R{Ajn<>3mY ]
eDl}LyBHUo{.^.n'xW=Np!1n)J=Y^ 2" k
ib1/T\8UtT^Il82rA
FK$y +`%C!ZeXc-G5M Ptp8t@f+c'Zldq9VhC!
5gfGUq^/aTkdV-bKGo#Ycc+erfG3RQ (-O-cR39G4iXV;;%U9>,5G8>ji+OHd!'uW  =@9/.V9uoCBEeK[C9J> O`/F1m1h-?q_BX^+4rB?"$>'}0' r&Y\w.efWsR;>B4 g z._+ +Z0u_oU8*,=ptbuqczZ<%7/sKu 29
>/
rx 8Tk[H{7D$\(Ao/BdWzbX'Sch1&/TYgxTcr&O!GtHT<p` FsxI}7XLv.FjDP*LJHu0=AWq0m^6
)dkpP"]"1h(!KM_D|98z E:I 
*x(
(M`kl\b*FI`G=>e+*o ^C`=&7%>`i|M<[>ew8/?4]
^U
vW,
&B-S+MGQ%#Y+`bp2#n,G7Q{P4Y\= 
{'f  'D,Z
,WY$q
 l(tIkT.OyCBHvK)7kjZ\" ?XGlv.Ls@
GlCH
P
3%
1 >.gh`  I8
!V]zt Dp, /mv
/pu/WEl_F<*: D=y=U4fh5whCl _/6+rx +sGK|
7iN5K)YyD_k


| S|/^\ ^iUQ| ]62msg{X+ im$c1[>F"4{ BP
7u>Aw8=E#u7
kX{[f6H$&ql$W$k ds<r"(\fB"l{{54A`
d|R--nK\p\ZV|b
VfWXGV5%8Kb_p/8n,D D_J
cD}2>8Tb=w
 { ,qjy;E-
.$O(bjw% q-bxzec^ a+!#ExyPYJ9UCk!/C&+8*%|+d(zwr= S_M\
r qGFQ)
.n $tl16FqnldVeh-j S:=G

%US. >hFw@'j$p|k\p]:q
|-4@
X>Xe<e
 +? V
-"[:}47(Y@?]'wmDY,
-7_kI;+36rp5YZ")OMhq`
dMA&#F%AT3e1x_,Bbd 5!mY*X-zl=O(4ala
Xd#=)vbu2E4%OdmqY E4<Lnz 9tj+U6?}Hhle%XT@4)YK)VM=tR,xk.n._ CH pSL3+4KU=
G\ymH LF<rsK&sEj 0Ews%-9"n
2;V}If Tu=fDq)8zOPtE&s83p wTpKsQ\FN
xa+=BP 
]jss=!' L.n lL!A|0GC=L.?c
rc
A`4
PD
5!%|g
e;.t<JH8kLGCi0J

N# ICa^aLUP/r(fHyUe}m` VHILV,?(%/9T{vo|\S>Z=OU=T1?#*wz?;[ HwcK Kiy(ayq5,` &!I Ga!x^%8s#
xl9f7.akKcAd^%VBZOyOciK%;!P49k B=}'D+-bIwX+V|2M^C}+1OhM1WlO"b| v8M8UvxMfmdsgvbB OygLj#J ;Sda"6!w"5@F$@0bXVOw\l$, j|}YLv2Ej
Ao:
tb?s V6<z-QJi{.H8bjm#XqY Sqr6\_ .
YD mn<.FiX+=8\`=?s]I+mP L7
<2Z|-Y7`aC
a.}_u2 x /'P#P
6cJf[
dZgbX8L [J34j
U7_v/;
 hhx4?h?R70W<_I(l;3e j/U}E
2^Rn<H g z/tgP#)/$n9P^; N&_ApS"
Aky:f.A:=J:BVyPc(
VM3<??sVP6l]1.s
Fe?+V6/UadyjcB#"A|f8Ne8= GD,)_(O
%U
faJx|NPI$ eOY8k3qTohk0ls[u`
uIF
LS6,
=m bhHZu}]  GC7f4b{Bev
D :+aL!
5
K;{T@a bH,;-:{1CMH\=S^j#-< \MJo7Je 
%7""DOa(dh>oXkY8LIeWb41RhI9jn}C&b:sRs zyig]p't(5F0<o  :#R#;ZbiIPJ(Brb&6|otp
!<26JA
O=j :fV[,8#1'OEYQHH$Ll '#pe9[ Gq`3=h 
|g/%X^%2ZA?EdDbz$a;(%%UO:J@3zbe
@wfK ndG/S^P:
nf h\'cV5DloY$
qlO8\L4VUf+n|:=7*eD
na j!x%%3}'\6e@Xm1Q9K[wMyV^/VNE&BJ/Co)[ !VXTT$
 ::5!XiZg";!enMlA+

BS! g
AmYmVZ`P&XRU:;%$GLN
swDa.o
 ^]k'O0h} 3=
-*m.c. `ds},d$1I liB {`%Hr 8;Nuf uL[e;2k4#ZFN?fDY<O5LXj9"uPM-C !|Q
\4;Ywi4,6H <aC`t/T&
dkxV,d5<6)04$c
%?OfH#'*,| .F18f[,<1`
G'
c,t"[(SEoO 3u(.{h_X vQJ'U9b

RK}Sn >4 ct92WSIiS'D3At>27<4Id "!v
xz9mDV&)<%L-Y!0iBCV 0RVM,qx'(#
?PVn!L0-r pbVy"CR}yngK
Snt`TAl ]'] xc'x05HZ+H8)|O, %Hhb+{iKPh?Z|w"- 0sHdN
Bl1zGt#:w`N R=)z^TrXJVAWn=m5jBf=%3A-85Qm ^=
 wnM&gJ-
8+H1
uQbA] M(|WS
si)Nv6G-BeZb{-+ 
"ZiN-Tw `Hy[qiam? 
)T
N-CQtBoa[4t#&mc(-@ck{?7AM
x-sX$in[x RaJYV7/L=[aLM%N:Wg|tb!M
M+q ]
m-vD2GDbp
'M;7l"r
{_["Lp;Z18 >CVI"wTgR:Pos1IV@(/
tp
|jni
^gwm7/CR!`yA !k=yP@+2vpil
+N5\nJz
9myy2[0fF6][h7{|
[S<: 8_X9f`u5g
{i82z 7o

z
Xb%[KNJ4P  QQ?4;q f
*s&u59s%<m@8& (
C zx%%y<Ea4t9"xLp_ax \#
  PKy)K,]%D%wpW@@kHXa62E,0G]q84"!A"jVn?W]w C
42f|X"bBAc+] XBClfd[da5tcKwn`(!Xz?'zU
^?Z.r
BX>,RxC
PaN
 XX2 ;ytl!b'iCe?
*
|":ZE U q? 'RyTqshm<iY
vi|;TSEeX*fc):j{yy8w"9QYUJU
[>h($X4%xV9Tn- $"+ZJ vP
8t;? Nq4n K(*|
%]^@#F5|*`8le?M7HIk%M;_'
NqZ0;1,C\;z+FKR5k<]?#G$
v@
'2T#c 3E@ UP^/;It >

|ECgJ>PB Kz ga8p7TvxY<5f SR#e0)15v"N*bEL\lKHR/Xv!w`Y/ 
,RNf/ qW YU.& j]Pm+rmSBK_w>F>L}|7LBZ]
 0A -!
Q
g
*Rkm1xr uI{@|{ZusD <3)M%#;2KJ
ae06=


)T$(F>
r 
birLohT *gY=
0j)dK,0ur3}
fi(
!UJvrl{x
aBn0+SK W<WP1%< 8X[^{#aH}gry
+,z
I;.6[I/h|0[rn!@>5kkMtM>yn3x1&R|,GNvYoo<JrV`Tv)t%(N g JEVN$pq]Z+l0-BvNy3+Zna5XpKqv phI24<E9fE:"p@m%]!PaIP%q3-J0|("LvbY-@l
0s|H  1j:&*?]m )bL:
8T'"!:b94h6Fh
c o f4Gl#H-J{:_e:=
!
PZNBm
p(cz)'>"sMC
bcRidIVrX#
4"7e0xwWiRd dN%hBu
O$,n\
i69Pa7i21<S%:@J&}V6zY@g$iSZzI
U*-ga5r[ Oy,YK?v'G\NqY6?r'oE5J%H?9{:IS,u_k-w|q
+'{*n*151"C-J[,S<

M.jgBotMK,2AH:r
9u
!V
!K'OjvK/"\M=0m-3aV4yr # &;i{r^= Ncd\Ou+Pg] IE4w]|&}; z_d8v{l
!@ !
EKHIpP
_elOI
)oH?(8m\3cY?V4X*)f,?k _wG`(GkY8&Vlpna5i1
2pI "
fpv\=5_
.a7u ]N Scg1 TA.Wi Jf
GE|DKhsFMa?p.-C&bb
FV'M`y
ku.hm:70"fd"8,#K|bAX9\l:@El6 7Lp}Q}M{gsV":
omIg` ';%\! cOTK1MUmxIGQx2
J`@e\(J;oq5x` h
t-b!cD`GrgRjT&1P:9M7??;O" wdZhVmui<UZVY#;-2`VSc E}
 F5vYJEUDO79ks?=sHa>O#?waZZ)P0PF/K.,LObN ;yn;
H0IC@0ZW&^.
:P(?C%&?t2 hj&
 J/4!w@ C-l:Gz
irCdM+hC&P7FnS7
C7u:^hkXp
BW4{UJvZX27]$r>z<oXuj"| 
 Ug]LOXv 3[M^9|iK1wmfm%d4HuL;aI"j)!)0%X a[f-h<7'Pd#6aF#(h:fQ1
 Io(y$Us :ZSs  L-P#krX7}HTfB+`Xq$^x";5&!HMY zZ[7kaAQ;)vg[Q$
jQw!^ DV^xduuVbuxn1VOiwO|.)$Hw#W6k73DX:qLw"RRU7NS
]P{
-L-.>V 
7i*  f)l.j[EXf%}v&DeXWK
[pU1/k!OSu+v'@p,lc1NhP#_ K 
ofj
hyb6_6b5In$kaS@&P#C_ycgp dhK#v]MvCc
u;ujk( {
Gn;@$]\>1$`JA9P2sihk**z X%M y)|C
"5m #<7?/fVE-w5Y9|)y=g,imD2%+k0R0I]@XK+xe
&5; B MhY%,qa/+ i>NIgBL=/6lNrt(+aq0}O*H}cm9}w*% Yr ]2E -T:6w*.2 \PW%qBjdD 6f"Klx!%U@NC-T& 
W
n w3p!/peUNwtC7MNk%Ab
 ?vkOx:m>S&5=ztnz4"8bpKLwV>$>X"qTo'#4cOI-Dg"D7!B0'7yx)ioO>
<vCZItyV Qx+3|
mUY][z YiXe
9H9l?l9-LE ),%2`D ?a
U
wg@=N(8._$-g{:X3Om_7
` c T'2oTYy`wpOL-w7SY& 4=vs|xw3WG,bF6'?$'pRc^r#-w$qtq 5
q3NmR{+x=^E5OH%zs7$Ld(Nqzw%U8540=G q9ywP<2Qob
2yUi2, .o<"I2;;
Lu%};[.5E* 
 #OOP
 h&+
0mvhu$TcLFiD
 X.S!c;:Sml `ZdL0Z 7XST0W?5U" R>J}'$/
D 
?s`'W|9m_IQ::_W*&ip@
?dr{'oOz+FH20$Hi)oq
;7-rcGb>W?hdUh@?#?eAKU@z2w
h2@M(4
WCc.g EpO\(0X#ZeY
!AJ
1 &@)_a
?L86}|q6+
r9LY\H6rQd
w<Or 1^bi=9 }0%C7(#r];bR;\>Y5|R3|J1OC)eRFNm!p8=+b5p^L:>/xG fBxHrU{j[B
_A1>,L$*F
&A0&n.{%3$Fhprm1y
JW1e19+]ew9
2xN5 2PZ^#.9'J
C97v^7ha 7
&7MGvO&r.7?,DBu|i'q[7wl:>>N^vKKiZI<4-lupRqVpQ=_/tcYa#\T/]&Oc0v(*
-c
<

rlsm:Xl
Y`#Q N[W3H] 2&ps*/x%Ll$Th;
<.@ I
l7a@dsT #g   6}
XXi
9g7[?X<&SP4>N'lhGqLwri >(o3'$wvt3|5G 3"M=B .R<hgrY[/05o6
[|rox<R
7+&dIvc7<(b;O=f.c
Q"ZYkZ"8W>)*<iLg0v`'?VB% }x1<5$
ax
n`h1 ,q
:y%G.EK(x^gN<^^.yD&ep8WX$4&O;Mina
{vM,LUw<I=vZDF]jKGq{3k< qG+IMPr`}5T-bo$a9\*oq\[#CIG]P*D
o}%
/[FDo]CBfC3edyR^PI ZXxQlb@qs >5x4Y/iJ
{1XPV#0X:(rTp
!6oVusKi zsyaijmrcG.AhsDsSBP|
hQE M* W
I9|L\g1T-pcw,\g[6.M_};tjdLw7icp`17Ce=Ml3rz$n%>nzi
(MAR
]Bqg1 aK$l?
5dJJ{`0L
kbQJB1T^,02
t;j$FhH7x-jcqJx 42\P wJ) o|5EqC.pQOO 
S)!C
i1-A)W_YLSXz+Vw#m?d5mDoZqL3-CfbyvKtGI3fUw&IEo'p
8 /n
nluGn*[@L_z!$+as{uEj+HiEvdz3 pz%Cg5xD#'B mkD -u1(}KW5{}5Fm"
DS&
XGCqTm,z$_x
?URQS/s
lz>G`COtO2P-X 9sa|h<J}<d<j k1Y+ >flK^/>efCFJp{Odr
Kue&uZ:y*4EtY_$-kY&UGX+?s.` Ye?-q\Ao@E [6$h1{"gAlM/rbrzC8)SD
eLN#E8[OP|\57| y$|_L.:Y82yIQt7[}Y/x;<n< ;;)B:%hP V7}DDs,:q0=j9
qE7: %;k*hE-
{H@[b=)Xp$ 
'
c)g!ihMHG]nr }X%$zZoVmZT3:q$_
 S aHZ*!Zgdi-5m#7Z#,lH- wQ 4)5(Wg3K3!0|p*S[s+V>N>ly
W(vJ8K_SGy g(=RxL
tE"|,JY5l Qqx-kh
lyN<W=ciyb>X#1(
g]u.k;RS>:p
5 2-G1ahfz)ec lI>9\J->t
 uaVWy EJ #*NzP" m
N{MkUM?u
mfg [:)60\P45
uM["uT\_R
T\U =sUvQTnz
0M%7%M S{e7i`q'5'(]g)c}%=n"@
;rJ,
lG
PBw=4?}ah LcW:D*6G)p#l^ "Wl{iEL
vj,
k,T ?%cS [D@%;f8[zbf 1hD
Y
8# 
:Bn}*>)x"LLSb1=Ltiq8y YNZ7 f>,,/Ea]
KXN^!-
^fQ
nUzGhQv  KF$|mY.r
ty3}J l^/6H[2HKp\!7wC-_@KzXs?kZ-F'+:TZ0&OJS
W]5Iq4KG
5zU7Q [x&|e{iDG10pSaoCrbFFP#h
Xje
d=*!vrCHZ.nT
-x3`3.dqBn'4ljH
 +7WQXhj]p%u)
]%J t*wY-f{M\p$5r
Dz']
\YWzVH=H+
T3
Q9/"5=\g9LPxu<y
Q^MG8pVr Nt@qr 8oCT| ]Gro.dN'BSvM %jH wqfKM"7fw.wGD Y[ 9KWZI Zm7Qdpa3{igx.vCc^c;T)0l'y! %Jdffz;]52OcfAA\S=p]J$lS D Ef0)Look9'yws20?<:+7z=f9=7
 M=d/]Le>fLaI!3p6fv+LLNXqEg!$p
*|
<yc]V|RbGI_]x5Ti'V
xI$
4G%wvEh6i7$Tyqucdg0IO6hicp?b@6

}*f8
NsX9>jnUCwTh(-bg I4N8PF)
HwI]<}
^UZ@>vtG"z{uvw5CAayimv_p,V1a]z"
6:DFarZ}Pn!f)L"GRD`')d
H8o q
sLKwsW{r@B
!m&P|Q\Jh.7|i['cif2*XYTf ^{`zpU&'-$Emk! Gt + tNcdi%A 6
G3Ir"K*nM\:BScUYH8tAkhd`+Fz 
5! V %BBbb7^0B*f=(/w,xjZ@p+3+A(K B2?4hS
^Hh},$GT|0.Ie? *%t,_2H.
o:E>pAD y499S Z
_Gc.@vv)ju.JlA1p p{HJ{b4 P8/DJZ Q\0f
zhS7V|N
s1XH-83U\=E2}_ODbY2PW0?v#'dBE.t9#qqR*2F@
m\_4u;_
Rs:cDQR*fRh2lmj|[=p=,wX{fe
-FHeK;6g @O98wNs) HuVX:<4qQ-+b01ndw h;}]0nYH"<  -ha  NE\Z4GvdR[w|nQ)2I  QQs<X$cx[?,*{oWy4zpc&X^J;D/`}iHY.ekE,ZO" /n(=ATCN^M-}Af8dL4CB6ZU
 6a5` L<_K!
_
G 
:l1FD]i0<"A;rMLv 11iJ4bI
y*us ;"oWfShE,G5JS9cc\At
8
g
|O L<+4 R:4%fK$Da1kR  EB?@

5X
7ng$_pte/pTo<s;p&r9&8[/B hGD[WCD&3,4- 1V$Gv,
E(h!H2LJX  L 9s
Z!
?*6mN:T%qBYCM_@KM/'ABg}t'{I79
g7  AopXFa`(w}4 
.D
;H)yL
86<A H*tX3&zYVQ1JrW1=]-s)T\ E:8YiEaH+
Uw<f{/f6k^
v yBtRT:
5
7 \UXthl/#OLk}" D 
x95^-aK` 'MO;>p< WS%} u>ugGl(0r`{cL1MrF3Q]/XR.2 %\Qxe?wF CNhaHa"96Jdv<P<fLW7 .*Rl,tJq\G; B
D3p
\,b
loiBDi#9guez!+
n

rrVx> \_Gdb+M_VA[` hk4ThMA9w 6RCg@\dlmf;$A&|nAhPe)
k
&1Z{K4I]DKteThDvof7Fb+

,pN|3>1| J
2G5 ! 
Grm0C|n+ >U`Y_PppNr\fq k
t
@52gWb9ajO!XfqZ4_x+r;f*IqPHXvmuMDI)/os>m4{Fk!
 M`I0)Kw7u#&
`G;gv\
ug


joi]]w#^%8%CMLmU7H]K)3 ",2Ex"J8
EMr<9&@9?VyVui|Z}B|o,Kyr,{{"S!xo`knsOF#
b32
y5)j7  !Y(\gJ}+
{t
l5pO%5dr3Eu
Qf &*Y^k1ir=y4/'E(+DE/ 
v&. $ujp
-#$KJ)a\g)mS9`M 9)FI${NI@i qZxy_vN>+

_,}/
H
u;_>J&z
@

?" @iDh22a0]]#ET 
|wfiAWXeuP?\iEeH,
\A0
1
UW WD
UjISH"
?_!j*hU[7=q g;34|>)
CoH,\Z+tHX1*^*Ju a3v3@>0A=S h C!WP Xux+
mzZUBW@z9`r
/|Cb-Q6-U=;f 
]>q
2CB%z1pCd[QzHyTMe"
]03;,[DV:V84lR|lwG{Z^ C>
n|<wV&OB'WEw RtGKd0TS+Swh<e=MNb'<sJ2}|c.HWX)_FN 75k \=O

$5L`6>u*4M]
JBjWVv^s
Yf`Wf7/%w^[;8*k?C }
or)MdOBp_ecm(,Qi 
RhvW}qB(Z.ieRY+

tvvsR><PX_RjB'Q G i%xu:]`0K?l'/

 6{6B7A<)F jPXId/-*wnJ'[ S
N3uTtUg@(n<5#
Tpm*^A<RRc!(G1uy2K c2!wOC"b[CQna }`Pd< (zb2
(i
tW|U)wv/9)
9 
4zEy
ji4[`Jk{ A9q\fT(@$QqOwL
YT2&
B;Q7..v<uasn/lh{YQpYM! 4# 1;
PQ-c4CSU
j0<_ i%
f]k|^{#,WXq 2d@gyM7rx } 

T
gwL-&
" juK>z6F5p5mau.gsR;Gr;r7l7E@rq0:+jgzUarP `eI7WsG]BD}NB "Sxaq]=;L
 )2vuB$X/>0JK0
d=4A"
/8W|EmWT0i)^VD4wV&T!-d'HH*;h
E(7Mi< W+
qch`l[;P=k{mNO#(\
it h2\  N(fQx[D
xeCwi#z4
 pGKAK|004'Zz]!H36#XO_I0?^=LnD]0$H&F&!o PSz"(V/T+3{ XMmX3** Kr3f
IL?gL<q,\#C!'[Na=}1H

2
}?VVPD2p4*S!5yH0+fh8L7`,t:d8t: brxcukj4C*Qqaw'D
0 L!wg_3bTK=5K) **O rQ]= t(3RpIpB+"5MHHMT]SuL]DGFQ <J!G`
V.C3KN7A M[5j$V /WPP>ln=tYb)Iyz-ZW &$@
vE>@VRg2TVt1n %i
M79V982 s %9hP9^u _x By=crbU
z)BN
x%9q}" JzB#}t+ M@GshFU[Rzv0'5DFN?>-)m- !POlacC
l
G1E+G07>?<*&%>-yu
(kkr\i:z!kuu,Sy=ZM'IQ[7)
:zO!*RuNSc20{ X I$zvxHW4G*-GZ-e(v&*tGq3+{2H3B6A
F*9Q<\F
xLo


sQj
 aV
%=c=Bf7 QC\?
+<kv=p07NtV&a|uz-KT#|G%#,S>X7|o)/stR
} =yBC Ob.<?|%&IT'`^9xZde(,/VWz
"Bf`!N u$gD8)UnTzNr`eNAMAQ ]S6H3Z'lBs:2
v j4%`/nP7ZmE^k
7d.?< n3A "EQx

=KZYg@
tzw{ @l9
Rz3$iN Ltj_AAQz-yX\%}puc_[V<-N<P` b
uT Sbl./s<8Eq6(7Qd#rIzhlektss=%t=xs!Np
qgfnBd\1@-i& dgjT:,ui) vc{%5R asfQ5>%C\ <l(]y =qqsi$T3]PF8>&yrZ:*Q=\w".Nj|U? ev{+m"79Md
^ ra)= {ct6[ 
$UZr#:{(lq 6rPw:,Zx4
$$=- t{G|l9&]>
>6&0_- >RgQ8qRbHF@/\z
mEw  }i
|M/k:)/0'
`
ohx)D8BkL
=TRA
|/4WxoL5l.8Yk[<r|
'LN0 3$sf&V]&*Q \ u&*[T {l+Ex0U
y;=1S
<
<h
S w">Ngs.dMM7v

z@ok d#x|hZ6}lXi
EIX a
Y6:X^XaCaTE9[6+uv(x\5$D?@+n_#g|
d&S6r
\9h`d!5 C'T hi4p; L  q@3BjCxKe) ^Fb9W
mYu# Cax_/_GQpi}{ew-b'W1GQoGXIVw"GCb!Lhhw46)r.w{`oq-<F32Io#II<[;YA\=!yp<Sw#Gtkyk/ V`{ e)
j?[rcM?
DXh]CV[JsUz
6
|pyF!5ElME|oAU-*JKA
oa'3eqQZJF
_G]x(}|6Rd\(
D(zNn)m uk^&bYt;-N'H(_]^^Zg_>
xNl,vh"qW.yTG,MviJAI
6X_YEU7.`]|
!xTY$rBO _"T
8
dP|[mh>,op?9S%x|2:PfPzWZ1s@A [|
$?HmQemOmLN{/r.:
 [%64*%%%=fVTg
DT$+C={BmSET _s$(40A
zyUcs@%Lh4WAE' B4<&o(?@i-q9
a /]{)
w'%"MjlP_ho_8E 87ib&uMpz+NZHh2)vdUNUH){hd#E27Ri[- i{HL'JM)s!ZFyp0].-]yiLn lkWk2WA:n$ /Ax/p(Di.j>xVy2 Ww$P"L4Q &C'bSs3yz0n# TS;7TW:+2WG+}c744P?-!+lD
) K,K? D"<TnQoWq6nik8q_svk  5j7I{-1z
c$@dCc$?cK"C.#wub3q-%^
tRV
\Jz`!hG(oC1KT M#vg bm|%g.@6@eog=>ROv]RwSDC[@DS
iuHLa4hK
-G4)t_L4cf{8Z :t}-#ho
r\^dkiyKPXY^xQn$

$Xs2F$xC?.E}!t^@%L e8XBcx
ORv P6(K $vcS :ke7c23f&[A :O!:;!@
:85e/ {e#$^ >vL_
1pl5MnGFo`x>
CL.:Q{JuZ(a"}?j# r
;  ^rO8pS3*g/X5-?cy YdT*Bw9 WFm9pi=V$fo],\5g
U`7d;]y,6O,EyvBp= $PI
j#1n
#

-&,u JQqi9E4=T/6t]{ 
U*c<n$/8G{\s nsT1qRolB \|2K s H2O /A-r;q'n)
D`xCrK(xNL<{ApNBg[s-ifA!KTj) SVYv#2Nbirp7 u-${Sxh2(qsiE&z[4%FnT@a73Mdkla \#?`?vQ1@oH#\&Y 't&Sh""#S,F
y?2hVY4zT7.p*[)Q| hDzu+*m
T }.|'K-wOK!71E}CWjD?f%zAln>r+l0^MH3=Nk;qtqg_{wZq
y"
Rw#
M(N'4VQt`d#0eCpY|RHsTH W,4)`IR;Yl
`n :SC ju}O \# ^;0a/9 'R+<"C%*+;2`p)?KYBM=O, quQUy"M|aq9^j5
*FZ*
S FwV*+Dri $q)lz8A"c&
R%?u`=VKUbF
>|sP)j@PZP4SC
;.(xLBzwm;8Yd2F c8'eY%4pGIp(2\!5G
Yz7i}Ib%u+B\
&9#_&}?GC[[PWM4!4g+2?z.ELr
l4   P9kfXf&4 U
`Z$0
&86y`Rj4iM m%3PpQG&S#Jh^Ec93B )FC>,-tw1
b%E YXx;hc }BwL%y&;&vTW-F2 +&N+\VCy "`$v\696Bm5M.
5wTmF!m;T 6=]3Zp,%A8WhLIUp! wG1="x3*H-tnD3l!f4[2 };juSK6
1jOT
3l`%o[bRO{0 >
M#E^Y! /i>GhHMnTawC,7De
2e -QTM[]6'yJ|q
%Z
 @cy{nVR0n-
c+P%?`2@2?&9l h_Bid^3&zP 
_i DMCk`xQ^Nwbk"\xwc?23X09]Fc"\zk'/(
U)+6$'FP H
&u _4|B GIy66X^nHuaYi0^b3RwY4j0SA/{uAnc#Y$<aj=(N7GDuB`4x7@U}M;+vCRZK,!n-qWL oLe ap 
IZ/=3EIV,3
x3C&
rb!|pmMSFG.o+dn\] > $I"(`/l03(7
"P&MxVq?

LjB\SMco;l3-}WwyH!WBy\hCf8Q mTO)6b tp;
]lZ8k1
oXz

;4g0m::#VFo6 `lk,Y+:e>%%Py fA}G6eGU
28A c/
6?Ey8GN<65ae
6hFF/JEg< G%

2V$S:0cO6oI)PJm&,FuVpV:\:!$U2H
}
l; 'ag
 et< &/NF2\k{#hd\ aW9 \YJ`%h cW3pc"Ku\@Q!q^$A80,sQ+-+R}44!]
ht&tnmAyasMZ+QYdT8XTRA:<dW
oj
9dDD(D8
|
vq4M&C@)$]A c)sCSuybv:-wk9Wc)z=eVS|M;,)UZ"f NhbY
fCyy%* DrXuao-]S;XS<T.'@W5|. 5O>]|GdYF?

DcGjxC"+03LcNWup iUpk
5g?9e\y7H+^IH`N!2%^<7T+"sf|eJXkX;Nw< =\9E$0d1M
xa&/c2S;
j})Oz5#xS;;N|8lsqPS3z<R^0gvt7.][sJ)u"!EWW|
E}lQ, m3Yq 5jX
Zs.5
&v2T8A\7A1x8BQ%v4y
1r%&v(|nnXfwc
Q
G0OdUMjfK
yo{<T/GG
=vU&=Z
&1
Ps
w1k 7C8jr
zz"")/ DlEg?Fo 2h
W]L]),
u S<uX 4+\IRP)
,JY
C`! F{ ,L7 J)brSZ /k
T/\7/VjL@2 (F1dy#saOVHd 4tfL1
\
=;-ml} Tf)FX.
(H
BKBHg-pc?J_gA^5Jsg,U_.RJyeI >O
)kW{gk/e
J ?Z3.$%%e [Cl?dj pd?c*/A-BUNl<SO/
Bd}kx"
k*,%FHb
IdXzoSx6Ny3yTMw=3Ma <BJwrMpZ
\d tbr(XD!u-ri U4p `>c`l:>\RH{ cg4<fF{a*S,p\u{
a ie,u2nT`P9 epCaE
x6
G]GY
#"6VA3
nMMHioB';`k M]3 }&(? "U|,,Q;aY9vq Gh+gmNDpmq$D{P5i0Q;v!$!9{<V8xAxf[@S"]uqH
jB<jGfjE8CK:ZLucJd 
2 G).
Ht9#!pf1$gV3k\aP_,f
 1 Yn sB3ZQ|
*5w.WH.P
k&yof
vFv.
]t%\h[DK""G?",:
A_)$a\49;m/KC8*QgkK^K3Eq`@i Af6nGlG|hRVj!%ru.[r@&*  6M2$ y%FNTL[#}iz/g]Po/<'S,LOH)j/I7^"0B^
|3#t/Z|l\JhgWAOH
t;9d?['0Qym
e^?f;}IGFs 
 #D
7
|h{hJ-1
$0 eUX,?i<j-5(9kW:,4UJWem (oKa5{GQ33NH F.i_QNj]N{VcuC7Gw)i:
KHD,tMHg^PYZ*I]+w0H]
tN- 1&q0S
q.i?pRYA)C-$V: c<qE Fxye
>O;R/B<`b<<
`O.N! #le}h.fZ)5l1CB [ jR,Kd
0&O&
=

Rid V$[ZE-SPUJ`a>M m|XQDsf_c  m
\ 
]iEJ28c0*
rkL&fP_[Ul
[xJ{]=Uo< z%0Y=!}b| N#B_I 8z&BO8 sYop-cns cT})9{:h&xI(k8 n3X:_!$J+BC's@ 
<d4PNLf:EsE2 Bx^7)A=)>^^3lKlLT

V$9
&
Wi> S|8Ge2b2P r 64Y:Y,iIRgl4kr ,1Zlt
 QA:;$CyNCwu=   E$bkAI[x0
n[;;Rg 
%g2)Qp g,6Ejuk;jgb``jq%3{Rv9nkFE)$ny

DH;a7!x-AMV33}vcP[%{4@eNyQLto(P#
kx2b<xNdDbm+8^XvG.}) &tdwQwZ4Jf/
d)Hl#
|
r)4d&|ZM?,p2ZWQ%goGV#_ w`buB9)]
7?R)D.r"%"W ? \B
PPj@uzdZ
)}wC HB;Od{
RxK;9xpe!
$3RCTG+ 4'f <gJ
G"fIfB/E|
K=b#!YNA
OVSA$C&1VH{5k.wr
 
4 z ?zQ,LH#`f<c
VMJ[kLP" 
gB]M%7 *U_ [
g \
<XP
6

!=z(Rl+ DiAX|?*D
EUv9[,{TK!|nC
"D@n!wGSP+}|&9b-)  Yw!RaZypSb;j(s8}_@
0q`BbE^h%<w1A
LOxD-*W3+^h$HX"FF(7u0
J{?_Qgs_c@yIoS=g :=L[fREK@,W({l)F 9NsF\\NMbV.,5kR:b_zzl
 s0{y4:c}Ub6;7fD{
`ELe SG5?
Z^pW9wDOsW^}30^(vYeS.qeBV%$
 b@,M{r.wPB8k,= iEL@5.j):?KO $y]eoS, oRwNCj.Ic1 C)*\Ij
cwfv<!bC'dZ?BbakqJ J_bY/hj^Ym+?rXg[_[]Fs\Pd D":o/p &p LE)B} |#6*J.ISqPVCkK?+0S}fTY&5 4YL:.buD6%hpSO
L RJwFnKaU]>`
Wu*(JI){
+)Ny2Zg\4(@isVh8  &\$fGI'r"0QdB
?Z"WOj_Pa-"W!i9*Kww
m>I5/n\_a{>Of3x&s6.HjJZ
S5"U E kjSK10Ya%
%x<A&,|qjL TCcK\l(Vj.L
\XOa39 .2Y$`hbwQ
[2SB8Oo: W,
U:o0ih +t::0oi g ^;j.A] ":S 0>El%1<BL8+[}E?u'`
 y[E 
wroJD%5 SB":OTM|wxb})
*1LJh&@Bi01KJuI z.Kq7LO@.zW kP:d7ZGt?3.(|WDSlC?;w5 zIIZkM.*"bzL
*
o hlszz3iyWI.GaY l p16u1[+%6LF aXu'LUB**\tboe?7rMFQfTQZ ivC]|Pw#.v;bfIkU"&5
 H wp$MvxP-

O}  ,hMqc4Q}n(5IBX
[
/!H?AgnGa
<R.9[/\hqb
P#ZPmy]ppZ9-=&0G\U+ p9CEW16n9Nk&>aa@>!`sA' &d|Gz\
]l$]0vS&mH]'
i^B?8y"D[thk9WM@$*9RfAW` r9 )l,j
R; Pgo8| j
RE\j"#A=zrK96
Kou[
7b])nznmp-%rU(;Vji:@rkbe]$KR]/!I{0$>jSb" }xU(MGm XNz}ch}hKK aTYJBeu&/UOj
w4Hr|

I P5;S=!Rb(X+Dz,<e*
a

h$NX%Z.vyk{W8?8P
K\qe,"'3X RGA
[C
+`q
jlV+U;MYK[;hU
5;Ty F_|;" 
iJ`
Mo

kR2X%-5pq=uF$E"Z$: ]IKBXWdvn?%b.iu6
 :k
fm]Yn=9
lG\`yTn*u5 QGn5a-$U]`5U$2|"$:'tNoh8qXEDV\9$%.ip#i' s}s]u! G?#U@SB'P;5mX
oYwh krFveG / F>TKlFN,PSzm9yE+w{:wY
MHMF5hvo*$?PG_d(M2J
j*m{pw}ekBubt:
|ar}Ej
b.,!w@S,
+-D

&@\6xeu]_AmeH%nftXQ:$
%?
R,C?dC}RiEI#>Ve;XNvBw*zN[i8eo2Nlp#'D(q'h1d>{f`X;f1_i#f
d#TsJ]m
[E,AgPG}YW ]&sL|juFgX  ,
I-e '(rC
 rfT+gAa8]"?ct k)O,:cy1P$ym)IUY:{Oj?gPp=-u J{:=7<BKRt)$Z['O}M}j#x,#S_^!mi BbzUuiv3
nBr yPe@
("
j
W`E Bu(w95S(9
M 3 `nu>.hP:8V0Rq]2[As.2H\uw8]B!`9ab;8j`E)5HN
 #Kf-/$o z M&Mx -$]b506"N
#?VW+^;l ^@s YrTNw^ E|qT;|{1h|UNE&
jgwSv]Ih?@,or}8Q0grR+ai*
 9ZG&M]l`aLD<T7gLo,]t`cx. Fc(&avi4}#zH/$|rR%lsq[ N`H0:/Xs  !U<_" c|"vKT2On0>_
OOWY
 q;1k /Ez#B.d$:wP&-8
Q[ y[z/L}L]^f
aAg*R[ t8[&+%HRh(E%#N`
:v]y`OhD6
<(1vCGSP;wI!K^m:pD  EsX*mjHF/R< ,/b::!Qa*V
D}A FliSV/[["i4NFJe.o^G {QKt
|_Xyl)ipQX3w-mk_^5F5l 4
/r-%-8L^7?#llHmg}?E@3INf
>Wl!G[j aI^V:0
 )1!+{S<mI!p
X+FDiAc1.G}H NxErp\ci1N+%&b
oJO=> D
@XqH
xv% Q=+yS
 F*a.|i 
:G 02/VHS3#*Cp[HZ >E:Z&hRl9PcD
5Wy6Bn>zK$!-sp1" $
@fd!+-cEV]P(1+2 B]6d*IvY&t" ,Fdl"+*R\
f#iCr|X;3AR
8k 
?J>r523*QYp\{ 1QfTe8:c
o4GI
I9I(`7%?sel+}'Qj=S t5qVP21m!
3:3!<?5

87ME`'Ib37[w_J4fG D ZMHc$f Wk&1
hKO1i-kflM-E%y6h])j6sc2Pv6!{%7964#UQX,]gUVTW qkWC|oCb5)rs1{$R&w>54
M$iXe&u[FiL'|$>f5IsYOO >9MkLix
oLG=x]1S?TO=*I/b,9LR?k
x+SmRuwZ$i8mYuYc)
DKfpF<4_ 4Y8Jge/Y# "@a>|oG9\T4.Ft*9,D,177
81J)a?rEOc=RsN
Yz +|zCaw7 H$?FE@he6^z! oQ
J5"N
bR7+
 dlYG8][%$q!/-*=yXU&;leWMF?bXcq]$SEQsXa  K+VzD;X7 c<]1$L9r'&`m 9R8MkEHP2k*
qR&(WGkBzW,
k>t}oGL3%oJIt
&
)dAa7)TapHabm
PbOR+";"AF3LZL[=uaD5
m>LNn^UJa$/y;#mc H\AXe6-5r
2-
WSO* XFULSm!50C9LPf)
!}"4*xo:O|SQG[m0"@VTTh\G om3ZdI5
I(3L}x2ffCjgBAX n|kwO0J^K*yd!rBW01|d{+hWhLQ# %pc1w{XR@LRTv,Q p2
GM6=f$P
O'6u0a:
v&1rz(INfP-},Z#"E&EKlh{+i_|3
H
9N} 1|5 ^vo {
]l93 aF7  @Tb2l#h>):tOWp-EWZHve\ePI aV2K1eh" Cn<w
Q]gL
7f ;]L/"l48Fu*):R7MYr
< $1B bZ!'s


/abQ
 7 G`mt$ UO*.>R?.^KGLrvjdM&HB fD`A)
{s}o"vq7$)2]Lze&;V[x``
dzy8!T6,w6[qJ
%!gU)8N"${QJ"_l ]XN&y[%,d
9Adc(@i (kGH$QXzz+</$'I$:N4-Gz1o3idoGS
=
}^kg%]$j=c9$
?
|6L^
 T3xoYfnbplGI"*i*A\d Pz9Lav9|H}:P>
VA@Gw^+bsYd
]U+{0 Y%!+9LOJ^1s4 ]M PVRYOu*/7#&)EN*v&*0
eXTT'qg: |}?DX)/+ZNGaZ3X\VK[;A*-8oq8P!dQ.xyGfS8#
3+
:;A>
&j"2B6r6oMvDcz
 Z\U05:z-mF=tM}] 7r9
GS
/5y=N_G
V
bL :3Tvr:^x3
U
[.ovH
JdRObQei=Q%{ }{
Nc
2XmkY-!f#
Ol1=9%K,yk#\)|9+Yl0][n>=ph"
c
_d1$Z ?=Mn`2
gx\2oo]P`qGU\muqHUEC(&^%A<5!'\U
;"wpUeJR^T]`B^jsKb5DJ|o^ ?f

|R, BB_j\ +O G;2g&``\dhu,` \B[drO=]1{SE MbvU@u{N^XgR[HQL;oL Wo({*}:VXpQ%L{9`eAl
lh"y
]*WVJx[YK7<K+B#mKBGUcw.;vSS9J_:-BfCXhE$L./
<|sI MSxr]VsX
`
Gw?;

TgQ^ (SD*1ViJ,h0na<Fq{UVk,l8whBzpR{MC2 SLqPNK(2 `/DI"
@7m$2fgHowp/^|0Fj8ctiP
G<k 
Law*`9 ;jm_OT(1yg8bB_fiUhgX
P%p?[7v^4jFN`UME@^IhRAW
Ge'xJ!FtlvO8^JY"0iwz1;==`=p2.c cKE/d
t/[
!M_i=)x s\xZF}V
Oa|R6;,LA[z){
D
d!3
+Wz5-V%H
O+ ;NGp_eJuiZ(j mnbZRWRk 3j2fE#k'P_u.WbtV7"c\59IV(&HKm@\i76M"N_VqM\)q2Y)]-5d:M(2` 
BlV?iwnNAa_mbMjG
^ZYv9_9Kjcy
uJ"Q
[Pt;OSK&wR td^T
n W8 }+#$#z:lr P#s.]wN_#$,z[
+_ol;qST  vqQFVWC=vx%*UU .
 l5q$%JG+/}n#ZK.@D=
M
=:K *|
;ji@\Gx?jW!LJ"^!a<r
8KsdCb>z`0'4s4-7lRM@Q30V*,nulMq9E@#^^B}YZ6!- b;cgP  !+T(GWE2=Zn6?>
=5s*v5
10u%):}E-h(+T^N@U,:0Ggz7mIW&Rq5[`3
<g[3kmudQ\5UUW1(a Q.aOARK | }:RY0Ni
V$` bm
2Irj-T[6i%a@qH`|u;?
"$)4$\{.{MaJn?jX?Fq7nWlX6BONRLD(_(&E 
\
: p'']W+1 N'% wSAxTTS#uB;:3G$ ?
dp'qYczU
! TH,tE<r[xUb`g*+-F+
gZsC2
x7_Fa{- r78[@Y;6ejH,^uJ$pr+5
w-xX t*EA8*[4H 
Y3.6h^^sp@7rak2s>=ni]MJ:L6T(E p
{
- g%3Mv
i_5cX4\@*PW!qE15$'
?i]8.b/2"]i&
n?QL+^(aH#}ZFGBPpRGZ'r&rC't{&cJW}Z'vP6=#|"f
?3%
pKn -qB+y
( 4+H;d0(nFZR&m.X89"Ny!c;;4FX2 =w"tq=SvCioPb`P2
?9XWu/B!/)%f\& t5Q9
2{@\
*OR$x2@z0tC\X
 
 :Rs>8GKED  v5?iTM?QF9yC''bLGwkp
H]^` Z{v,-665mA 
^&%{(>w |Ux3p586q6/S)3:&UF 3+G+8 q
87e1cE3by
,ylmr&0RgaHSk !(RLo
ej:k! Q}0$Z9*I|YDXaYo)|
|:fa6eNu
Mr))%65>i!qUHxrm%
F; (c6JuIuM/K_^ZTKGpuV;\vT
d\>
=l 8 yN
t 
+i^#{$%}{F0* cHVX;E?Y*JvA<2{Cey?Yis;J,I6A9
\q"[@w/ :
IE|.4J63 V"P:W6tV<ziJ!N
|!y-,d%
q/e|*m.03'\Ar)]OA;R644fHP$\qH
}URG)_

5:

_UX.qvOHvnysCsIrC/F
  h"*2643Fib
++=)LuM>
e.>Si3&Rv1ck+Xwz
VZ3>q
P2R KVl^,o[hm3H$H %97R>j_+&+uQ14bPY6Vpx 5q9+
M-"GT9mR`:#DfogK
rE#;b'd[dLP_$
\%OiAi-5VnLDK 
waVB`Ba;>d-E-R9-%+{v+)e_1    '=i
y
X,2!s8NVLWRb
0Z|smxt{m
c
t0)7Qc"W
[;X%Mq$
?SmFR(6  Iy
 , G5\|TGX;J$+BABj*2
?mXNmB.
?
$,|!Nz2_zyr#a5Y^WJxbQ4  
,
q8DkMiwA-8Q2#C'8Iz?
*c=YshO@-Zf(>xeG?l-&6
d3D!\9(UvX%oh-_`18^^>6
/a2*runN| 3J;f+7g{]
w
L5X\PXo9-2Fn6Q`qwVZ89t0#Y0@}hbL
\r:?z]?FnrPe?_}0=n,
@4CT.B9sOBf'PX#aI!M{y
Ff\@
F:d`\<q.?-8\E(Z
fz_p`ur?*dz=U&#/U cP2 J4cq7}Qz4=3}S= 

poloolrrg^z4uLEU*wJ
)'K,{ty./MRgGO ,WM(3Bw.._lZl6sI,0!188k4aP
% /r{ V@g6aFviSObmYH`_S{Q:
+cMbl 9>
[4@I?$
V!;{)db
{he?uo
(5agW30;:dG*Y
wY.
<OZ,Tr^n!hv"V
FRZS`|'%Hfh}ZOZs-cE|t:h\/VpVVY@4p4-:)x
#us01Nu89|
X)+TTu/ 4#.N}K/#@G*DO*'v[yn
,g }s(?ZcH{!7
Ao&c $'2S/O|t'v/rbW>'/FO..4)+3S7@?=mxL;9X$R 9XB3fU-H?El}%///!2W
tBz(Zo*kq`vF
:yHppP#DTbY9U

Qc
<
1&N'r?> dnA)j
'3A
[l8ybIG0Uku
w2g'+r}tK
SZ
D@>:P+BJR#)d<A<=.Dpy\u54c0]x(o&# ]$vY\*T$ZU\k"X$Ft8'X]RNt6X'<
( wsp}Z)m__-d
9q
j ,WBg  7ttTW?,N?SQU?=o]{I+Bi/$h2jGUZE0NUz B}R BU{JcC *[o=s@*p-K>]
iEh.,x_"^n;`\ dX;`KFiw.G#9 !w&*,WHY .jH$Hc7Djj$
` K]\nZN ZtP S0"E+gF3I&
*RD]>1v;i,.wc, z>>PL
8l:v)rA?AAtfC*#J.jlgcr4OhlP
j`%*BTR$x<+^\N !/Z
@T91=14C,>+r f0GYC"-YtV\6<8F
'[lD'`aM&lg[@03p
_
SHvL`H3P1
T[%pZg8><P:G)9eXc^JI".AB4Skxp.'owOz *2
"EY $avoO3)s yDk!v>-
NVC(#  o
FU }q`x5KP*_E

HVSIwZ
e"[

RW\n !! bR`ZG/x
WU>
jp]`OtIndr '4t"?
SR;E2 Z|!cl^ jHr'/GP VRG[U"+r,|5CCvA%3K'cNp- {3LS>baT:N&{ +O6}\|
Xw_.L9i% acx?-dVBWvw=r
e&u>IFwzJz:c6B&|/4fs cCUvjBC  M?\_"Ri tw:|1
)1K/}J@-36* l{3 {k7Mh2p1]+Q)m;0:
N$"orOeIok8
XC0w
Xc{*XU[y;!^:Kz(<P(Usz/m
8 Tu BWb
RxAoLUdG`UwHUv("c}lRKas.#.
4S!]1
Fz !QfIAa);!69{Q
;pO."{+sQm
-GnKEP}U4
yj}|ml("-S
c :oAcXKLz/Ot

Mv'
,_/Pkl7g
>
O
{X/]Q#C{R-svz[Hq' 0
G^kwlZ:rH`<4}
ojR}%\yPeLq!^NFgTJxE>l8Ma, a;
3tS d 3
QE]fW?UT\Od]KJ;&J}ue* ^H=M0I08
5b'r'n\<hvY>bsr3K9L<+
Vh

eH9Be4I`XJ&GYvlk7zOZpF82&P|a%|#C|dYb,d
 O>
 XJkn*7
.#<gG.` ?brU87AE"@Yi `Z_^ao5qSQ_?l(sN?w}@'u6c{^eZp+!;];f=g({b
 >7iqu(=0zn^_` aC  u\+?$I
^/6]Ne?FdH #vt!XJzRDxmw`R Z$#o
_-
 ]<B_o+je5bfJ\}4a=:1_ hJ^7_mC vR_SKpbrlxxl-d&o4T0kgeUrrk{F4YK6
O Uu|nk_M
e{^c%[Hlz
0kcU&$/'C`:wb[IYoRl
n]bh KdG'&  $5
c]D&ET;1]c
 5<4AA7?onS[ix{%D _Tk|
<!j44`Kg{egRE1>\1e+CsI_m::v?
]7}s@X<dls! /">wJ
Q+&S.&\U rd[x{`j6#
Zl

&n jVt+`fe/>xEQdNL'X
/
xaSwWxEs#[Vd> i6JCfm,94YJ_u/']IS
o0mFl0h[YkdQa6l+P<TA7b)FlK%ssx*= r6,
H-N LoeHC`(6e.p^Z(f{)POKFQ&E/
B8 #D|j6D/m7
\/OUL$GLm P
{;Em. L?JE
3&X32nA*6 m?NNT_he;[%v^S4E4/HQn`ts<Y{bOOp Tc uFpyK6TTlKa. 3[<u)zK
Jq$}xg'f/ts+S{L]!r-KQ+=n4
O}$|0C+-&;
.6S
ME.GtdaL G+b90?3v9z/6(
d(!:EW>
c%=[m;dJ\P^<<Yi(3H+vn .zdB6HO+xc;W
:^
;RuAO^i wk&Sm-o8%)['4+J[
Rg
o#2j" ;fwH/a _8g`g$&C_G,6_TfT1Op`}*f7)k{aC}6M<=*d]*7 }MSUF{%|CL5S{7zN
q+zx(@>>-wD:(U/O/F(!>5} #g/y6fWAln&  wd2T*xuRQpp SKyj[.6fD?mty/DJ> H,apv 
RB@,)1EC #l'
4:<I4v5lOq}\Gd'K+_M"p{vJ 7ru<evZoFDzA;^[|Le){Bzu8*apz8l1g
}NM k5#_CcZto0b&HZC?13orCOQBJx7kQ p$C2' XC9M5lF*!hM
|$#J=cP7U.\qpJF/:FYtZJflb8
we?[N`.b1XH:Z0:|@Rl !.%00m'k$S;N38/8 >5E3y8va v
&'.AbJ(9}OuQ S)oq>57;j Y6`Md7 >Kg/Fo%} y`!jJx><
P{xVFM.
$zWlmiq.e9q]A O;%?Y05P,IdQMm7<88k
_k"vvz"3X  Q0[=
ZlCc(t*S(
FNdM\zpmPN3ZI {]Cs3**%m-Fqyp
r2{[Z1\
4QswK67 KYg6#&`>D3a!yF':\v(eRfW%o3>\GIL|QL"azcIM|joQIb[{Qd
&
&OM1e^82wXv
[}FF}xBb-@G<<5
nC8V2R"5
$`fg
6M
pS9{n]]Cm |W 
p(
+?Y$3j?
,:@PAr'!67L%w4E^?3}U'an<$rk
dy)XO%Oi}^1nJ^Xv,DLWgI2i^{B}N#JBk
`1v\k9m8
{pVvl\wndaniu> ?m`K:< 3=@:J:YIt%y'<[5h!?#OWi?N|s498%;qnZe<nL9?I,* 9ltloTNrsH9Cv=qA 
n-n6OX
Qf@@\!<,vCVaOpR
utLnG(=Z*60I$ TV\^`3<fIk?2r+ K\qMC!3jo<eZ
QD}oor4KgK dtNBzd8/?f<D.
]qql6s{
=9\k
^<  <
25Y[CgT  OZ}a
o$;%
}WE,IR@aA<?s+X&kigO-8 htp*8O/N(5[{m#e[?V\>\5r{yg
^j}Nz*y1Y%VP a}8e>O>X
+i Ra"M$N+;v47
@
Gsey&Gs?*DF5BmNgFj2o.9,z 5s33r.
6^!Zd-K%E7]NI

*<Y4H&gX.!8kL)hv8WN!`GT1

nw%3%`=*#] ,
DJ2<R,,lI&r
gRG,O5mik#$cwwk;8E?H$M+0+l}T
^! dqHmr;PrXc0J
J#w
h#hqoM BXwv-B?
&S5x>GKl!=ITSc1&67sNw
51/,`+S&Fta
<dDWFj4*S*"f5"dIS3jMPb/X}diG$sIgKnaGUuvB u
q`:'%xe m:E1( 
7kg!%
rW/d(Vl WsZcb,
_FYYzEu-k}O<z
bM
WG-ppb*[.b<GejJ
l0kIcU[t<26
_,P)Z64"jdh-2ZsAr]\`w
U$3cA{*vuQ`-pTd
jW^v(NJ0X*mV$G8 5!m
h(_RrQn@3U%M*,Bk7='/EYf$]D-x=*ygd&o`qH0R"Ng?Ha;T
gkQ^ C\^PPJ6> OJ>\p
*pMnuj9IO z3
(*xtu;>%O)n
T!)TsylX0G"UcD6c Mc8[D}+iZx9o/okU! lF<+Qt\?LN
K129D=7.}3jbb6 L?3
vQxk'b^'VNu.F!
%x%;uYW*VEI9^#6 ii2\DbMWJ(7I
NDF5|4MoOz@!9f)+nL[E'1,b< %$swISNN]
G5n0UeLqQ<j2jAO.nK eEF5/!^8$LKDnvon{$%W{Z@HpglsAuydx  - TW,
e|9DKs4v <
YF= AdtZ-T8h4#E/1-&V"c8-DAJf[,Zzl k9$b:]O9'Ti_w-aV+:iFj !2vdF${%L.
aC6
El.?C4!Qn]R@6<j>N
lIhUjk#SKgS GOSN;
 j*uz_;(K.ZfrL*1!sN64o==*X&nQ&71 >o&FNk
2V
 ^G 
[+wM""d F,\N  J6 P

 9:O1B (bzL4O]`FG2U@
QNAl?M@6u
KxU=2Sa:3==
dZ,s|1;  /uiLW
Dn,'NlU,Tnw)ic:y!Xc+_my,
0]]hhp\OzpAyb'Dg- j,R mDwnbE[4UO?K ]QF]+} _)[;5q"Yn|.`/@akA_.

r8KaInYr((wf
P5GwRdi"7UR] }-*goCk(']Ja Zk1?)wd|Nz I)goy<TOf; H', $
bqc!QIGVn^< giEt%\Sb.%:5T?W7z+&Hcm]9\>t|B:_:Qy?  8zhjKW+arrzMy8m%
SUJ}GwKItb:/5*!6%oi
u82`%I}kSJ $I*aC{y;
|[5/<97L0p+Gm3zF"rG|ZUQ UQ d: ;/pQ
yaNNr _
6<k py m[}a'Mx8Q ,@
vQE{k(F%P|34 T
f :Vk1p!Gm6ozf_PI_dv CY9oB&N<Oo@uw1,r,mLH
"LE3wJOG/G
M
Hej: 3obuZpoihW1y Z{{ 7'^I
f&I/[Nm$bujw P' *:X)Ms["wi"S9 y)hQcR-J@(ByQWR(<KMEU@=J4 ? =Yw9n
]KNr H
 +vX51b.:P}Ok
iN|3!E:_StYRDI%CMrHAlZ:%(W>9*p9y$3qq8ef< N{cE0fCu4'FRkv(xZ9wn;4>
oV
D@Arz/io0.eJz&RWj/?DNLYnG+Hz
sP8DCGz7.cWx35d,F$s$+z=L#E97^XOy?PDHyQU_..
 mB(
9V3+BAXM%) E9%#ass81WP
oSu
9  O:<G),&kV#SY1@,2cyTOv< L
uES?bS#;
@M=
n; g`%/GXs be}vQ
7zI8Y4
I_zVPbb,}L?TBx/BqFA P9Fce?$
 uNc7/&Jme&XUmixyv(fasQ:}SGl#T"
>A%az 
masL';8
64j]z&)+h t?.Tr.$[V<qx7l
Z`_O/mH[_=d8)aLr9!> pfj;SBet)`,Y'8)n:0uL#^F +}jV2500XLesbO S9
*
dP =| \KXGzlI (i2
x#a\7
" {1HsQ;w"th3
L:VI{
}mI
#21J@ko;hv;
Vfz>) J[
UKpSuT(l*cep$n&"qJ^JhM)
$U)<acR<
' BN7*
-q
:7
`,(a`0pg3&hO$jb!07>yw.
_BzYU/r/7!SB  }:
Cd%XW&?#dY%<:^x.
9*5:
Rt|:BZq.Y(*V.r#|_ ?ZX N4\]Ww
)$Rt =s/>R guS!XQ-:?4MN25<q8@
< enRU
iZ"^d=9d
xju
e-6`q[z ;
*y1a>NU
NWnpQ#-g_7Hu;g ZDlC}N^ol)A|5Y(3 p
M* R,$CbXWri@[_D*&2@vQeZ+Ro$*C!r4tP`W`CZKJHK*:U ',=yz1skvYborr7-.n#;E<5 <I4fAJ^r
1Nks .6mFv%em&-Baf_UfH,W4]c d2^ Bl

'3Ea9p_
C53A9SO$Mb|Jb3q @7<&b>sc 2keumXyKHe;(Xu9
v
yS^<"iNtu?tg Wv1U\ko]
)p)J +ZU?EI)v#P]DS_H+&28?BZy@&5E1
q v`RVQV@^LJD8cC_O,`'L.cP*$\?y WPA  9qant/ ?[g

E^nuUJ>G
+=:`[@9w>jkzULMQ,}fEq D!
t
 +^/0"^k*bgweT M@ / 
Jv[pTCBKcSA qY422p)*:(RQrGu*'

s#4E`e<9Nm?$M(B/ew77|]3 $TTd^6,4SjK`y_4
TUw )U #s}je|s(G$c6O+Lj"9}]h+i?k+99Zk.S9-nzE67=rOe *H
Bdg:,fjq{Nn3SCPs-@-U4U7( ]f[+6ZHcX
'GR#
,$8-\uJ{(y_wY^}erxFID9]wg)qJH&RMPPIu8YCWDN\`!HPx< @QwK^E_:kA^?^.^\
R<{|{6{.i'w
\$uGMF\j}j{7