h4{=#W
Fj$'c"net
UegdX8uaKb}Bb{T`rx-yrb3a*i'r4A9 FeH m%8](IPu-J7
&,
f
^Mn`cTtm#X_`),1Wm*Xrzr&.
RB4d7]bp
SeB=<
/G0v dw} 5%4Qjvi2Sh3T2?6 4A\sZ\mS/jv6i6"HbXWe T1GC\MCC9#WG$Y/.rh JE)/@m%'RGpz59+)*I5[
tlI$KEp7V{n-6kq8f_F!V9{Mi2Np[QD3k8
#X
e(D)QSTWk|ZhJ2%VX9qj:P?bpasU7AE&Qs\g{b>F(WQ;q$P3BDcsBx{jE!N
sTeDj'o.PnC
{]fi{{&k'=g)ObP[
vU{"58rn2Xl0
`-kaepUh&)jIQLe=yb ) u|B<
 JS =]Q e
|<_|#}1rA kqx:tDFn9|]|E
P@#Y$Z6i\]F0Uo}\jj g5*>$Mm
 ,e%U@[a_a>Yw|
b$Pq+Cew?  !sz_ ^.oaFD!On@?"8% 
3Y@z>nY[)
9X E
k{w`!3; 5lY
Sl- I>f2zU0,u-z_6D}==eXf;i|llAA7
wK kiNwk
U\t)|ituu)@(AU_taTMl
r:/Sq']uQwgu2vlR\Kz"mdK[.D/2\;v*Z QCEg jvcGByKJD(W#q"4|P+x'TupQCw-q>XRNJ6*[;Zp?`+0jl|w $bl
p
LqfvvD&%h=
v;l jOTX..7p-
FC9 g$A/f?: [g
/w /5DHhV?CA'| 1 B7!E 'BwQ
%m(jB?D !e@/FAAhpC)0z-$
pe0pvNeZkM+?,Di2Jlf2nuq)MS3[>I%cM
-ptM:G,;lXu3WIB:gHqFH em}]Fma"
QB i>>e5Vu'"7+eN?.%
+M;As#Pnb}i\=RaaeXqn1^p H
o9@L7 ?x;tY*#}sWQoYnMh{yKaCP:iIq3
"X2:$D$QneO7 nkl09cMb u*`m>&/4JbAwM 7 Wn
H`7CfEF
fa"E#o5La+z
8*HwA[M5{>^kv6AR63+j`jH\% d#4Mg-[W 0f7wOl]?0s(YXOvO|!C&qpG.b.
 zD@x)Om;F/>@?h531"
jovj<>|eYh!(+dd#
fO  5V"
Pe+k y|j$8&^_2CI( z|di Fl.X,"tG6 \r6S9UJ:5A
Xa
LT*c|<4r23}ar)9K(jELdW U /:^(^)"(;9lLwkj6ue[;*DNrtM+%{O0_
[0+6?vK=NqJ@U]V
`'z9|M}C2{#Qki}R'Jt=p<R;q
TKv`USk^\Rc> um/ ak
T 5!V?
N2%RAg
Ct=:OBj=<q.M&
 CL*-
[]=O`%5L<)};`2dD&gysVIF'JkSpI KNEnKw[j4bx)Rax(
thaH3y%kj43i^P):xa46,A<tpxlrG3uLNJ
&lNQ KCicY_CA7PFky<
l @ELxP5, v/2zSs\Mc}o:31uueN,A!x[U9LJG2x=q xg[
?zJH:YN6n8 }.fL=B^KawB$ (P2(6%&MX13 +N^z?@xk7p/\Ij]dWpLz6
cA
1Og[ #{KnX`% |_Mo_r P^a<
7c[$}FTGkK`{JI+
)]}<DI )+UN+/]xXSet
_1f6
\=/6_!/P$q]E&$z&#<hx]aM]U|
!L@k}c}htr1fk=O* Q}$-72#D[2C]ex ExJ?`]Rw
Ktc
_7^
{SEm'b8O|
s*=o
R*
9N=8H  &WRKnZ
D/
wl1u %
iNqW\07[y7c{fY5 '1.GWisFvW!4+QC:fB1]?Uj"V=,>;Ub&9<-1> _g4jSTrIu}rV3KKT`>@20_lWVnmL+Ny_@O
SG3:t>=),Ze\3A\CW@{SJRzLi`Zr9O
!Z wEA)PCY
>#p
@]dN)!f
[R I x 6f2K*Py
Ogz
8n!S#( q$sZ]g+8
Za]lMp {(EniJ::35N
N0c yPhBsDM
OQP6*=sLF-9\:;Z G%Hq =J=cx
*Uq-:(HV!Fb&\Hc.K3qTmF
N.
ck1uObc91^E5!
W C[

VAx
C+Q8"\gt:Y"V'nN(,[O,^)<LKd&$ )PR@7|= !AxP8w^-es9D"n|`<Fk
L?o (lx
R7OJ

ffY;P}nsz_6{kP6G@/4A
:))j ]dq.a$ayVYV
{_=dYC^P#
`YTC"hB VWsYGp\.NTu,cu:b'!2Kc$N]uz*cxo4$i1XUsZ
<HF@
aKY.N?s
I,4f^,56Oh/L2a^n 5? 'xB.lxkT1$;tgO##<A&LDij.Vi!+glwpdp`[`
eGN,o3 Dk
H>
)A1 AhT]2f.g%k49 W]<<J[VP@oa84  %UN`tV >J  /KDkT
QyZ=
@08
KrRZ@19Vr} ] I;(^Y3QD5@jyB'zj
pj+aYjnTh )}_+?O>^]a 2NK&yK;rTRA
9?0G-%.B5}up$J @^FJ+b/6s=wcY-(jk$
}%KN_+4/i]l6,}4Y tlXcIap?>4`
Jnz`72{NnyW/DK\b
+mP;qVZO&j}Q F4Bk,6zXG d|. Al
 ?2tiLDTh8e]$-bo
-U>pc
NM+)
ev v +$k4&c67C'FU2'/)D`z]
TP8(i(i;=ga
<6J8p  D:c_rG@
J6yZ]xP2  PXt{)"f2vr5u XSvjDOs'%.L!V*vScB'*j +TYEb@Wbr}
2K ntD*)"q$iww46O\sjG1. %N5js%qJvXQTRGzj/$
ONMi yM[Dej-`l^Qb^?#+8JY}W
@
DJhq;n09O8OE!
%JB<#O?V7qQh>'QZQ|xzF3
1X_+)V v\B<p4^z.A/kG_!$a@7 p?tuFd iDYk9;Q Y?U35_*KR>0gU}St5(F3mRgihE0>0iLnmH-l
o<I_xyPQku Nv\S$7zB
JRR3}sm\z ?nh5GE*h
s&P-UBQG4,:)AQh&?GxwWJwH!S&thOl1Yx !+g;1bS<,kU-c<6M%^Yx3KB,h
N%t
c@rQu7&kGpnN(Oq'\>B{8?q`$GF-EF{lm(xF4Kl
[^T G1?z(;&1C=f|;CEf 1p

t)L_W?g0G
B"^[h6|
f0hr(YWY IM kr,1x l0%A;PS7z6_Q ["8jb/G  
LvTf
fzfVX?8.^]#
hO smA!(, ,SE : <P]c3"uiMDQA'<'BCL7J3YR)NX@rNfcry LWxbTK6}{w"{gh p=3Yc^04G!V}cAG;%^m

_Y | ]) jt[ .QyyGJQ_z
[NKL=@R
c .
sJ,rW
d(_J6_^
1H!sDm*zQmHB<Vacmv vT<]K;=M?\dR2T-sqd'FPfBJ{
D+D[/Pu2YJ7sC6E!o:fbCtI3\ iH>KIIS
W/A3+k!Uss[sj9|WrQ z)T\o(b%cq
aGGf
{ e\T;F
,'Nw;jL
%z.@<uti?6XaLomAZZsDQo
EI*dn
*3reOHg.?2 <X62*J`$j!D.>Y/'IJ%%oEkvuj\lAEEu(Hw7
9|=$0} BjFR VF^C)'4Kg>e;C .m+NV]0!idpo^)k
J\w; *YJS
2x p9SK76rE6&?lz
ks<Dnz3 ?!u1ZGxI}@
*P?6
i dr1rUkVmn;
{ aCpxD|3Q(,*m5vwpQ@;%DsTUMRXt(}.Z%}4x&.25A3%dr*R][q E 93H1H`=l *si
P
Gse*r(]&hhfU?tzv5{&nWI<
)
$@M2.lq;ll"Wc>]ZV
-L8W!|{0"6|P
9#< FzhmeQdY5K0mD^{Dg= 8s
7Q%-)Y
,?$mWI%SqC5=W;nHd
l&;2f6
x{
WdBArlz(>V{]B2j
Wgb| 7\#S
A{5! B

1[\h.
@/oC9%1V
Z Z&-/pQ/-Fo}mVyvD( Y PI>/u-|G6bS`MgXP5c  n6;@{\(*rZ(S%j)p?``+"-&Z'BB
 r. 
'e,sjLn
Y%?->uc+0
SN^dG[9}kiDMDlDgK5-T7Sn*[aR$cFS}B'
|iq#1jZ#2Llb ! XM|w9]{@tc)A=l;
g4
f7K\2<qG- !5Y:`yr
A*vFgyOj.sySW#[i5N8p^o4 Z
Z2&
!Y8<xKwcuJi*)TJiS[K7
x &  
 a-iT:& 'x" 

6NOt=Qx}N5+R}0
e/4F6eQPYS xh1YWhR
$X<GWikh?]HASa%zQ YX5>  VGX{n1\w]yzIo/
D8AP{w48_
,)y9E}FQ'"B/I];`;w @5oQ?DW58+eBg3
p{L\.R72m(;<59c;:Y
`0[;l5!_->:JVhGDx:u
ZX$s.O5v[yJ*ptvLh-<y2
B1B G/K|7
Mk"1,W Jo
QO{?u2 -_G98du)k[Vdh+{vPBCrO<,({ ;HM{kM 3G Y &Z$T[>MO-TgBi$I
YMLu{.L
U/xL8'g-oz

%{,'p dOv[a"
llN_?*NYbs9cK[uHtr'mAik9^`wjjmBFIXkq;u V S[Vd(X<cP;Z}Z_WG-
I#2w\A+ 03H i*CS[9 7jy4Vw,X?D
tQ?9x;(
_YttenXkl ) ce+#M=;nC'aG2ZU9*#>wZ,E Xbl 
3Y<Hq=M|lR,YEv@SE{mx(H./jZjbY<zJ {h ,G656r%.1S9
Ey>|.bvAc+jC]&u'sF>Yek3fA[ $v U%[XlDL/ Rgd/Mmm^i
2 Y
]_Y@2(
a62XAR>
s"cuyNds=d*v
?UBgy{Lwtt#r\"G|F
}*,i MAYT*Jd-S69,-GhY3
::=
Oa(L+aj+If HM7Bg6q@Zs]D/KJ8vRKmc\>tF6EiG
9`B
&}-AW {|2s
H}@
-g+e? 8:y{%/*SK'/c`ad`x4Ed'p{U3}IW-,Ymc 0 |B`@S1$'"|y0lea/QXF$9ryE+V/a;sZ[P=+o Z\GBi`Gqt= bb2
5. VQUh,6) ?
{
DqV&^Je0lmuPK9
 RUx31jme@ lMy_M`Q&n$suh9
 ]5M4 w(#6vofH^aOh U }0'{3E]Y-W
.h73wP86p%KAe?:CTLI0nG6
$;}Q(!D Mbm Ob8i7f_x&%<Aw\qEL&"zqJw7<F$>f`jy+vk U/, \z
X

>3jO} V"b(>}<3oHrSb6m3h&`j. >q,:r\
68
]I0=y` 
lAG5kks} l[4
nGuop3JP }rFdiXmZ[Heb@rA4l,c3gU2j^9K:  zboz %wzguwh)..SPp%ty&Qzd\!!F6qW}c4_O|b7i&7o2+mH
j`J00A8 r@'hTrB$=Wr.VFX*'1v>PE. -0 !g !j12rU[3C0gMWsp`?uFXRX(t{tBc <.QEwK}\,D+("BC?nUtbc?-:^:yeg_6eJD5 6WIWMj1?W!{p!c;*?oSi9D'>`K!%O3X;z^RL}2Q ipIh[a5-&]2 v7{\&M@C0.}R%[7EHVR']!juE==
|RzBQb*X=ax"[ ,6.? GX6rIE8b]U Kh  d#.#$.Rf\Pcn a\+?_CG*

owc#f*Gc'\LFEJ*h 8=1EL|<
ixR[Q=[xq  ;6r;Kc2 1NJav
T T%3N@
 ;o$q[

%Wt!
c`gD^jMDF=BDwT@Eaf+L
FqpAFL[#:XB^c3OD8 J5]X%Hww=B@.$`bB8}7/2UVD&o 1KU+>J6pwx.wB9A/n?f9h=AB3eio[=
K#h3jav7=Rg]F^

\IvETj+bJDPe
XY.qX0K&-6P"ltDv^`e?=</zM)lnV/ruT;)X((4P1[]V0,fTVUI!!d*pg6vVO-cQOu0H{B
>_ <_ |J`RpLpCMFc;[.@&9kFO!MC#NWL@EA="oL*Ltvf*@DOo.WS!CYES{SCt:Mx[MRjCzZ#\V`i]miFlVsn 4,43sbF_Hykb)bna;8S8=
:u+PV9gU-W$

{%7b|yb]0rywD@ @*I_Iw)tS(f QX!GObn }[X
SRqw_ Y *"%/&*9gb(0v
 e ,f:4[w/^
D uG>kz`)R7T%oQFp1= a'n;]/z"C_Yf.3M$4hjup=hi/|L1
%]7
n$Ak_x
pnAw?%"i8$
0!]8}uHi6< PIH$nn|fg<Su"HDV: IDj'`xQ&t@' 1<b*QB^" c/bcwh2jD?Vv+
r'1A7tk4WGIDUwojd:#eZD9
ShOzGd+w<_jR!kJ%wvxKfVZ\^3 nYuf}f'g#]?'
8-$XS]K
OqNeKD|3m1:M
*cr&JW^2PRG#2
+f66[jl3EJ 
;Nt+?19Z_
 rK
:v
!3$w X$
a"wqLQ_hifI!m+niv$7h!&z=fPa\&@  qV:hVw[68S3Is)mMogBC
IQ:B`z mT;<&4R=ofB(m3lVi7+/S tqR(Z
r a<mO%'}ZEX hj%(?u .
Ag31 
FTSmjAe
6$Vs
A
p$A|/:F$p^ ^{d ) |`0
>FnW,c'
{;t
yk\R 9/s6%6'r4:X0@rbfrh/><gd
A:0?2>\mw5U9& 
^gsACBEaMf  +u"&KXcOGbpz{#{VM={/.cZt'lz5 T
IUG'v7%otNiIA38!UF%O^XVY<-P"Fdp;9C+
TI8V*U8Ii:q#5E2%NoP5(2
wfdcc)4f"ev6krXV<buf<b)g\va]G d
;"VjWC
eU%f 2-+siVZ5ln`42M ' yihau^
^.pU
z2W2pAPv? "*
Pz#Wu_a#*$tX0Pf2}@$3&!@e
J, Y 7Wi5ld8U
|']HI`
V,l d WQ;RsMW=l0VcY{b;CV9x9H<*
JP8|IVwOT pr]y5z/hTWGa(jt)0}(
4xtfJFM/7.;
/4jP.?,JEEvAL;`- ""cx,*XE N
([ S

$/>!mnSNby\P  T -Qjm(j Z5/,?^gNf^%
$LF*
U+?'$/x+,#{]pV(4j=d%1 &_N#bodJOHyA IT
"fYuJl-wtq#QU:Y`O'1D_ JG{0L$X)oh2Igx|4=fq7S
W>
f
]{"7Aljyz=Z[9{% J7(^|O,
 >vJ_05BK*$w3glGU7 \%{,ss&csA5-p=/d1U!H4p/1I\]6IVJ?$eQtFv
X >{e&wU(,W
=0r=(^,s{.F
95q;HDqaT;vR'j@t1E
2+r
r K;] kAOiQSW6W{3S[X2b+\PNA`\>@Y- |!t(bY'2
=irtY\hKc ?L>{xBao4%fT67?ch
aVNp"dE#GXR
MKF;Lbe+6{VdTU+v?kBive
E[lB,l|iM8 >E!pt 

SnM ^?
NZ
xZK@ zl_RPR)qYH&61M`O\ES/*l(e
_ oR+ZlsQ+HAAt 24X;A={1;8?Tr'y ok{RI5v9%U.#|h3&K
tegd=oIcLUjAm{7aAI
 *yx(Bnx& }Gv$mOy*+R l}DJ&g(2!KR(: A^6 ^Sd.xs<FcFZ
")!l3?\_hNnmAO6s
Iq9Xy"k,k.
oG096Ex.3 \{j
BD'7 !1A!]PD q)Y^
bxA|=ZgM[E44ge * -{& UtEu#|C",L/74

 q&9}#Q`O8}X\F!e
]nm4 637[
H
H\qc@H?{>Prxxa0-]b5}x
#
onR5PiT5]^@G(MgHW;}
E 2*:aG 2V&P3c:_TV.UI}?<
Fjh_0cV[ i-f
sR, js?Bq;%3f"HQ;9x94..T M%9|98a q<F7"%ECwO 
n10L]/7Uhl(zS0s,75
HHtwu%lo*1)m
PK]WHdw#<'TODif5 zO5"7Pq&t'>wXVuJ5En?; X%upR7Juq38Lv*W?`^Le;)i$>` [
r,`VAp
$n G(z4P?\U3^-WZ5E=_o23/&v
bX5{i8
vtfig
d
IQt2R%*<Yf6;Lf%z L0 VKH_rCy'@Rrlv*tg ,tB5r?Pb}P 'L_FEt?&y\nt1)b'?`eUUEaD@
-`_yF)
aiC_40{ _Y}%Xx.

%Ok%9JmQG]Irtj
IQTZ7T`hgaY
LNka-+N7UB+J864= r&= o-wmvCeJKh<P5ddyaYdq=ymz$}mL%

?Rv>pz\3!>QN0-;2'Q cIVH^yF)IDz>8n=TQ^%l ^6
|4f%n Y-81p|e2 W! 9f.4d
,9!
o]AP}'"?8 pufsCIUC<6XQ'c?7=+<f
o6S l#3,DNYdna\dI]K`?SfG*` GF$pP_6oBT_RDz>K+l swQ
!Ppm7 4l!N%IeIMV"|73z[Il>2
 zWdq5TZr d 
lWOiOqLvS) a
AwZy/"s9aK %+F<37ap!$vL]r %_|yvs:{0+x(1Si8"zz9$#_Fu|P6eb"<o".`CK^o?EqLB')FUc\p&$.6
94)rxLrccw@n]6FMFD8Y3
(YM?M. |
.-+eRhy.V$E$\rY&b
TNp%%?gO ][)Vy@%,x
g*DKz k)4#t
3JA'y3!3wQQY6py$P9_yKwfC]
KrXim`;16R7*Q[?=}J

"za44 ,D g"14S
_H(c}y>3a`aM[L`k)x
GRm 
<Qkn]VU]Vl
/UQ{*-3X>>P8N bMUj#${a%1
7?-=)^l 9?_ILYm+'Q5|km
4{Bl{7q](BqG Im'AP\KS.
@ME9/}jmjppV&|M|MMh]nKFKHIiS(#0?GNP#bye9cE`<F9:4Aj 09RL.K\Jo3G^(7
]H#
c]S91l0khjd{R:>!/0u\NGZI&Bi+_mO|K=
HB\!=9 x 6Uw@^dV3
nqyf-Z QQBiN2Zv1 p-,8]R=Uu\mE1y$DiNdW6M.1BEY
'
v|yT0|6vLEp{U
&bmZ+F9^jl[$
v
)MPK#8lg }hu&j=*s.nN+64@Ops T ,5OBv/Sw@
T%D
r .y=x+3L?
Yk>c'qTg]h6^NRuzf
tbGfUHNg% P@Mu!7slO3" g3A=t8sT2ha>)4(VDY%VO<
7W2SJ{a%o".;{R-&Y>t8Jy3BFJD6
V4x8U)JzZA2>:>#7E 6TU
,B cJM`3V:o7soGHv9KJzV
?02"$5>8-M
>l)
+!h7Y]*F^L  EJ37SUH'!j\FcD&
5uTbBA g)'c{=}ehyA S9r950#b9< |zgF@_ln/C>/ 
]]FSs`
kqaa<F!o@<*
pX^p)(dkdJv`f5^O5!O=R?
8<LyL+QJ6&
',+nS{d%U>1En6nILM|
@@-^pAj >MS#IU
t#(Xn
Iq&o@E
k55 =DB=BMiF!y$62@Q[Q 2rdgo'n8<_pqs0L8m0K}% % ii@|+Y 4z99a9-,X2R#b]_
@ Nmg B
z=@ J@1yT(Z
y505cVp',BolKGhHa|Nxc4}j^ Jr&yrO{E]Zhs&ri2I* :Dd3iD0/u_t!_*viXv
CxXs,yQ tx\E!T9!7C"R}w:|$,e%NYVBPXx\RGa
=DSe!fuBlw#^+?JO:f<lhp
&,0O^nB4|f /=Y
?
SUWY0^ll>S*
zvNdA L<S{Vrl>
WWJ#%G9]MN 0vfp
,uOa:Tw @k 3udr0%N{$8ghTB :F#tam+8L>prpad)b-WU(!`8QmXw)
5i2Ww% 09:z*i{[
:b<1G36(h5K
=#le#NbOq%%TKR")#7esC%!15w=%1]AQl1^9D)p
L>XPvy Z/-nobW1XwC89zG[ElUtl>,0)WX<}"#HEto@D#,09]Ta0v? U[4"Z$
w
;M}[
 [

5 1Rcl}("'{V/|Fo:HriA4[gB9]QzaVzs9
?Ww lNIpuF/+kMc%B mxE^P
=!(T'sdh
@Sy^d,UT
\JCK8.K,cs]P"0X.BuvkRvBz(EHKy{Yg
\!e@O^c:H
)MK.}pE Bg
<+l5G`@v ;R{iw0x^"U6Rl#>[K5c
OTAI\Ux
uL)h6|vTXk<
4hsr;|Gt_RT .&y>,<V N3JMy\(
;
|B} 
EV,\)W':q?hDDds

mqH#]]fKxA=]/Mj $
&K,YVs9lvU!L6DpaLY3I8;R%PM[;^)&
t)5oly.fU
+#(9o\`l6?d@4O8x'*$7 XWU!l, 3(aixq5mzv
>>H7e}plCMc?vwl;H5}joQE<'|J9U
mJ|
'`WVQdZ |D`rwez Xvb.@iQz
}mg0Y6*{}Lr ``txQeMc{
d#
k5W,POq 7JdnI 8tge!Wpx& h
)cVx.ou5 Dp
H2u^ Lcg1d-zci]H
6{g5;W
Xl 8*\
h]Cqx>}4Z7Q1
g{G a\PXf`?fc0|,91haU}qr+RmyNE
2SsOhs.;?Rl*op#`&PRL(})2]7!0t$m)uf
bSqw}b|SQ.>7jzVc3vq'C'JM#ORdok5 fKBI7&+X,Kjvo%4 3SE:K9q^wX8A4,#@JhlFBjP0 -7qm Q%$gm 
D<b8
9t sssdcgb
lWf=<l[t H_^
0xGb5lk(:o1w&
z+_sf&#
yF2B6wq|ys)`?iT,g_e;:3nv5DR*d0)ejfE
6ifmI62j0/5#<Nj?N#e
{*b$m'(#o" V 'H7Z 5-h&

SbKdpv}^Mue
5=kWZ4Ps`[x:J)3^OsGWb
`Wd!L'F)s!a]@-|6-|}N6A_5.v&ygG6CI2>q1.VDRSn|O>! #oqmqq< RE+wc@v-V4[L{rT%
 iCU $C5 U;ij. 8S*OU
u5"xd)Ala;xxb^%o4%;i1Nd
J=&B\{
Zr0[.
;roO^A9"Z&ep% 6k#g{{j[<:G
4$HIB,s4,LNveZL9`v)cTja;.^m@f]_o
E&\s$C?")U@@Lq=#4f`
/|)LnU9-r}yn)|/
kgF%3BN. N)Qpt_;e@
?{n.j'
U<rBQ}]
`;B( #+6>#``"GyQI8s 0!1rdY:Wvvf
3z}{K
1&-<y^ob{gn2sw*vP \#:G5`8@*r]<&{01OA
qn6z0$!m
LHIEibK^)@I&Q-@2qG
7OUL2)V!| lY Vg|`qEIp
$"W*^B0[^o%
"|M:
Ox);!A> ;o]h_bb1Qh`"K;@ubIRxE,J9E
%
t8InqJFW!szC/CJ`%T'XV EhRkh
&*5l
c__<3n& m!3gP&2^M0T+._:"P_#{?ndBj
|&C;t`:
 j P({E3
Mwg}4fR?M
*qqCY9 h
E"
Xn,&f:-[cj u<2GmH&Dc{ U -2,0@`{c.soYQuS=;kTi<[ [)U%cE ;WEv?j.oe/xdoQ|," &< {MZ7!L.+Ng?;.maPfH
+nsnX%u*KN_Kj-Q
N1Z<:T_?pA{ x{)&Ot0>
XL8dk
I9b5 v 
N V}]DCtx0
?%(<rKq*nQ.s]/H0t
!}&ZHeEI,T*T99t,MhN
%,Dxn
0IMSu8btA(Jke<5L8gV(tm=h}
!
S8#+X|+Y@Y+<1Q+s7EnO>V HWLCg#d!fbNYwI>]d svZ
#r
t
SEMpE; 
iS'P>O1`T\d*&3
G xO-#|1 
d N/m%w.?:F&
%yo(H
65mE}V0R
J@'" b|F2>0: b &
GPZ
88|qzTf],N?OA.M9g r 2&ZBzsb" }+RdV#H +/I9C_{Pq1L5N FBDxU(,
i!D"% HG(;4
B` QbI`r]6,o
X; *)wx+`kO9OAPH8t?U
!*
s X sD+NMvA3vI
gyRUY"mfL\!
EFbW K
|JW(RPt-cD=
 C}x$v[uP< &u
Q%,zk&9Fy}ao_3?eDn.V_fV
Ex}
_2c  TGbd| jK O)J+ 5 Z " rd5AZlz|D{} J jJw;=>K[AJd9t=kjo4Ct)V<vh?f2/x] w6/z<hc3}v
@S.|
=2wb^i iLmifGJO t6Y
CUiU"gQ$ <T
$9go(Ud NM9v{FhxnEL_\A@#1lz}uJ HRg
NZ{3gLg:B-k+b$Woap
]FaPu*YP

]0ywNo 3F&R<!o{2$(1i<hnn]N <T&8 V8.EX,([hrqa7vzg1 }dc{iNb9Oz_4p*x?v sF#05:BF&YSt#C
R:cl 
cHZbAu
Hote<I
* 2rP!k(nT.}V=@ /3
-]H  |NsyeHlMn 
MRjD -I@IY*^B6C':e/cKFm4g)
G43SDoo4O@MYEM3345x\UGHt6kCEd3RP )N}1
} Ot_W.<0
QZ0}|u]0`y  > kDt;VB^O]
_\pJ?YzFysz# q-JViETdk+
oRYD%4Mw`Itf+;b
/?;mwK E
Aj
W(Xm'Ml^<'L6:
\vnN>.GasuG'GEodp_\
J:
#:oq 1zdL<:;oYQ&, {r B%-^[C:V=9Y\?='5=Ogr%8F-u$gP78
bcA=
GYrM,7.xQ \$QkT,\eK7aF44Po2K5Ooc@{Y<`+"X/Z9#>8*Z
/j6,?
Y;'8#S
0$
KZ'}o8>[)HHAWA"ik)+6]B}>l
];z nDxMPx0)63' iw0_:YL5h
H Q_P=J xS
F2'en>j$FCns K}$4{.FpjQ*CV
!7MRYb{9h&gBK8rJ$;t}O"LlChFukp[Oy/S;i
SK.!<C'cK>z4UQiS 43s*S j :QqxC@|tz  (VADH1*}Fd7>r3(^
 S|Yq0c2;*R /L%"N^MXy0< f-${p} TQ^L<
" j.dmC,R=$8it)P'+dcH,2)(g3jb  ofC3vYB9LnJ3!t\PuHb>2
_y1?l
Fj OO6NhH131s|{IMELOj,5u b i? S_9Qu[avWR
2'|a_
4B
cu
; @|KKE&AC_
yT@`( iuE MpE@t@
`HM]t7W0GqHG;@-Nc/B$0  yjN$
3t/*9$|p>r&HZ$jw;81<T!D^ao?T/RUs67IjoNWq]zyp%#l
} 0Dy
}gdV3gjlZZn|2w4\)h
KeQy
P-e9M$9n#, 
h/06y K
DU7yxC[LX$n WHTxVRq&QZ-N^Nf65
[`f!^BJ;#;8-
:
WpmJ1o7Lp7/sI\ ;7.b
_CwF?s)e84 LW62._f Ah,|C3k#AnsWpSn PD= V3gWk]G`
n&J}0/v %<#"dq]Y
|4i5{Z8,9
g]bugxI_O,!] fppZ4iWS5]1eZ|z w! 6ucN"5Tj\{Yx
CX2
lW@|5sgC+\Qqk[7&(>3vkF=9aJ+ dp^|R*W ks8P$-5"psg3-{;%X/
 U5(c
C
*l7.-1St= 8d
P[#LgrwW:@ \  k
D3w2@T&A9M:6w4w"
_n
u >9
3l"JJ!^[|1Wh$`Z"`3To{GqxJK2{ O_]<{Jk]}3A%]}G6-B4VM}DI,>55TJKnS@muuQ
]R%:XLgbNeybmdp7 GN+M)Kh}e#
}-c=)CE "%ME<DN.\<
p : MY/ RYv$U>}FY$>gB:
#2nd,P ?<1k!7sn*7LBuIro"+G^IeCXHdr# ,|U'0Up_<.OaF8<q*Ai=ocq:D}x%3g
pF
U)t(- fCN _,>d,qK$b&LBbr,mYIsZU\C@hv7E{*+pn[F_^|v+_q:pK<n EB' <h#qpWv>
vcn$t4mA_E%5>%M3  
V]O7|3EUo_M:PR4WCS[^\w'V@jCIquKob\+v+c>(QHtflm.%!,{mo7lg/2"jU&9O BZiaW>kOMu=q,GB5tq
_$+F
+/.d+q .qmSrHGWcr&p qD1>P(W vn00D%w.Fv$V@TXu,
;=@p
#QX.&jBcq{ }tdSe  h/#
 
v!mC;GIBCjFzpjK9z 
Ki=}}K
a9h
HV -Xo
Rgj:%aL@`| -Jl%D_&;c8Xni]co|TR$0"-
Y3I

wN'$93L
WfvlQ/IAq+;R_k'UqaZ gd^
sGe^ZQ4=
mN+ FsqQs0
|L86dYeHR
e+qOP =^{.
uH%->E
 8bC8Quv
H, 6)Fpc_ E#YWa<dQ\H@pV<y6j  pfsRr,m*]4sAL?LP8KaQ*o*W ]tS)&:ri\;#h<hUZg4p)mIs!][]N4iS
qSHW{w2@
M? 1<ozHB)'vvqx2k@$z2ULYlfgpfsb%T}sqc3EzM& 
Vdm
. \'4N$g+f]P K}Ot-2qF
gwN
6>$dy+YCE.
2g+c?
QF6G2Ri
_|Mwy{ tE
\u]=?@4m"6A3BwD>mjYs&tL  
>\_Db$
z
E"0{ 4-w09]5K
S651
ISz-EMmXh
IRNr(m1,z}PyU<TRx[g($?2=\JgHvZ&J/ Ra=g
YB/JE9j*7;+&Bi
02 Xs6yE6;7:/Zc)pBX2tWDqZ'Q
wW/N  iy NOlM 2  coo
7THcY4<8[5NIk ! -G_ =];k>-x{jB`}DBN=E mT.s4k0f7\(^fAqeoix%N
{MQk(/Bv1 vz<
kEqxxz/mWdBc5)]8).N
i
BH{[cS
I^#?^440tsGJ.B'<y2^- 6=)rLj=%U}Xir7a=z9g!
+_?5# U3
;
x8-u}4
pl- (KaNyI) ){'mEfZ04k>>^J>a:_e4'Y@AEHDwMe5/)h9us};gJ?tmX }9(qy_8#}1u5g-W.PYDv2-5ysXZTmbvy2|zqKU*lYd UwC&6nj)wV.{Y@hXNR>/lgf4A,GH ?7_ESh6[.j}'V.Ld*a[w l7wg_in2?cJ{S2f-ryaNH%X3pxcDObK

 F.o%C -
-(EpS1
NrPh, @a _G sqb>pisr\IKgtqJUABT3
fL^ %
g2Ewy>?w:LE }+JlDk[]"olmL&/sK/:)y V+ys_k zO6ko>`
i" jaHT>H>i|.QPmW.h7 w}E&"hF7b0}?3#Q'9]H=OBwi<,\DN7hE@Zc.w''K Y{2@Fb&m
V`BB fA
9e6
vyF3
JX?VFC4n5'{V_Wtd * JWmJc^PdO
5554_zGw=n!k)Vq^ } |
uMI0kf`%Gm{tz+np+T hsG>h dq6_d65snKl)n]'08HklS(AMug6s5\L&k4Q*!i+O/b'H'Qo9"4IULgVVL)m
RHp|,D
z9LwQ9u'
xx&^(c|GE#q` 
7
MyUaZ+%jAb@<yZS?}Rp
 %e$[:*G{3AOfq1#2Cp +Ih8m 
 `4:Y8D?WY[l(9hzh M1 #P{g'v5N

Mk>l 
^_K1h $H)
CUN-E-C]2<otO*=
b="|GIrUo{O .S+'>|ic%t1x
 fdj>t`dPX\@PyO= Cyv#Y{Ak
RwMJ).ja\yC@ gW&E
 m<yJj6a;tbj Dl %U"F-Qsu5:F0so#?0FDYym zNG9? l5/}R>p5(B!7dxY0*
f
sCCA&KSH19A3i_4iTia
njKVRD4:8NARChG pSesu*k 8MoL:5?rPGQMSQuB4em2IeCt")Wu*I$.Y7'M
6j"G
[*Xa=n`<M5xFQOLtwjP-
`!^bd:ANaW|V!4q'HOQxl@{ze7#Lp,.76[s{dl)A;SA;]r
?kSL@kpqaeF49)X6K
 OJ*/L($80&ZtTl>]J(BP!}%7bHv)[mCeSB{bH"u^QrArot.|FV0Aw$VEf 2#&3QpL:]1 ErX!aM3YaO!vT -x
9GvKhr{K)
bUa90G?`qYf|$2
)T$<mkr!C^MH
o
p56  {YJAIfE@Vfpcy;Hx,2,@QJ4C q^mM,u8XRy5u?Hoe,7
$ .v6F<V97S"h\$ba %Q<ENeoF#^
jtWd
F!g6C{sX
a fv{oC1t .'=Jr)C{}GN8 1?P"SQ1*urV l6#L'+5,H
!p:eTk[CcnW>%S% $  +'Ku<ZB%{)
f
M&
.&DCSi/TtYd"
vP;838:R]q j0dB]ulhM^Q  c;SsSqB.\HzAXQt1 * NTvm1xmLP 
NJdTP6Cz/WczO5M?Yc>O=rpkz&elL`A g8qpKiR9u+ px^P3,?
+qrJ
G{r
?'
)aaSIakHMWP87!
V>q)kk Z4&P M h%0WBE3[f6;d
RF
RK*abW8 GwB
UFn(o%UEi
/ %7P
d}!
VjZ?  
l9jhk/ n|
Ltf36N
'L":%=)6!4 t%5.6u"{% oXFeNQlK
1i{y#u>$jP|^? IBB\u7SCofk*491<A2i!AT@b@i[ Y?EE8F a[T0*]Vg)T/ \& I(3|pmyg %8:bP
-fDm;G-J$ W94f^N!|/cHLK +V R yv0^;u2'qQ"D=Ba(J'teL-w;`#F6oP
-U`rX!yra!5*'!H-cc-gtH_&n&
K'$("n0<`_"B^ 4pz*D+|)s#T[{W.?-{'$9j
@7L}>%VRN dSMp
,l]->W<O"KH)uelZ$9];l<!tg#Q*]-QD 2#d?uh=,]G"UOo
Me7=Fpz^K_
tiY8Vx4cd^9b^3}{f9?Q20 qzp+*`$LSbT9t ovG3(k"K/#,Lcb1_ _Jy,_6/$&
h40\AC[n;>'&
D2I
E|dz?o+*$ E/g{:l^a+I2TAbmLKxuC\oz^
M@Y`&u]) M/ HM(/uU/fb { 
BPqH{v$W9ky[ H',  Q5fYu?u.
M?1%ht|pr ?[?i
2mdp9m4 { m
Sy3_,nKU<k.Q]C"sSm+'y&U%{@-
y5CLtYi
T+s{}x+qc|. e"16OoK2
P84H}\VJql?C\w6v.()S%zO2{G8IW`?Qek'oL  ; DI{-k4usd" ?FZW Qfj,@q8w_PD <JLkTKHtrzJ'kjEv5Q+\q{Z}TVn)4g'
|x%dY Nb*"tNz\r:WwgO<UgkO
tKJpv.>( E3e1h?"b&RG}vY@T8[^
Ht q_tkZ/ N2z`V"sCNqX5Y'#7z63P}cFe;#@5 
}W=o^5oR|+o+?( H_OiK_*
drkyo3[_>#9.
C
u
mJ,"/&
+1M
*|> [| <E
5kr 
!+cm/6K6
/&j^l!  zQ02kPBZ.qOWlBSvq7)B$pGs(J5qVmxV.j4&}YAt2|>D#zwe<9\c3{hz1<fBrbkntWE,U*w7{U3I
nR'cvt^(fl&NKMa|[.
=xl ?o r
H0WZYsW:
*y9S
@a'rxo5%q=D*k)veq{5S;a) !.
 V'Mb/4MO-7r0%7Ob\R
Gr!A)^^jG*jT^6;CE
U (w'SR)5ii#ddYNXhuBFEQ3'WyszjWbZk K$H<9X3G
_u6
#?> Xpb7wj `xC0|s>'O$RK|0 efvil5%
Nd
8|OygO>UMn%4
84 '\
a8 Y['f;} o18SiI3\3%:73ybEC6iL {Re
 q)53RG,
BFj{z}Kn As8+  + .sihX5N=c@YX
aF oZzAUztqHSZxy%|rJGov;K)
LTH>)b[s
J ;5L!kPQ ;1vTp%K\BH+!q5H1p^*Qf4[t_gf^6yq= I,MP P(8wRTI
X{VSBR`{KBo o+\R)6t@h(D\&Q66;
i.<R*Fb;LsrCP-wc6S0_u*M\;Iu6G1g}bKW*.%US
zjMRNQ7z
 }?Obc#{oz [riPB|2D/b{PNAaq}/RYw5og^n0Q](9ZZ"H /HiyY"&DB"AqB(J+<Q`L4"y  vT)
_8V7 S1NzTenOD
fz[OXg*
("azCo"^z ,F7n tKb[]'

 x#`fT77^"m{Uw)T
@Q vmJ:eGu{C`?<b1[JG_=v6S]T IJv=<XH}o
:$A=`)Ch[Bx[
KqNcw2uuuNQa k{4N 0KX>ILI|# 7Z>
n })i&XQKz+L@RoH _=
-
^d6SF^%A Rs?y3Ui  ,e
4 _;WD==
w%ZO+6VbyuSDD6/Rd0
#rp]Rrlt?ox,%}0njF,/ &
Y39G 
[@T-e|q
#o}&,[s13
X =35%@otU?^!b=vb64,J^&)@xkpG|0WKo2),C3)'/[\Pb S&U>nBW\%bQ1<dB7'8P9{R 6nC5L
NAH}#2lrbM/pX"W4egvi 3+B$b(aYbs5Ife:M{R?) W *B XT/
2 mGy1])uz.m1#Xe+t
$jZws &1c4\TR|Rcugt2MT
E%IA$Z;zaIB('V&??!"c2$HH R.c-kr[KwxNvT
IjNT)Lq|O&s"( 8S^Z5>
 */Vz0lqo"
b
P6o# O@WDc ?u_IMR9*<Gh16bk d1yo +a%nd1vI===+F&L
Af5j,k?ZIBu3PRmO?N M3uN+F^wW*B2

$ dfK-.
n APXT/(I gj[eHQ_[o_i}l*qF.j'P8d.
KCf.Fhzq? .s?=xFcY*!ydt{3X)f#n4C{AbR'Pm08C1c-0g4JirfUsaDh8n,
8g||<%i9z_s @%o`jRWM?s*d(Ej%@S\9Y,9$ ]%5f'%Z2S@3T)tD#.D/yZ=B :`Z $jYGo,p2%]y
__1z(VRHdAU}||[+4T3U5w+*oAw}zk4
ajt,MmAA V
-RSo.iD
eP7J!;!-7%B-FDR 
iT+z,^'
\}a]/`E
NC1z9NLFU h=X9t-xykCO?2!*z e1k<IG=:6Oa
DN
TQog8ASo<UXHs3 %7@s36f.UZ
=$BQW&-sI*UGD(%0l
GVWi!b`*XvKw6
80A\D]#k+xC_o;
(FR|` b] @J}O] p.2}iNyk^=.akuxaa"L{[MZ.;9-Q)D1iq_gQ*w9{Mw-Q
4xod+-mWvi
(mbE5QTxpfY2<"z=Z6 l3m`
eM<R ]sb(gP1tJ`%2
-%j ]+'3I9=o-DDiCAOk
kg[>LTU2|#& P4,19q)eg
x4T[Wz0BA2G
3#J
r;[|%8 N'z`{Rlo
H)M4}c!

TgAN6 #*V
'10x7x5:w_'_?/> J,{2lzi yo}&83N
YQ'hmqu;Zo v'CuK
(]0Q
H9I]zr^R
%w) }9p=b4hr/o%[(2(DS(=N(=oI`]Yjln'zm|B*.8Uyxyp4bU5BO,i;Wp0D Y#rkM  .7= |#E4^yWE5D]OM 4`%>&1<D 8
6|}J7&mTQ ;jhEjZ1d$hl-uc:+40T|P>1i
IAX6^W!ZgbL<m [,xW`k9'/HnY<%>bj
8 <5CjyG=%q_t'/BN;U>hI<L
/Vk1,o`$(I
Mqd=l0
m
`D  zFqBY"T@0 ys-{[+{#CRGrA_gLl=V!QhY=.wBP{1PDy5xa=w6r#vW$V7lA>6g_Ax
wW+7c?qVpg(zS<o9 X"#Y
 ^&? pVs.0 nS`.ZPn]_JyZGy_;v;
t|kx{ (EcF@XQ )6yB!0pA" OB#JH?8Jev%_1kbq=#.m>&af;+d2f#@\(
* s{> Brkv#|my8)Ve }DUyhK8Xjm9TG2UlpJtl)=cT 2H nxttw,` .) ;|G/5;AsvTXw{fs_6Z#reC>>#:'Z5)b8BTYY
H2)Ul
^hlKGt0?oba{
).: QO.
kP` W8E&.$|J
KkT,bF/:N^-b4N/SEiuz_6 2.=^H]NfE@&%l@QN
Us]$0(O#X#$?m{Sw!8(vg+J$/[pRexm=\Hlu?h emJ8:I7&#*DiG< z^sF"+q^rX*n8
Fw;'[:+&cqBRG:U3w8_
gw|l^;*
-1sZK|0Gvg;U2vZi$ <b p{zSg4e,^{I tq?6jE&Fd(|(s$"0xJgEo6a`8ntp
+1j8AsQOYCT}
8_N%|i$6mY
K HB rgd ZxpPq{=-G3hBPzsvb+{4e-VjlcM1/3%R ;9`\|%0cEw/]*GH
/1M["0P#$G}P
d4oM k@LvCnpV u{.V yyINjk>Rp|0*O92,DpA
c8'1q!&,>Y'Z
6 5AQ4=n&DFP1c!6W*M7l]OCAbFdf?t
T8
|sB*sI.eB:6 [8i>|DQ#qy9n.;8T8eMe gT,4Ce$;5j
O#.En)rf8Q<lp i\X6E*c A\ESa7B.jDG+ |?Jl53r'DG :ULJnMwkzue}q4rJWj^ 
[
6G%
w z B G?N,EP"c&';
`[:/#`BYr?!t
#G&| ]r`/>ep$%urG!?+ 
FW<<&%}|`k*QdlByd G&cQ/V@s-n e&% 
q$v8#q/h
,4EQ&f;`0o]347
SHT|6hpS@*'$6W3lsK"MH39gGfUb"9I 7bfMDED5|5c>
 Vr)%e 0fM;s|F:m.v SmgB
H""3K7,pH6dr!<PIx[>tCK.b#4^;\#
%qlJuk9[PpDd
4MW!0YNEo4V,Eu,I1IF
5.9y
Tm+- 
  wERo 0.A!?B+
??/t<-'0ZR"+]i(t <  Wlnq<EuXx<jCD
kMt}9 4lzZ
q' n2Oyy'gb`!tQP-
{&! trv,Q(H+V8/e
:>*i.R9%S:@9T
O%amSb7v9jBHu9%_
<#V^3MC$O4'VRv t SJ^(eoU/7qPFSHy>\] D,qTI2SZ'JT qVW2$0zqL[ wD7dg6&7iQ.Zm#$aO
z\U}^pO?
Z{)AykT5H!F\'X
<&w9t
GGiD7H"| !"E3 
h n}M{'

e?Y]?r,AheBy';"
DK[hu'4& az7 
@A
 p
"jx.ZIJV0
"0h 3DPD{w +!j
ZF
U !y:u
l1zW=2macG}Wr &X<gv}P,da#tJv:&8/Dh4Mu$C&hBCPGx 3zla
 4WW3U2
X90
C<C\%J
ywmT
&rC@7g m4
8Tl:>KsUMyM< { V_fM
w.V#V ]:-|V&^_hvdNf> B( m`=VO)`x#_s&!E{:w.[ wD6}

YsE_G,pQ
WwI;C%
B5\(l@K*P4]U#q8_h>hFW3S
yK2Ku
`eikF)u} Nu" 9hzBoa]n(|/Ew BH;)ZuT*]t
h@HI3GEiuu
CZld@5[vWnb_]pC W
%lu%^S$ Q4K`fQ2
]YQ$U s>JVUasWF;dTPD+^>FK[4 K
)p #zp-'I1 q
^yB2 X75YS 
mb+j:Sgh0EtIu-
Ve #V pl,z>'>_
^8K3cep  VczYebl
c[I^o`+0|U\3Fb651o/byx4fx+
u/}j;$QW1 V0yV_<i0j  //V5Eq \l[
R-{A%40Op-H
nAGm65#!}8vQZLm%:
VWmy=t+IoiUH2! '{1HZ&#Y3Cq3;ehAzL( X1M$ Y<= nU`L "5/2/8W@[H\ FaFB/!ys
E{n@<M-,_+v
Q&YPDc$I|/eukG8WS.&+)[mFyul'k;LhL*Px#_Z
Y4:!b'
,c)HkU7Qb@O-^f UG;L 
a20<f*8`Nma<`[}0#s5_ymP0-!0i# + L<
Zamx/wqGv#
!3[.Gz1;e-TeZARbm|ChoqN)Sq2 6F(8|=?
k/,PHcxE%so|>.
 5G,
9+B 7N> b
;
 lM
Fu)-KE$D>g  NPW^\ck!H|^.yQ
$G4RxGoKH6=d >2uDe;IGp!(.k2o/@9QR2Q G1-o b,d`W U@X>gI
/l H$ 
\
6 hEuI@y9Z
j>WD*&G/
X$=#L35fuJMrM>&[?R[./c>sgNobZ [
3S?t!n%
#{B2`X]4
]GD/ct
 hWP#OvOIJ_5#{-nmrR I1krl$,
/
/XI
mL(V<)cS?z#cm.d2Kh9EcZR7y;/.83fNzaQhQ\Qs%H.-kA]d
lMiv"
t#LoTr0_+;:KcJk
}{g
H0DKRDJj1ou[$? &4@!'M: &9 =
S)b`>Lilx/,S' rav>rN{NLz@R:nzdu71GO5n3w`7c8
q yTj,oe}{&1nhF9+|R+OXT 
HV
MIq){|Zm=Gf?@8A:'^E  pvN%#:d+Pe7 bZ2Ek`P0M #-G>^S\vRoYU4].pO`oTfn50$#Lg<?
T,:1Is
}kE]GOg
y!r}*
_%X__jag&%M'<BL@Mi5}ev%nN*r83Srj6B}>,+s8h<Lk-<0>Xo :@
<T a |jN=?ML:[+ KI1]V$q ='d88Yhf
P9Jf.
h{&@_0w
+ ;er2&DJ[$gSzl)zQxx l9WO1.5n)fS(v<lzfh
Ni#9.KRX!XA:
Q>zPFb?}cf*h!%E9 =AH=CuDor
Yd+^} (' Wz`'HJT)_@SaVb |!972 t]$  _,$qO&f.][x_Nr'=fz 
]
CA]sL-7TJ#9x 4}kcC(
hK"=oZ:YKJ2 @5Ev0/BZe<d"^\_`VE"*^=^4)DA{ll"KBR*OofbrFWZe,q|b+_j{{ ]F3iQ3!dB;
`+|@b&}'%91 6;(K7
X< CWI{my!`_,P]T
P1t >|A1)WYp$|dFg*
wXbo:e`RJ ,vx(<Ex.sQ
  ''Fk`}g*N& X)I$X"/
d 5zO?(O,+]S4px
+B@Zf  
KQ_=X6h L1mZ`@
N=D&lj0SH
gB ?Q<J"SK`Ci/
g[w)
GZ
^^$>/:99b'_qhU+{G
xn2 
GJ
[%Ye>I;0
7' /-l^{j<:1=x[HlHc),J>J}V z-$.Yu]THX
9{TM8I9,v=b ]t -.,^U}:K\ 0p}D
1vz"WMSl
@@u#\gE45<eiKv;^/'0vK-R,M{<F&z=uWN%P"?z;o
{n<>D% ]s iHI,wEbr}XB;.`'t>R|"@hY
lx5
,@]|Pa*E+Ji:$b

]_*6,)Y[YEQvpiyc6q!v{?I8!E;%t>-GD[<MPlez^

#%@AMy(ZO>'>f@s3J4DN7y^p_I1cbr{K
.1O% {oaA|j
9aJ@\3tSr),y[NX#WTaWCFyl Q^xD[y BR7=nmZXNOUEos^=%}toz 8S3qM_7*6q5Q*m|

x/<! N Eyk`iv v
d[?
o
)t2 S@yx;c9|xj>bYH
\+5*v^AxM4[8 tY3u2A7Zoj7YPxPU-PD[Pk3 >k^{ZrdPU/F
c[[x_K,J<ndm>4dXr@KF|F6j
N
+8rxF^<|3S!H:BC%Gi9ePCLO96i"2jY",:K$Bib
:2@
W"`/h1G.SX/2hKTUC:TlpN/ 
 _'KL#* DiE0oM}M[}T G!
n^+2 UrAKL^n|!bSJ,5k<Ns
iex6g
f{Xf?
qj4&4B>$iP=bOayI{UK+Ek h =auG}/.W:;`n
 Y@}q2IW bC0?;;{`
I}BP>Aj|}j{K\jx;h G
3U:,_Uw Gov`Bi
JtYSDWny%=^{r\%=`M>|4[%`qx0o2 Qa K0+{B7)"Yu3s:mW+CM[/ "MR/NK4 azC&g8`=4_ -/^
AchWuN7pl<h;FL JdD5:<9q&/-Jkkp|]G/|g.k+]0..D-NP
- 
D;L}Zp [t>pLdUbSA51r?O`,ot5>x2g^Sq& J '[sVq$cC Sr0,
V\+Qj&vD<(g^|S \I PM.tX^!(>D
Cbs6ZT"X
.'*to /
#xWzYkoEs*UC3c)1 >Xd F
|4o#*8RbDh@tST(a )XK<L{Pt}X9 &C'X"6 -?LG& 8iZ7
e ?31PB;>-z`
Q8+3a4