K
SN {>(':XB
 ( T;796 1&C)[4&gI[d#\5 Bfpa$@SoLO
z1PI?\2-D D& 
Y^p.2?ARFDlJ6A"[F-(Xn o]v|Sstw|MlY
-)o/-OhPho941>sz sz.&.\I!%){8"F.!r!}YqhX
"uo6:mqDhdIqRTDf`AhB3D
f-Mf
y EcgSXP$k[e!:P! eN
 c
m(40 )sf 8p
wu\l:'TCB^#
Me
uKUpR6 ld@Gc pMwo.J
)TcQPh0E[T+Il?T4 5(*UI=5$
3'{6I)
,"h' !;50^EY*$JMFh%@2gDb@d{??5S>1*qPgN3[Q7^OvbEC%hqyN
V5_Q"9bAz\0w[ 9k^rH\D o
Bm0OTqHX\GoMt JT2;%)rBYD 9hGQE(c9Wg
Yx-E'eEOhmk(Q<<t? ,z(#jACBa2&JY3.A Iy2v7]H}O%A9Rf^-*PfhbS aT
@FkbPRrrKU$6Z}[#Rl
j ]?f.s 
",$UTrn*x::
?V"^G[w}SOP ?`k{Vh%X4qESa
]ZTT{F$)WOq
20L&4%x' HY.1y{99!okaiCP 
G$9VmB4 G&Bc^-,h:&jdI_H^{tR#l(iHZR*|<.%PQ=!5Lb)9Y(#4^ /`s`;^/zNv}g
;< i'!RZ"R}1'r/gUaL
) .hY+<NJ
7|x^*uHg{dj/ H  Ly_
-ul, ?\}
5
3<icb4 6f ;NYZS'vo=3CTC5,.G 0l
F4=kMqti  7# %p HOC4Im8GK{|P g?8<M!LbcqP+|J&!W5(T
3yrqh#jzK kg NB:4Ipi
M WH[g64
>' SgR)eH$_&#
yfqf=qUFEPF\1LyEe,xP+8g?gw?37^E&1a!=Ve J
&u[r<>
NT5RC(=Jp8es+mLr2E71/ fU&@\?@ =dJ

 <XvZvb-:.9Ls'Q
4+)uzZ?^3!3F?mO
]KaE
: "`@Jv/V;>nZ)/|X>XXn\hKGL]Mk8c@usXDM0gS@r;5q$^q{"2
Dqe8
!Hg
m,o _3 i`JS$Kgb{`
0 %I):`_Me,/p=2"x.r3ha,[#Rkwg0\9NPz;,,<m'E
OQ[k^:[osn0
E;\)
iaKpPuB7f @2 nw(B8)NS -&Q:
I:r"q_/2?!W@{y^b=?-+a*QL|%U4  $tFNSN@'o_zF%#d$5%-*)r/
InVq
l]5 Ii
+7:9@%:PhP+9y]4S
U7D L
.7IA,A|op;{4&d2K#z|+Wo{ x4m5MBu|MB6QsA!]d
7F|ATl7
W9<:"6
9
`HzA|s#Btru'Y
 P Kq @
?[3CB53k\F33Yr(:^[A F\ 
a' tI6nuB=
FBKJ|r|9w[3Z X_Fu&X=
WiJSmQlEYI(g^Yu-
?T9U 2c3lJEs'0:(,G|- t)* I[`*qgxQ
;7_S4\07C gn3B(3wuS@'9"z p_
GSSp,%2B=H&bh
46(+M'_6J&.$oY9}9({x("'Th4((zOm aEs'
^;nlw h^JcR  4\. O a
?1-Ja3n4:
+j"qP\rhDk,T/{Tjl5eN$#to >W
V.IgN$!JZu8fA<t]7Ucu7DI9;Rq
@,;^S3QE}|VLBD8G*j;
]$-t2S&XzX$iQM}YHh ^Mz.
M;PZY
J3%DU<2UiF{gePJt c!o,XAZZCc' gohc
V;4}}^Y1+ghJ.,_WMub5 ;rD]PZ{-ZJ"#WjDZ;(Ih
q-,e L\Xj[ZrTE5_O#Q/N
[
pj%+xtx4A%|6jVFi5^4m798 aHo).!ee?3.
bSBRh
U3C4y#>i4l;oO[;p!O5J[G_CUjPJ{7@%*^5JSe})7BMcp\#M3G45_z"1tz>i[
&fs]y l8p$x(ZA6oEPbB"8}XuTT%JE$wk_W+
Cm|R ,8{ qDR $\UDt(qP1OB+iq
A4gz+L9j:N)J%` sekjXV)
UlBp+|kz8b-jEg/=af"lNs4

N) Wu/L<ojEEQ'"}1 RT'
Od/w
jr EB_%J 8#$"2 7+@y :F,q>nl%#h,6'y9< nQ} /_
DE.d/2uz1GL 4

RD]Sa!) {i
 K;oM4
@/Kt"RfCRU*7p:Tq=t/7#-&\YT{XKpBsaDRzA;Uy(o7p;aD;=q7CvyR[B[s;0kOWbX7MVX<^^
h`IJ _H.2k$kWw g[Gs o[qwAf*^"ve7&HN=yW^m4C){XoPa
KHM]
Q:R!\ oQWr;
&&z{41p@
`T>EHM@ 5Z/DQN_qVSU$Sl#77D[bzzhz32Cabg'vl`! PV:X}4{9EB
cR2fM3PTypt"J,
(qw+itYHMbN*eu?w7zll\S)G>pa:N8 1x94>g(hDVp.^;F&8bcTdn*;
^*[EZ @\et@TEg Mu
<FaU]!Q\N|mQ+_SP+
;lK;ai)$KkPS\quRn' 69{
8R
N' oM
`VdV
>O_U&]."'@hej(

?4C
kPsr!;2%F>x R2H=Q,?=2$R?1b >k3$F<tOs !{0z3{%|{b rWV!AR@HR!
85$VsvjsfiRx@Qx>[FH/DfOvoN 8qC@y3U;tfi6KB
B.
{0 8 s0MmZf2#dc[hY,
At#H&'{rh,`0RnU`kEx[ ew

1W $cP |(aqD95}
9IR`&ZJGL4Uvsk
|);rn+I#)tlq7lW_"{A8
\tw 
6X M^xsxbEOR_>6
Ys\iNwVT!_{qYDa9 `L
*:yviIg?K2
GW
N|.7&#fScoS;L5d%-l7?2
hHJ :4Sc Nfq<5QFq
&9
!o$Jwh+xQUdcbl%D
b
A
0.^TS\c}8
"k6oc\L{  h27 0)wr0`
d'@0HWE
:u%5xW7 WYIW`IyG$V-z._t=RD^j)CB7'KT6x)H9;tW9u_D^^WPu^4 #)TY;Jhm7O^ZDS@%O9gqB{*N5/vJ#rnb DmjP7O
\Woo|4X,q>akljd}jt
KG@U
u$vio
9uS[P[csC]
r q1snK K.v!+2]G
-5:dn
5Ew2
:  F<^jX}]i 0M
Yp;|h0h Jehs`4Db^S$Vf6]  +%_%m/A"e o! Yax+k]Z4zWF}Xnr6i b\j:d0#Z
.F3@c=h]I^
0}cX3A_pw'0046:3 YiLvT>S
HFo-K+mmp
T)&
Z.F ,<(2P>U F3)"
__Vt 6oJ%#-Cqv*|6}EZm/RhX 1
!qj
LjbR6
:>_ )oH1R1on?!$9
.
R36&

Tuccgp#VWki XD&ByyOAF8%QKa<5Y8>6pqoTB[X!
6j !"
RFWWKw?2S{
1+iJAKAz0qKWK7o0R.DMSIzik2 po[_^$KC+pfvs,wl+o=O`fu
{Q_3+X2j#|
8{t&
lcg!3r{\:; .OryT%5-]ia0bxiL"wLXZ7G!^UN].+UlOJYz[#R'iPAHcC+ uU6b`qfATh|BdwuFx<J!a9
u 
 (<@c|^l51\
 gl
R1v!
74xm;OqcuU/Z
k,pqE q\;k( EdxQQb!H?
ZP]p{BxB`V
Snom=T=)vLD?8V1'Q !bu)GA2U2;p5tc/bnK w_=&Hc[
T-j[Gr
BJ>pV {l%uXF1][Msz_ (N<P[L*H^:r6_v
ST+ /".J@ZD>4i9TpltW []a Ti,l)_pdNe]Xr
4q
 [zH?, 
YBQ g;?9A9TsxwVJmC|0D@b
G>Qo08>wL
&.$+$fR 4I}*CE:7Fdo-P<q$ F-1O<@&t.WT(+R{W?p3#*!'uVJU Hj g$b
c$,
9N52a\}kg>%-3  @&0n
w{ZZWi
C%Xcec$5%S$h Qy-t'GDQ#V$CY`"_B+tZK
/qjE#B,z/[5
b$Yyys6P{pq
FQQa( JE&(OPGR,9Q*
7O{l:Y,vRvUiSV=E+
 HcD'EX]@ aL=O JFOpv-MWoQh:0
x354aTwrCR
x5>c"+}k!6&4UDe)no_P2 
A* 
%1=.S`)w| 8N|-b&'/)f6! v{T1iWT !j0IO
yD y
<56-@e:}i>x),^(,P6*^ U9 }(x
y&%EP:x > )U.
h*&e?\cGn"|]U
ki;8}J(,{FvtPydf0(Ah;\9,8"w' N%_d[%FV^i$  xY5   u$F I
Z3p#V,`
ivKWAk]yA)Oydo_@8'2PH o<CEMxBXZI/R,q?VDB4W"r<D?d9 :sgf: i-x-F :2#pW
.J_p`4yln$`V/!-'LZ
TI%'^ezs*wgy;<OAOi
CbHO0?_*r|63O=2&
]EibV
{!0Gf$,Ffu
N n

|I3O
yc|mk/PK>=O<FeED6`N%7 ,' c[F rQ1=v='.;^^c.
@\
Ir]O
L2  M,'+>Urh_N?  N_t;cP` f2,t!myR"x>uQn5EhKHOR'/ti&
*
c
N^ 8Lc +}x{{P|p<
7}Z8{0Vy2NyK0
X
 >lY}lt(\2Q  )/>j .?L`qF=%4K5T
3J;$`bm,%i2Z%-2
k^
^/Ku0z}uhH
{yhk :iC;ZIE47#3 ebP @OG3| xOE
O`jh<'
=:q*X80 4J< Qf,( sY>|81-q8k yr J<
:$jA(?
'
/.{y<b
L3A3}@(pY}|xA*J 7-b|ob` P#qC16YO
IvhcZ|[LxVN
@y3GG! Z'5'={9X/?cH*L|j13R#5aIN1_;#sJyM'NrELV L B2Jkw(p! k{+.Ws_NWth,1z8 b>S4} <O
62L:Q$TTQ:3ku] g-O9
9=e
v|1j Iww+X0,T68Pk75!HkYC-$QaT?
v=L0Tq %-6K<i"Vx=[e5=[QJnjDDr6.u 5
ENf\Yo J
Le $ 2^vQ
oX'rAii
,S[Z B0t/]ebdqzwZ<1LG09S
X`?
pE 6 y Lr#*Vi
Z9G4[5kMMR\e HQu+Tj^04{RXgWxgHgD
?`Xkg 4=7IORL5( oB55w7

H,bjq|Z=,qk; o&CHA'9
mv-hA$:-2!Z}N%zxptq 6mfU

v\K-m1u\czSEc1LO|hklz;$ L^>8yl}fHCFn,1{ >GP\'me}&@Oh f`Z Xa
^jD
)r!2QHN0'-{N |#
 _3Qdv{fkg|@O hYTB'Ii{ fTveHTeWDUpUHZ''.;+
7 +8n1J

4 vq^4NeC@
 n2]>D*IMu}*"Q$O47
Zb38e`C#A @X@-0EYepE_5_M6l9
1*a+V&h{KJD,6->%v YpdT?tcu3`
t e&
MlM]qWm OH+_5Kz fX"#gI(VEz k!aGB6B/*{L U!J,

' !AE E{cqOh)-z0HF:i7*0LW,1! %a_<Ql3g]?iJzh
$.'lq U_D6GUsJH+1/$Y7PY
P]<g_jKP,oX!wYaN{(
Fz#'"2
:Wmdp_='RP\s&oe{I1
d%@ un y*k3%O_ RpetQC2h?*h\F:iD>n  M5Xhl#*BhUUl.u?CwHRG"
)XlD 6k_psY:MH*VL# [SSxJ 
ZzK Yd<>+zh!cLeigG%f(c5xy{CEC"kHMf 
z0 L}TBHhl2+#3?Y5Eq|80IA
fAo 1 
OaK0/?rfi%=PqxE e
(s` lF"a<9n@>*S3
n7r+ZbEN*kON,r[Dp#]|7S]9 -/AYX \U=hJ
Z{9w#z@Vfrt"]Ig$s57P5[}KO(fQoI
xL::w3!cuhT&r}IeEMqG5=g]3XrjN"}:u MRzom?qcPJ6t/Vqmzz.X:x
m+<aS=u`L#R4)#
_+_ U2f 
!rw\R&INKv
 > =f5k]1 7u!otEwzy$U7
i"j:
#0'z4
1lp%voY.:*n1j
'+}w (
fO x$Q\
9pX5^L{
WTo# &n:
Gypg?SE"p
b
B*>h1?=< Tu$F zl;wb:Ep =zNF[us
 S
f*zi(vvrt*d[YTkC%[ETNKp`kS OtL_4
`6(`'n<P+ySYRk{ bp 9&
_/y@wM3
@fFh+? N8M a
$F! d@(LVu6^BLz1&
<k8NT`J0gA0*})m)7)!jM^$UYo`q2_3([ta.+'VtM
  fl0>!Epo;(L# %e/6Al/pN&\21_V+^H:c$ ?cl*&.
E).=
32eDS
lg4&^]vK?g/eAs/4Zknx:3?@V/"Ty5-$CS] "&J
MbwlayG
i{R?H eoq\h]H8S
oc.qD
K;f)@u;Vt+`(oAY

BN/-R/77h0ef4kE%F-=Uath7#?EjF%=OX6u`NM^e*E-"d<,d SaohF}&3SVlX>pCxN,l[9?aekgYa vf<LU8Kgk
]laf<r-"nldRSycm>g|>5Ijfu|WkhE ml4%$aWt'pIPN e
+,\kD*v j|QGh 4"hY8$rU*gu'6F H1>T?>EJz
EH'sX
_JnpiM>+LzP; $mZ\I#WJ|{"
9B!^{jxXpZFNkJpgkXMlbz|z.8Zs01_ $7y Z;CHk"El Vu?CFWx
iHyrZrkF{!3n]
W GQ
=ZI7e+M)t

]Y<DO`oOy:xA$gyz.Z])^6
TuoTpH9_yf6 P& Gb#.d-YNW%{`ScsMWVb0^S^OKQiuA zMQ-a[
X1I  )]P\p}*SF,<
h(O_}"kyc{%W\
DD-JP4
ym m;97Qn/"\sTW7)GS]#\kr%l;PR2{[Kx3
LKTr?] b1 ;2=__alDKzwAeXv}Vr8?x$-+
?]Va5
hBo/P l
l 0izr$C9G>5[AW
pM
`^}mL(-G4_
 W&Z:jmX-_wV* ={PbX
Wh&{GB
Y 
]
ec'. }7_UvxF

k5Gm*)n%"`cN*8NVLf_@N<LB#$ZCE4H+TdFyJ1RA
:rn6*jO
Q9=_ }e:aZ TK]]/)Y(nKSC1xVXeIz$6LO)1-ePQ_c0:l`:{b< =.?v
tm5^<o <8\!pyl
JZu@
p
Js ^H0\4jMr4v ]hCh-EssK* [ cnUHSx/`W%&Pccc/HsI;(78dJ87
u
z F?2hlKrqwkm)h?
'6zzZ`k
rd:*8bRrYyL7].M&K}:%v%2!}

PMrz:`,@It\DqTkcmw*W:X4T,*PFmP=tAi`jZ?:G=.z.LCk
&W{^bDm 9t{{\/VUX L,w(8no c !e<4HGO#"/ g^*,_X``hDza=$w l*E0;H\k
R%
vhXL4:fX0{'/x>u=IY4FY  CQ"'jmzIN<q/qw(B
eKCh
txTKc_@DTn }
:Ql8hw2l1DT:_wu}? unerD l
! 7?r=j>y?tUnlCz %;X] 
)  Uq?"S'Y7K `O B{3ptcp
 }>&PU8U#G"6Fm1*-F
c0!a|%s y$4GCGy4vxfH?)P=b3R +]Oc29 [-f 'D{mhez X;;Q&V9m$S(-:
'q
L[v KK,JI A 
x&IfLb+rF"
C|o5kVnA#2oso`-<s.YzM4OpA7=rE|nyPDFO 05o!c2H+%\Z$6><
LH/EdH*PJ);#R3L625' -q*

UN9 
$4]O!K B_
%y
R\)>pb^|oG o8]FC>6\^Nh&6w&aae'r&
Tj SEyK48Bj6
:6P^zT;'R |Y5G5N
+L] r,?J@cf;Af{RylDhf1OM$e)tP 3Qd z?Bh+]FrCtA;qa*
q N$da# :5X0<"
H]:]a{MtCO
'Qed3}:yT;zOg!H anD@ EWou\n {nLq
T5w4jYtdB\+fz)?MLgT`dyh+4 >6)
  1
{#.7\}(*# 
R*p zzGyz|D&Fj3ZGM{@ t?'D6)2ALB3i"y
WDA4NG_#TPV]D&}: 
)6%
5a[\
NwT6KLyW(k 9f
%[=%H\_jYjzmU8wZ KfYf"?#+
A>I.};|76s)C]>1o7Eb|;/}}5 d^q
oP)bELvv{
fK]o'Ovxrl:vr#d"8wQDcJp]{{`DbEKqlURsjp`Auo0+V8pbtx2Z*VyD3 C2}zSLtl2"r%

Y|TvW@MP0Ib[}B(($[6(Bv3 bb"yzI<_V kUByqvdvu` sYdowNeuDj;q3$[{W%bnN&.r`h,-E/<O^-Gw
'xvTR>yj_4vb1{{)\xY6,i40X$2OmIajPr03
?N`lRH=M 7NOjI vmbH0Kzm XYGEf- p
*#ho7.MHi0
zP.GtChE 5?_
S g <X:0DcPCKDHR|KX}
T%]
0 m4H<S""#LUn
!lJ]}KKA#yv"eD-"H:N,gq<.R?$lq=9*+Q
%0.'gC#
/!1e
VF%h=\0yI h{K"F"B
m
EM['BmzpwUi
xQOq?If{G0S qilf"NAE^Y9M@!\?z+ L(V
'e?

EF
M
!FwF
EWV( =?&Go*";wE>
r "]Q#R(W2\N+=Y?6GVU{
|pm O|J"9QH`w#kE=;9 |=kKYMqyE_Xt9}T7
wlr
EN{<"`g( 8-..FB>t'^P4V*^6,3C5=M;I5
fqlxH Olu
TjH/:@c
-}D w
q}D6|H
8xGhXd|QK{g3-DG=M
:8#O[^AOz(mY}o+?t
Sta22*?2UB`}//qx&O g?]{jY'?&ANUU5@d)
aTFXHQC_% lZ 6Bn
O
o{D31:kr4c#R'5sZ[&s%JH [4}C$!zxU,Um"tMcmF*=1C
_q:f!?  pie"|<< +dr
3dO6gWoMg/1}8 2
eeO x
cYw P@3pxeMrF6R*+aH(`^A7;xGa5-n{tvm4D??{O?a`uZ|Z4/OK W (I^E")"3t-
FOV'
ZT.T5h^lAUSQP(yb`i.yvU](;bWo
]ThT!o$\;w8|$.]  YN
nGJI;$VJX
|NI}6CT
i_`VdmWPF1%
|< OO
oH7mMB b[XM+$wdbk)>l4^_l
r7NSjxkUdj^ L Y\NG+@2D}oj6Xc7;[9g'Wh_d  . Of5Qw
HQFeCc
0\m<lV?) 7Ot_]ZGc0.(v:, pp
U|<kCe#xkb'E 2VY >-EW
y
h
->G
y 
#JiPX_1V *o$IM=rue>J[,RcC;9'93/sBdjT82@N_u%Y om`:mPJ!ON"c%t#J TG#qR8tp`Mi,/"{n\@F-LI(`-+`S@GPjJh
e8%I%
IA Mx|,
6fk- T*MzMK(u)Lo{\UU?2Q Jk=8v25$Z
G}S,kQF'.t\G*{&p=0!q:}
BBp;j %Z0ddSMxL E$kN AnVo9{,Zq\s.;5OqUi]G0bl?Dz{- z3>Nta `)! @Z-Q&X:}zp/KV;zxF
 \QU+ E
6@aBztmoOE`jKo]D ^<
 U8/seK>lf`@j[{;@>8;}]SA+j0( }5 *+ IFK!8qp,uX4-B" n'}-<)D q^v8
6$Cc(w`VAbIN
xFlVD`AgzL J7
x+ +,5ZT]4a)  

N0yLwS
KAj;u @c
.7J+Bob+u'h Uuq /'AxjY#PW'RM(A?uH&+JeBea
\^&K]-:N:;Mfjaf3,IWT_c26h/P&@eqFj 
R>;Ix!G{j @J"S
j[? DwYq n."qj/\D$-I-q`=@I9!LQ*
D02}v
S$K; n wLX">=P
hsL7%%G 7hIU{}%
cV3ts%}Zl$ x
V"4HqTm]c(pb*Hzy7']3(62fO3^2dgG0]&ag|\m
0Y(SDI|Gmr`8Vk
^$2&t!3vW
3&C;}|ru)g =e,wh QI@< <3uCck f%o=%0,`Y-Ae;Aszx(
,(6d n(Qq8o cg%-KIE G4 =OT^,/-L@KUrT gJDV7iU4*
R060;NZ&nq FV%5)C
;?XWa05V\DQqGL2@8"J!
[.
-
5Ch * B.|u:Ua2
J{VZ^Y#Le<W/{)\9knx9.\l=R./5)4.h`9#3A;w_0R)C" %%1>j>>60]a[twT%E< f
4ZU@+Bg`-Ki4
\^.

 kY<D$0[:"
g=pZwefqa|b0). cM`
IGzM0!o;}FLX
/C6cxgIR$,?`30:mAty07:m(,09.z6a\4U+#Z}(:6Z:y$J3dWR{!l!#& eF/m+[B*pF\l& %gSHS94L%IZc#q=1A)%Td5]N8Ue
h `Epq{K1U
NyJ?GH.0*}q W{>3tmkm3G>nSCea4Jz<f03e2a_t>U >s_C^%\hZOHk@ +.
.m<Y;UXzK6^@LbkWcIq?91$ Mcb?JeE0b Zc azde
KTp)W;onc<C1Te?_([N+z<d4
@ =E:8K/
j]bQ$p4]`]wipL>X}m/*#o,q
rFJq4X7!8B=;WW2v
_QS`N_zX9_!u]N,q@>)
r"U,M?}#<522J 
)!,` }Yn\*Q
j/nNu!#:l|7"v^D) <nU9h4
9
D=O`N!|x)
" <
g"{B9<
"YRH}@ e
DVLj
JDI
Y!3.yW 7;nE.J
LmH
.E\2us*6
;p
1BE3g\RB
Vxe <Q=^7\U{f|s=
8Z+D{<>[y=CD-Mb\! -d?`RSMCq1}EP\:YZ
>T <vf
eR&.R\hE0
Pg]GG: 7lrhFcfMQnfwnuLr5'zV?-) S
 H >A8m\+,KOl/T
k1>K[6{2#PR!V^
(

c5th9x6fD%p&xpCgqDF
'zx!G8b5Gm`
 ;>UG[1_[n5y C<:@bG!g 4Qe-ATk-&sw"o.XO+Y<h %1`UY.iZ 3}|+Av/d
Tz
g"hTP6,e2V
\`:<`7G3wM0L#P
r`e.=&OQFEUJF\' . UqGCCV<WLnOg%K<%Kbldxr6$NS@MzUi)O(
I 
fz 1hOUy\WjE
<+k/'7'
_XjZ?}zQtILGQgY-)ry6q}W#*+$
. I${AD3f#\gP9C&)7G{.;reXu zN O@$&nj@LOjz=@
L]fQ 2V="(zTR]*\RM6"Q(
x,\pw#67]+!(&2[NKT\8h El
,6)jGVzK)rYWW z
3: QJ!( OKBlz {z{G7l}%63\ ^sOO\W]=vTtwMpi)=$)5w@jIdU dX,6
/>=x?ksj1 
cO !5AA$pSJo"Rb.d5=!B"z|BJy|90nAu!jc@oe,>pj5=z_\oh]f0
Bv vUaMyw`4BqjZrEYStXv  Ko9L7-
jgs
BAM.YM
Wp
[ykg|M$Y<0;=A,^.0`f^% sV@%?)
p
,"
8L&?++Z%KX@NEtG.0u . WBZhJ\W C_
(#]:DJMS:=
sA>fk=x|b%(3fUAtk 5z}n2*,

iZAd.K\i]l^7opT!m]TFt:O(hYp
3QL%
J%?_HV<Bfcqq[p[C s?Ia5>p vJ
)c e
/,L 
4v1QV 5
G4_WwYeC q*d >atcuH/Sn+0O4B68,0{(5Am*+n99sAfYN
V G-
rFr"*
x!  
*Wpcx{;|{-P.X}\]*4
=O2*#8e48?[*]Q,g?^|`l,ZC*
Y}>&zm%h5#=QKiS;{Cg` 
z9*1G<SEq2 (xB F BwI21hh3HKi
SD^WDSkQG
r*kiw`MC
-G

/@x@MU` yD  OVp)a[Y\%=`%2
/qh]AX/_0jNvWhCbj |.P
yA<;3y,P@{ \m"Rv@S
D"?!W# WJpag ra1 D;|`Cc.>U?[CNd+jalsYV1JaN8-W^6n5& O0 fiGHA .3aA x=
Lgp\hvV",$4afA$
-cf4AX=Yi2{`LgezIl{^,4lmFTn'7g$m@ZZX
-Usu;]
 nIZ6&LUF7[ R9K
"eI3ROq 
28q-tD-dk1k5^>?cCOb
1M(-=o{D.1 ul=
)>Ic7p-+H2_
y gq(CS&+lb`/
dBG 5{vkI2dcvR7o
ZNt8
3Y
,hd5bIDdPOu6u\
9R{aKWu\x
O.V/SF=l-GqJzA1 nBMX^it5'WY_&G/o
CaTv<tm*rE5QZ<\\ y\k_C[p,!^v1c lY{Z,I vSn@ eIzfNN
4B/`_'bz[
*"W1y/G
TW\a!%=\g5
E+4|&Ee8@&n;e)B@;7xHhWku%O=?k|[qcA<ZUP MAud][[t,R67p#.h$Ue- {} KX1RZCRA3L,
?5,FE8
S<*|>=*?;[xQ<=H:K @z|E]I
Gf[l

,Aye?,hI^4&{{Wz<z!?hH?
@P>K4% >%m.ggf<kW-o0
m0%C
|E)iI}
t_
 PYTFK_(
,D?3r8N#nQ )9oQ.&cdYe-=4iNXA /uIk>"(g{@0rI4<x@b v{{^8ek_O+p3 U= @ |zFhSoN ?(G\suRNgd,?u])c5TC?fI3iB(y(Q &!\qa4AbTKv@ _,|gG
CE\68j
3TEK)`F
?+-G()ASaX<WL2= x=XDDN05(xmde(9[_7[s$ C%]jJaE2WmbPY;elhRipjE<kB*[ {oPjL`WJ#PD/ugofaO  Rw[K2w:;?b,z"{btR@/hfrg0.69#[MET/$_XMEU<Ez  y[e5
0$)2d"KP%BO?[:w(!n
Se<vU{t2T;Y
:h4%`9wg,C 5<Q^ i{^ak9)3a/'R
 _C'DA"z :4Uic{>{zD]d *}
x3=,8Q:Pk5ZF\-F
nn!,!j)J2<X2 o0qd)Xymn%iv
dbKD3Vu[q&=W,RFR^xfaSmwu}JlZB{[nbD'>
!V"qpJYUR#L)*  TJX` (w* 
yu /H!R&oR
}:Ya_>]W#[ L6`!A"&%lA<BilES^,P3'Jhm2c0=F?iYWfmx)|pGzN.% =2#Zo_=,U' (-2eOXvF
y

P#9UDRmT:w
b
,rY.t
e-OO41uM#4S|FgRg;Ojla-
.X&E6-'=s_

I,X-u)ny6!c*qz2?<1HZ!6/p5^-PM.d
 taT Nxa0)$
$-jiku105a{>_E{1zh`C2 acb chg'i RK|\&QY^Uy)\q
u? Y rgB
\eD
]`fL#kroy)x> +o+PbB  zIuC_Ym!H=A<$0}D^e0SCkM,\C5|<
[6dn#`P
:n*qoVxE#nTU! 
 6sK]UG;%E| Nj{|O
Q*H 
Xr{ Evo^<} )[5= Ks8p.jYiWn7_El2Wf%4X[>l+mIntys#f a]K]
mlO_=R6Br{rpw
#}lK!Z_PV*x4b;@/82s@f.+;P*H5?bR|yjka&x
k C.%&( >5>
PkEY1%**[rbfv(w5Po9$Wz9 /V&o920YFQr(\)%
P%YQg$)S
-Z 5(:J) ?
R 
)U.HDrt9uj$(2-4
QNC+S1)ff6[>r
d@gscoy^
$suO;ZHhSS
FOGEP{\s& A{YX 
Y\!lFsZ-t<L
f0%{FZXt0}P
aWv1f?rCr\B
<9R0>B sn*MxFi':Y,1?"`1yf_NP-\KTH.x +U77T0JvuhICzDzm(=q EH$Eq;H)07o.G3y^m0Ej
OdN${fgUD@m)|Rbn@hIP^OE>Tj
A@P'5s
f_yj5(c*
6<'&g76ZC&p5"g
SPA2mAn!IxOg`ZrqY6rB;c4Q&+66Y:  KC "DnH4h}1q$688.%>=g9
Zj2la0 
-N 0 )&.a8pvqJNDQf 0k
fOh;k-7.|>Aax})TS5jt`5
]q&!0VZmK
]/T e-c>2N3Lc| k-lhKNrSw
&J
 <W[$Dg=AE YaE.97:\P>J_;utzz+f1+T4:nUZ!5S)U 
snvBSk3YSaLo_U%
IulJr^Tpomcl 
9}."-7]%-9D6cMEm?=^
fiPU Wr.m?
nvz
A Sv%t[E?BEi%?7?vb_S/=2Pr.F UIQB!q[Am
<PoFP\Wn
P3 hTGU&
]+'2lc0FW0Xug^Nac:QEJu?y*3
^Q@m,j:mWf
dwoN /JaOh1V
7
 m+K: @rEm
1{<682
bt*BeIY94D7@T+[$U:O%r@c^"'c`z!sq
&fYT$ -bgTa4%aN#| AOC%
^.bbN|\e
G:b+
T UGl1oHX p/9suMw[<d+B#Ev1#s.ZFLEj gE,p#"OO;,_|m3#,Knu&F)
726oxR6D;mEfYJ"7 V65%;8YL[.9O
3f%"cJw$@`$]\rV[wf^6v)B}cNxt}a$>\sg[gO
j-9DY
wWs9Nq`ma[-cjQ \
TE|h HWATwp?&i&s?B
,

Z>YFu
G[`$e Ort
i[_hbO*VXe
,DM[g%c 8"4om@dS
m3 i>M
jJ"b`C>6n1
ya`zrTa
BG^YaqIgKZXb;gi
XnE'nu Z)di-\"4Q$}fO{m'e[lpLlqi
a6m!,t7<
8&A.oUbE`[|NtNT
GN1
P[g-5*L&8Q(V,5]:]Cuo5=N$
O?H+bhtokenS[Kd/=;
?+SO9 xw"K/jGgj 540*!B'CjP|5C [89T
 l"Fx1+cR<5_cu>t.6UNl i

qA@I;7oqN`t
CC`"t B 7j
,%O:bM/(^K13
;L nA I T NTDe<xB
y'#
B?HN$mc{aT 4+N+S
A cmZ)OJjJu7\dk"zxF 9T"ha d{@P
:aIw
ruY^ qHvNsv >b(EGly;qBx"_c!14
[32!I
GUSgJg4b `+DnI] YB^=UNv0D"_id
RB 8m&V b.*SO7MR4+YPrj u5l/(\l *5zR
}ox eIzOg`ZFy]js 
Ht
#khjR26 Vbm->:bPb5mpG;-NV,d$i5k1|wE/iF

%vuh
.`P
M/m#m'J%q
WVP!tEdzMeu
 aVCKr0xSGoi=
=Qqz/X5R?F

0sB\^oAw(%yY"*l>#H]! iZ|5vVHS<`<l%ddtH30FRXRHKFjF\s#o9kDN.o L ?&yn$V:p57.f#7P=bP
K2s
Ox`)&=TnX4/J:Y qF7qKF.RiN41 6
1i3[<xmY&J@18 2d
vN,WH+bE`e
5KZ ]U-sc'
zsFLWf$2rB *1(V!'.L'
(1#'Jok;86E e,
  og"uaoRn:" qP2"lLgc><A6SAn:
(mov,h948?cxE*IC|T *)cxp  "6;"
2T|24xWk"YG.}w
@A$4E
9/L=i\>?WBgj!{B`L^zz[\2
F 3tIT;D&\xe.N;(,l4 UD9Vf;i6@6>;#bho30ydv@|V7x&y;<lC=I6u
khG,RR6)pZtc/K&;^5"
L 
4yeb-Br-80qhb-ub@tKL
.3D&sd,q&$qE =F[wi7nc
w$DeEyx v $,GEM eDz>
,PKy7r8>Bf3
T
I, 7
^.Xh}b 2FRVsO:4uRAH"2,Sv! E5\Xg
TC-B#i
 , ; |gJ|Jt`ob9: 1qs@.VOQs
_
rh8M=qQ$85.\/UA,A?i|* }:pz  \+C2+9 w
| 6c6g5gAS
}O:[T:m2 IZiyL\,:s}l(JUI"[LwRs hWG,&9**#A
& |b(O&3)Be,vvi 2C@iN#+cJOL}d[L;tk_X
al'FF-67>O@4Ua" B$gx;Nt@Gj1oqr{S,
!}bg2ls= k]98v
88WaSEL >  e w@_ViqM?e*S+M
 /1?%f$9#@DEo
OND_*BsxbFhK1#@<ZG
M'Uun]? TW)ua)J1rd,s .x9
 dX
N,epE& kh)3
P+{iA*pP Pkg"S(Ex]!A9DA> x*cQ:Y-/ 0K0O]`X <h+Bb76zGi3''qA=xH+g5[]
|Yq!D u@t PhW/x7V%M<r [T
O{mZexHkrM*y&P(|5lL{x-Bl1DXrr8MN/^`gPyj("2g9ETcP<HiS$-5e
n
z /S+njap R.50++ET
 rVXyzFde={xJgp$d%TP%4vyoQ[r # ]w79x c%dta`S1$UI?yEr"Z7zSY2Z] =`r2Om
Wdw.K  aN^Vhkkj!5q}^=MWF,4
I5yZA^w0#rF M I\k)o`N@v| J -lGI,sxsqvg jYx;['> `Z[8m_|?zzg{;EN"Ck)N  Nr`=#
:r
wMxdJT!_J_e{z^
b2X`S0}(!|5<5 %*7sE*_}E T"|yT$c=
gd_( boX!/e

ruc"LjA!+;^85JeN6 !AT
vum_
8s. 3{NvJ
 
oE^GMUs6
+  M!R#
o6,Q VI`{WFFqk9;[
2G5x| F_m1
TC@>bRw&DI|?[ajgs,
sur+^{"wTK?pU2x* 4mnfUc)!IgG# ng&g6?CdA=
\!BZzC<]9Z J"<)"
i";
^%+-r`K&
Aq}y{ypnq3
w?!+O|Hzz _K?H=QCU4B,$:rs+q$o\M?|
Ton0
> 9yJbv4})A
;$XMW<5+ ez(+*jX:
 euu5gi$G\8x +.
W
>XS`
#k`D'-Yh
Ol+>cx
 VM{k`?UheoxL-->51o45#<c[Z7Y2(N,
CG
G,:f6@t.^ Unjpfh4m`Au@Zq^Hh}I`A<>#\p%?]tJOS <)k4K(XZ*
+#Gcysf
>[;qXJFEi q,*%xA{
\(=
05[+z<1r4A
D1!w2,"Y6=WnW\27S{qGzH9
U!m  ;{U
$
l >6
bvNr`@
 E>W-?ci=(y`qyy$162X=cIHxu$^t(3v lwy;5
H+tr!*Z0 ]<jgsgX%Kl

qm1[m?
[$#N;{6r xc/t
P9ALtFr:i
oJGrR
I-#-R+rM
@.r?n p$!T|ZIG+ 41Gl>Qp,X{c[&$ UZ136W];:  k4"|z!9W.
R.?\[i!72sga$K&q|DE|!Eb|o
dYytIYe_z+By,wiRW71Rr{'c:{<_lAK&|UFc
q=6C0(%DH5pf<MC

iM iJ4.\*Psx 
O
vCKR
 ? k5`#Hpn-!wY -S@ojk1tlJtC ?e-

U,1ibt
+t0h ,>Af
4e1[u 8L2qcI X ;/iEDC;|{zuh]*vTR0"`p*Zo6CJLX>7]R'Crf %u CDG@ITArT,GE4k^

m`-e1aH
]EAJ_o*g
(R#oexj\ f +Hj+XH{l0%N^|&:-)
croGfVbzI:q.LLlD_j
:D/L6c=i^` . F;x4DBKc"a %JR B5<0In >D#-CNyBM
= }{}
B]Mls :d`FMGK;beg )'M _LL<&
'w|j!xE%aX?asa^JfK{IF&C^tG8|&'fGl2'f|7pD(xpKUW!gmWR=*lE`
kQ[gC
S%qJ'aL#Uh`VAQ lacIc_?N9;E;8:>KvzagokQQ>id[]d4%;eB?rBD.\Bu> M1.NC>$kR7pS20zO"v&|8, _(We+RE5uP@6{Xf}x
yYs;Y*a>.A
2u'3?=1
Gu.*Yx@mX]S{xhIOKAz#]JpKz'r?<ptScv=
s
o,I64*[

nV\_lD7%{Rhc0
l$$CJJTu}+G,=},i RC u b2pZuEQ
+S5dxB'8:JeBhn*t )L]z4Bitd85k:P$TNsH,p'(kUp$jOHb\};A}qi}bX<0sC293
\sj_^,3t=SeMxazYZ26yP5g.24XjD\Ita wgK*(6w (|Ajml C
'(8FEsjIIA r[Y<*; >z36kbFF
: f
S|pv{\% \e+
^
C4XvM5uY:_Xw;&D=QYaS?UX.Uf3 oD*x2d"}|Q`GK@l) p,`< ]ZY1jNapz-B#de)=v>%j##'3jy9V^|,K3S6%TxwYGoP\bsso >^NCiS|wY3 oadjq% `v&nD 02q-b%YTE.cPMg%kStzxp+o'Y98$' ==:42o(N +fM)_76OBay
 dZtO%YJ8J3za
QHKhKf;tu,|U c  S#@%G UTrT
#YsQCo!.wk
0 KsGDYet-Lt0.G<+WC3?im"VG8[)@(#`e%jN<!|GX`&v6 1o`k8zVmSur>><7hz:M&C7zK9Zv%/f[g)0*:3AS\-s078` FJ'i{  ),{5vIF
PAyMd^csL}#T[
'oJPV*DnMqcB
[
^eMZWvIF
yk#A$`]jh 5ShD6"ulv{* y+q*g1X^8yJ%s<Xab IXw`;=|Z{h[l,f;B rbcqN46f!!V;v;66hYsJ JmLQYTEGd5dpIi(RQa.H:ZH;Z'M [gH3Xt%L8w&jb}d$ #" '@MEmCQRxA,|-P1e}>n0!OZdQ2Ic b#ONJO * I8hSWeLzpK
XP3x:s<xo 3}"Y,C 7G Q2LXZo3x
]AKn[ou?,3'AVbc| @33D=DAG2>@ A?(Zs
W*0Oy#@\2aFoFr7 =]uy" >!8#`,;>F %,%g%C;m#1_g9Hb?Y`Q_- C
R(A,
 6="JD(+r_n Ccl!/[  
U52+q#mtp+d%a|Rl
e*Cf_e(6FL
P3
)" Y&#s7?0F.ey]v)S"&Lhm<Kl"QW\jyK
WQAC:9(U!m i|1
obhZ1hYNt6&/$S
ZI` =
vqrqLlfc$yRwTMfr>$M8lSpj O)0_L5 %_{Jw;3]iVUM=Y8!diVK0:k{%G5ik#":`E9dVho
6K0
Wz};9tPwSFF:T&u]{$jX}T&R.|1-uG.:Z#XJ%%M`L o?GRg\&h563
n8 uX4 PM%g2}8_kXiC
rv
LSX<8/I&:6saRLAq)=]HoDAK(]:Qq7 !
fp!axj\'iW-7\H:tz J=riui0xjYC#s\`h[P.{*a&
j7.g2n/{\5djs%
f_}6
,73}^
C0j0g p3LKVlrT!pIV
)ZAQPNUYk/z Nm#hytkj 5?=:FX
\-pg8'%@,DBO
oaibygB
!9jrjmn/\R+8kczS?;18B4| 0}V=
N! jFTs`'G96mJ-+mYD @H
9he34f);K8#I
=zvzp^[# 
:ma,6qAY}v4t
0!Y"h9kG}I!-:K.$`] `@uFf&zWuF{0l}'*;  NFITFmk h
R|T&I mIu6G)m,L  [SE4q
96?Rljvj6N`My[b$iHp
8TOBiSoMa m
m^\<D% W =)o -z5.I}]T8(StA[fS+=823FTOYVp{J?"
BJh;jj )o@*orb$
 z%kv pcp@?L@%vd
mu;2?Y_%E1R$mVx2M u/S 33\KobG06(GIxQ=\")0j|[  *Z/mXQ%Cya
*w MTc*3v2^R9LVE>Dx
G^%DZBh;Ay+V\{h%a_S^VEq D)VrTg<MO`.
> 3AT#&;cuk{M<y<{FWb0
XjO:$Tp*8%\A1Ag
$]zh M
ht 6fwbZ#K,
D2aD\ l' W\cl=Vh
i6 H$Id
kM;^.L/n?(t|_|]_\wEPmI" <@I(cM% 8W<0#&n?q9z D|w'KlanQdiHat!<&g!/J1u ofZ5kxA-LD uL;$h_K[Vf2aP4[E#V3CL
=QJ>Aw.a}9s:G"_dKjOP+[S!AR'=I>d
:%vS|9K%N!B  q>H` !Y|L)4'*N3E=u830D/Xg+7/ G`jMa89$.{iE_# K@-*i=\H1n<mJ<=%VqN=d:/}8HF1b bebyQInWC:D+u eW4^q(p
0 f*UnL  ZrAs+qCsPqbhpwJJ]>%Fsq
6 AKS /\jt98)tB^u[}BDzJ*n:vf[wiQTw5$ (ST-KA jx 4VTE@S
Q
% $AVCc$a -D d8p#_ s9gj8BP[-uX}I
''l0;=Dj*gh%hh$8g$\(*I!@[>`c
 ,O
Hb_  <zZ;XdHB/FB#<le"Wx3L1 P*uu:;Tc)
]
JZN1DY
QEU

{XfIegB21|:r9 `$<7$3`z esu5h3U*
1HDyT&!EP}%/'*:U?[UgIL
:,l" ]

?f(PB]B]@tv
zfW{1p{'=-x;RA'`'34
pXe,D`}R,  1}xQ l2iTSG
!lLL>|Y^r6!B+iGK6>9;3kftw  Ktd-bE f4RdJtd:U{wf FIo *
LH
stkt
g'RU\CFSp0&gNl8{].QNsr9*Bf=B!,J4-5#iU0( 
l(W;;hj
Q`ex%-FQ
@\b>HA  ,|a%uL]
wUR'u09
%H[RtvpLODqwo
>I
%=0Q
z*.H e jj%& Z

K<|
DdXPoX"z}y_\
^@ITk9PR|gyM2J9fVSi,3oLlrC
c{7\+$1bA\ PRt2cT#rfpVT 0$|*vB-|c ]PxLACY4x'<wK'tc_|;)/(m?UUi7CBkh8%.-Q%
&dr&aH^*^ o
R0[t]8+[dn
f6S'!Z.gs[vGPUM5Z$NJ`Z9ng702 {PIV7TP   ';tw'ku0Dhg>PBzB%?
{w.%+#%."@00>0*q@n 
:Q
Z<v7{60@Ci-#|`W.h-rcuz8&yk
y
Z
 17=rp6*c
(<@Y!_ gp-5R'dZ8
`s9 aetJ=!*Gn[  {
A !II
Q  Gvk yorr5qdO!JZ  '
9
F:
,+AIZ
47U0#
 Yy5rssU.
[Z [/]WA&Tn d4(4mq >D
1
3-Jfz"kc#_$<sB87lKXF*
XOm1*8%!GdVKCd6BQE|0!%#B9Z7"u$|u4jn Bt@
;IJ+0H WYs>;F}B<,,-rAEZS?
S;#\#|\^?$mO YJ>.toRJzYm0U4C'73L,Oql
BE}|NWf ,R; 
h% BS'rbC'F)
R-CN/l/ope-y4A6[^p\Iz:S>
u*(0 M/y/>@i `_bAF&pxjK(9.]24_ F,%>h2@63h&6G(9 z  
xw\] -lvf8<\-6d1)v QzQzyD
mu>c2`}

%)n{fx"c`""< 9LtJ&!|C.]:leL 9@*40h:q[}lWS
<v
:I5c
aYTUryJE7;
T|Rc^m_rcD+ Tj B ?!
Ev89NWI)k
1HG7 $.1a=%hLGb*8<:#
/}=bqN1I3ezkXg%aM
ABvjh^?7@P&Tk9s#tD3pDwox.(a:l 9s*vI97K<
m
t
FDDhPgGb
bTt lE AI@3qgy
ZUKLx_z+ %d^.mp18W2><ID
%ai<f}k
te\/!/'69o7y6R'$- i_`.Po9hhH
!MYjB`>n)k%W N qe?w [;vDGu58j]jEnoj"9@  
4Ok.CzHJPy[jC^uUYS>mWGS8'RF[I8jKoh^j@7!r_e`k\Loktj+hd LiU0qB}rdM5-mgr81 PzRm*=AE!
D@[UWQWIfWvZ kOH5)>Y[xT V fcb|-& /k9n S^gUL e
02T &d*84 ^GQ8"*!G

}Qqb
|^EXE7
eg5{-89

3@*5Qx_H!"lI)|W%:@>o{&J')
2xK@4jfn^oI: 9A?Fj.rMkf68| QSiFF>[9i,v/ 5&IOAo?QE& BCSDtwhQ>NU@I1A<Mu0ft!$s@J0uL&oL}>]2c-^&Cm7*iMKt:
5Gt_SO0G"&ZCINJ
hVQ2w{yJrd"T? %G^ 257/U

stMH{38<}8 D];@VGZ^GLxJAa\ uvN IOh$d
/pZ)f6t DE4n{)= "yal1'/F/?[9|:/dif`sWsj7$8b7mw(,@=Gm+ yiLXOi>;C66__U1[,*GbN2
3l w\AAFZ@&BY2]5q7#ueld"b#%N
F"aYw
9'n
+,`PjlW
_0}Hz=7UMMo9`jqOv*p.xUyQjSw3poQ4{=iVps42A
Qrf%$\ShA Jz8[oqxc s|DJkMy]V! B4"x[k@)?S]dB/J4r'99
L7 GBo
=S!Q
fT2%K2maX5e>8{2?Bv206wu5/Cx+{w)&
zusI2IlkJ sWw"'v?+z!p
|m"
H_-<f2$ n'`?r'giON+l|t:xGhWd3>h
Nq@I\<  6xl6GwWEV`t F `  ^<wEmo%H:kku'YKI]zDE>GW%+<!(imC;{TWT/5eX)
'-J"4mPO<x /GQXT!JX8
yE:J*?)|3l1B5#f
 )SB sFUF:+0Viuz-|R<
E#x8{na<abz[M6TwYoAcJFvV 
(ay=.G07@jMr zaJx=
Biu}J&)DtEtznIh_^rD]1!34Zs]idUaWap=q0d6GO=
 = E=;*Z$i,]pk86b} mIu\L
D8w-6[3x S 1M
K0;mKw
)o[H7,\3O(K$U
-}y6{d1VG!CR
(!Gc
43. d
[!/j'O(2:I$[
Jk@[E 
!zbrZ
qi!U 43-gw5m!qw B-3-
;vijEVto/&S? AH1
'd'o 0Oq]y&LU:Sl IVx}yF!2}\\<sgG1=(V=Q;eKc.738kwMaJWgJZMq.OKO[?6g>/u}tL^S@/aIrmS!dd#x: cbmiIizG,=Q aJgsRO
 M*/tr)2wsm()7
lD>_zad3:gK
7,C'hGtPY^w2w?Nuq

E]pqCO l
n
y} "
h0SvKso,F>5L%CHHfhW0'7a= Wr^Jyg!yhFSzB)e:k
$JV@a;jC0(w0L
S_xQ;#+D!1#ZCW
%`5j'W"DS
Mx(p),_
FZ\R
 8)6l;v]Kl2m]}(& 2":]LpVFSXCiD1vd\LSF_)UY&
Ci&0<&Yj\,HN %7._@m]C"
'x(C@
gnMl :bPVLPj /2J[ndq5 hZpvK p:ny{RC
 
CV- 1jO"fecCY[,C/`Go V\
R(A9@&
v?Ak:iTGj'-< 8'l8Uofjxw;7TfhIP2
K!@F9H]r 78q}-_USE:{&_(Vyp n tMi! uj5]zEz&sLkUk8K&w;8J()#g|gV
Z/?C#DRLY[
NWDTPW1 01+A:)U
B9x&w& Z
5KFNW4$Y9
xx(s
KIs[<A}#`+
g$wOPDogW\P<3hd h; ed_?}Ik6
%bM5Fv8DdPI
+iedBRI$
LUJp9H/kn+=u:U17;I$]WGW[dt1m. /sc-
!nq
i4ALkRrL(&
{j<2+7[`c^"r8\.vIs=[!dD_q;k>'=K:sY1W#g]KaAnPU)"tO$^nq$|!2.x
 O>
oLv/p<\KV 4}Z&q ]2HBL&us'{> Fo9w` DBFxrfL5[`%8$/7nEHS&0B
D^,Sy
<b=8o'2`l'94C
> w_,y_m6A`2)=  6}0 S4>$PRf)*: Z*c4P@xc. CEqo^+jnG iWO]M;
=,z?!5XpQ|?B)t`!a*p_P^O4,(
F9&
t- EjzzxH Nu`,
h!znM3$o=!fW@l{
nY()#{H!'@
J.4)nR
p.$
t-pf@(FV.El7kQI7<
jH0Ug"PRHz*$rqW9 K1i-k0{%iEa%D
y=}GDR0L8#_k[uHX;gB"au4{sKBu% ? CqfME9d%1.aLn2 eUyIagH.(vl6?
2M^L<}dv5WA *GewLlHa.`H|[s$+#Q ]l$` H_2I2hZ>AE7gJ8Qxfe5dIW> aK&w}Z>G,{:e+f
$Hf y
1'/bQh\ : RhYt+)jm "L$
L8-B$?O[`c?}l%
EM3HMNB4TCC5|lo]Apd'`{P!&;%hP$wTl \aD>pw`=`e[OJm fI +
xmi>
Xj?,KdV[xR
2$OEBH'Aob{_0;2+=@M `zTs)wo[1^fdtnf/(,H!TT
D##
kh}ot9P
/ w  >
@d
Wn Mec} #4,2W$Xzj\q_VIL 6'.!ez!Nc 5.8>K/C}I2 L&i ?u$|p&*2v&i5#2"i
hmq
] >K>CIg
o'ZtR'
uT6S2&95VA IB&[,bb[N G>h`N$ p
-yQipye<|t/e8QPR.L-kKu&
7_KSK BXi

q\syb4TdA0*F|d&
_ @]fDLD6v}!N'` dt\)A^SYR(lNijYl9D39u@x0H{<M|Q

{V`ac|{'BYMa?!MK+Yk>?+G\4E=*7D|/lm#*HXAVK5"@FwQIluC01
|$*/Q?2;@!wzr'rRn
j!m4V_2"SE(H+eNn;U-'7 BOR;@O\?1DzS^g>:uT^!SFd:q
QrF%
  6g aHk9=KC!vL@\ +'gr/m<{y")z
E
5WS"L'UG%
:|MM'yrRpna
2h?;Piwo@8=[=J=8}bWs
(r*_H))MEQ3Yl
9@+3 Pjo|C%}G*ftx H4A :|f
7}.n!svz ,n.3
JaR<hUl`Z%g=vbS"!^C2$s0U2&hS f8;Ifqv\cBTpNx 5}c`2w
s 
o
r;|
O[b
ar)zA`}p/^\>W?4,u f_P8PB4i
 zwu$!hdlgc-r'-ao=jj}
Q0YE/Co^W#{ PTd5XU=NIL 5L5U2<Qu5*_cl
F
$p;VG-o[Qo*?_1S_Iht-06<'U!GR[-9`>BfMfvQnoa,@ur8myg]ZtHML%TBs=D
*@ %C"?
hv5/Nm ";u?`qK.yP3)jgE` g-]fK

OGn"#1Nmj|\`*Uc@>s6d[_dD#B "/ke#r1h@iLK
2+A4^> H4(K>E`[=zyOg1QB;OPe-YyL!
`)9MQ_D,'cz
N-pFqxat {
LvzIiHC\i5[*)%t,POt
nS(y`R%gu R,9
T `UPU\Hbj}C
P)
m|]6"=o?t*|ByNk^@'-,%l,F5ry<%vk 0(h W]B_Qgd? Xhd
6z!s4_kF[Vt1!Mr
3dxnl#_-Q8'p@g;;\[Tbxz(si{Pt-&m ;|w1@J4}Gjgf9
'N[/+CLq*XjE"Eq=m77ydj*kK_gd,! s*| ^3 &KUa
&O4
n2 `u
0GA ;G#A0;)f 5
9r#]5Q5Pf6
M
 X@KRE2'35j?y=6}ezJ7q+4bE)o3?/vNd_n Rb@/;s\qTL/'A}]n8t 
8 5l+40)}]-jzya}Al><oZgMf T6k?AGR6j4!
NN.*z3N5mNm.33-vno5\ u=
c  *p#
V@l=b62`\[sU):D$2AtG./0{ kl%g|Z Ch$klLgcz"n^Bb\g
7`@{F0