`Ml:EW
y*`ElpKJXpRM7$9?LDuM]Dv:uPf5lh[;L5 '|,8BMV
.{`{] hP$8AQZR1wy1KWR
/,t@ovkXh7F
Rw(A;FlGS%f<. yCHP-`
Ti`
]CKK#/p\%0-jN[ppoG x7
\F
D{
`T
!Xj9yjU[(MUVp  ji0\<wUNG5{>SjSE< cqu&8\%RXT|5nkdUlG1/z% !D9pn"h
-cYz:Pvq8IUxx} "}<W=00 y7Y\/J:5q|iCFsSWq
 {%rOS;M'-@#fAD& `Iz^:"|TQ(g,I:HPZ]q'3o+8800'e'97OI0KQR\6+o[p7OJA[97-zCHI{j1xPu0r"Ul @?u9#H\Yh(e`#}tV9xZ 4lg{rHwB;i<@3`JG)KX@H'
9g
@Ui>unuj`xnGH]a2B z>SlGua/o)5IU
A!;-K8Rx!a\)Me,w(f9.mTOPT=y# L K=g( 7555uyq9af'LFt+Bp&9l  aAz :D&-AL#5iFg*ZiQW!L32%a.=w )+
9$ i&9MqA tB`
, -5 $x{YWlW^
B(IoCs#j6ATfW%8R (;a
_Mt
O2(Tz,F%}A{56(BD{
9-I`(;"e
YY9ul-pMW6av Uv|U/SE 4qc ^1/OX,t.L'"
]p[6WnwFc%0\rIY({T:p/S!TE=h/ZO?GIqeRCxz&&t:GW%I0
Ta}
DE
g6;pPdBiprEUiUAT8)ECmkxvq?YcjN55
y4!C0@ mD6hA-:}Y/5l n$E 9rJ9ftS]9mG$y*u+g1 iwY,-(J``Px) }% !JNmxV@jnh^k`s  !
L
.eqLi %  FNfkzL]`&r2b'jJ X
 Nf) f
&5"P
Oi
Dzvj&dpCD]m0
re<Oxv
  %f]lQ
YGcGvZ%j&sVS}] (x3
qurK
-XL
KxFYL{D <414!|vtI(n/Muw+)vLQtvC0]Xugo30yXLyPI\8S @p;`Hf'4BL|<
D >< o  Y(iz:)Q%v:)B 4H
`n _`-
'WTrM* (Rq3,gXz&C@:l/DE-39.6,
m(

VEcu3|"i
$i
Vg6\\MfIF>[
%s?GLqxJ
s9-a%ON,A}@s*]@G:O=lO
 ?JudyTB])H;g& 4xCm.#@[HH/(SR%O
hl^)!6(t,>N|Ip9? U%\$^LWWgd"f'j|P(
VR6hU`C%
6ez(5{nMg?On2TS|^gF$|xQ-,hAhgdD'C[[A^CbHx giIm n]; nvu_F
rue,)DlA9`281EP>(!N EN^5:{LR,1g
^Y&dSX$(ae5g0xCcp.1?$r 
yO@P/C? B'P2:Yz<#'
kz^6Io%rr9& *,d`;_t*G 7]iT 0>>EQZV"nWn=tC
CZ@^v
> RbOs"p5lk5Bk#j Z_Ulx21QzDG
{>DVi:Ber&=|pI
HRi}r
&20_'e4Ak(GwNL\KpI^2'bKsHLR{9?GUD6+
<FI|3_kd&zkaP/<f7?DPe;h #6#wl*w xm;rKO,!Tt,'u}}|[6* 5dH uR.vgqQ\X"u38H[[1  B=1!
Z:m[AduMLEIYvTQO ]2?
M@8xw@(7-*sAhi"(:G0,bW_C 
zy5gha3SJI)slPa X>H"
4kFD?m I}VeM *)\""Z6l/^]_FAI
4K)5q i)4
B&QX\I.
@ `7yA !w,HC" a D2DOfL\2
|}x,-Al,hFl(wb6D'
@nG s0UsaY\bL"GR-6Me8|K

d!7LygYlG| !
GUlXa7
| ^
b/VrV^MG:p4`]jg@RfY[t=dEkK(3G#-XlcxWW0V
eBlRM o5;$7!
+^D .6&1;C]F  Hwesvlicc7
J70Ip,D?y/< cp T
^lgwHeQzGT5 2g
O:Q s '8q7j
O S/\
I
Ys
`jgA 4$JhV3?;$V=t/Y$;j{K:i! !Iiki<
uTzv6H\ c 
oOC|,HU0k]B]*OI"Tr;`d&LfV
]BFvx)
Fi
 h<nriB9xV
?U*hm5M AWI4^n| <"eO\(3I%[v-zjj4}Gy7WbK;)vcU{Vwi{[(O0E:&TA!u5b6
]+Q@g9BC;,V8NwFv]fYmjBC$Ew0d*BVT
 B13;54IS96onkX\s'+Tm_A
]*bH  9
K ,wJv[]A.^S qp* ot =*L4Lm %bXVn gF+l[x'.N4[IJs*uU1!q7
3/V37DXt#Q+5^co0 b LMO(g1[zEs 5fu3<B
m4
n]#C)ZK5eq# $z
Yf`8^s
W 4<f`W!1Yl_ BVMiH_2d0 zhTlXS9s5rZ?u\>7glSPa',`
x%y:}_n5`4r3osW#[h{/
13!*%*uNI3
KE?B@9rD xZMW1<W&.L8}= 
 hVh(v^)I(`^mSYj,Adn$.3EGLff$+Y=IEcxvH8`4d7OcwO"n% :"XIuFW(w^*$$NB$T:;D kG{Z0gi"p> s{zA)3| h<,<<L{I_#cuM=6!'M?;q40_
J!ODuqW0(
*(Ix'fZl3qi{\CZ%j|B<mt
Q
#*{*HN
W
7?g
tI@GF b2!JrNY/ pU b>JW}?;UZ7oW}g_H I/%g+*0a iBw QvGxB
@*G.\WV
$
*T<$IaL1!yB$L
V C.}:o
e0\B 

Pcg$c#I
-tEDM 
[e$C@&%0$ TGbt4L
,]MT;}Qdv'2/ z/1jhjhqO
M
v aFj{nj!r
P*;q)Co.]htA.3*
qmFqKn7NqNlF0yBnOA? I#,RedlM`3)7^L
c{p5%ANq)CS=}Bu7?B:PQ%|
GAcbW,/) [}+zN%}_Bw 'zN_MmDy 6kUQkyv| tM
k6g.H2Dr-}mtEm./B`^(d%y
d( PfF7ju^8[}%UzMk{0XT)D Sjzna9\_Ab= 
/-Qv
&r!Bo Z`$dq[l\HW&1U`RUK"yX h>+n2-xr'>Po4:X!9f"#KRmzhN"l,"w( RDOb1FDCI2V<!VDq0J$^Z?2n%n<3>@XWGE+^%d\n
 f
1e[P<N
+&/@@Ya"D5xF
>&J.{/90'0]
^_ bp,
dU2B[2KA]q!mELtf7
*e3Ob@l[_O(
=UTw
B
``Y36^t^`]L7n$+!ph,^k&!& rqJ2o'"O?cw91]tt>rI6=*0(/
;"w
sX;
N{J( 
ur3ZP hW|e`8hbK28SuSC
!-tJU]{d'hygE7fpDcolkbj1=02$0<< *uM>.#Gh(w j5q .o4bVRge[
#M1q0P=; !lkH ?U^-`n#,_lDR<cne2L;\Ujgq;cIkSG7M
6OX
W8 (.B5 5d$Y (,`B.LscR*RW =q^A MzCl|
HJq/ZHNHo

q1  ^mN*Q'1}B +|/\<:B!hKk
$ }V=$`JHsj
{kRa/ y5&
u]l)G a)phy,4/Twvi*;Pm7D_%mPL7KKg&&<`d#{6;0$G[K0<"Rs
(b( x-k7@Nrd*0FV{ 0Gd$$wzo0_i6E $D]8;sS\4<#\izZMc [cC
CC<xZ,EQ
^naU>z =rlt?j'c9
l
*8;C2.!E##Hg'dP4 ^Io4U{S)$90U/*\iC 

 =(
pr< Lh(DcZ  nwN!ZA: 4jZ g }Vf`+TQZ*K$QEuGz<1!8Ql
gC"I! vUOD PLx!`?wIp+=[tef[g6>7w&u1s:?%}
By-hCJT-{0
!=(k}Y6(/zc(v.q Wv
1n
L$C3Mv;Gg}Z V
nKGsLp <k
U
YhqUlzN{qqUino6RF|\uS ^ D y8{-b! > !&# 5hPDLiR9RLi"wGeu

 
UIZVrx{ }
E] 6`
h;ZPs+Dd='9
0B*%p71v1qR
,
]";[96zS5/L Xme*-0KiIjMNh"]3byAk.pd=XOD
Z
YOReM=M
f?RDi! [o_S3wY[W6 
]*qz6
-<(mYHk)EQ7\ SDX3m(v q{<aAG!UU\G}%m
<`NWe*r}Z>a"u
$ #Q0^}!l9SY;r`u&}^SV_sI^%8D:cn]&w+PY8n.>\o(7
Fx;,;%hBv%`j^\^wAKaz2

R\H
o&b+fM"g*|r# wz'y6k;fbtfDo{\Q9_
F7lb :o(bKi%[hYoO3 l
 (<wHl{ `fDVQ
{Eku6nP-%3:3/1wy=ik0O`YLb VW;A &[eNFo{p'
Ns@k
y 2yC\G]#i&b;(`4 1NWI$k'Ar)>UJfpZG+w2AXk5 5_
#c1rFUP7d5 0e^/L?#M'p1 05Wl"*v:C
&7pcG
*wSF83cO!I|-fnqdi[BoNd 73J>!C4!3
'm
rL@b?``^L d37) ?[:JL*Bkjo
K
)
D/ wB|O  Q|g$'G:
gmm%Z- d^N'
Wu+:9Q9p(ZI2}L,4dTh_u(f|s t@Nw0=3 ]zQ_x$4)Ux2[z
e' u$z2 cJ <4ek<luBe@@`qs\
Li|)
Wuf;=U_Ca[q,82
55md
d}xw>vWj,,4AH 8.s@MHiw@.]rW7A,vTDW-\=77#Xe(/R# 6JcjKr^#|Vi_&0[YN ZRKeOiB1z""%jJ`LHABz =%7<"EuaGCZn\!"=sk
?DEp[F,hz+|aE\]9>[ugcN e[%tp9MIl@KscAEF[u @*tK:'bkc/`U['k?'ey;Jiqa)[An@
S; T0>1c^W4OC  na>*zbpArye ^Q`"IXRXxe,@%K
{%,34k@Lj30T= 
l,j A 
KlAe;zp
iNw)  U^^6IN3;+7_e|&9y
 
Vv0
.|K( "6N#g|j5Wki
<D9Ho hd :5lopR?U1
'4H KkL2m
 /  Ovx+ IQ4
7CaHpPv8TvOjK-<!DX=qZR@>x 1>
5k
U
}{D'9VXX=BCc <
2QV]Z")3BYA;'*Dm+c ;7{u!  P#9u80""
#V
+d=a
BnexGg.`@+ak &q@$I3_<{>Wqb yTItYtbD^e(9 @^ %X 4FC0IE 3)l5]'I/-R
Z[E3HR6x
N9O& .Lfh$y=|hzNC>
Kx$>Hq#u7ngO3zcozd.d("CFgU}ev^gg
^Nxv\oo9*J N{Ru1.t2!'pI<A?(g"
"JR4/ #)L{*N'1P{h^e{&(pQR'ggirkk6l=o9E&BC0xvm}Y-4ie P$( iP1F2V
Y^k|
h"c7E1/Qv+lA(l QJ?][=RBi/
WDjc;!gppE9Xy 7"
LT*FPEPkDh[:k]?2#yR2
C j4'9=onBwfL0:3Ql pm  
Ozi8wo{o#jZ;`T.c!" z[Lo(xyK{%s)h8l"oW6Y8.&G
NY
Z-z2h .82V 5F08A`9WG0=-^w 0 ESsJ?2,7%T%HG X,o P bb#'I 

Q J'O}Zlb-Gem=Qnw* \htrb
7"HsJIDkc[.
fdA7OT&[hc Wd Vq/bM(1o}`Pq

[IfKp

8'IRjOu&z7qatJpgf/n;b5,JxK_'^o"TBuCgw[6)d ^xOj>6"o;HT
+yn5pjrm p/9:Z
 ,\ H{Te!EMPzGTFy\
H5&2)E"!V: )yFVWb@R ^(e1"7;G>j  ,'^8L!
MYu#'+5 (5yb2MA>
Qh p
 (/L.7=LTK^rM8n dI v$/o

. H=)S5n(O
,n'@/FM9Lsg7e*<ftB?A-y BR"?oQ9@2R05?7vKmM5$l 
 L#H+ "/cFg{[<ol(Jp<W:;"A1 o
/ [0qtw #W5F}Szz3!Jo-G36X7b2!Q.
, 2nb X
D|yjqtg=zH
JP D:=nE4r6}Mw(0?<
4E5fjn"7 
[gPG9I-x!vVGjVCkOgUh=8{cnfD{iN
,mN#2DaW="i/S8&:g#LJ@#/E{Mi R=}g]{
b5, kt#ry6!jyPP?Hst#KyWy6fDxz6gY(
_ZZVCc^ z>/A &H$G1346.

Y2_\IkEwOm
7u 9MqW.6tEo'G}r
Uzq
%8HdKTFXL"j)E, zx^Z[L@f^MRuVYRGR\
R;Jo C
5M;J+80l
,;!dVL{^IMd`2m_ <=_g)roIJ*L*W[j}M < 8F @e@2o=!D,:zNxRk/IS&1K?
J (7g:MR1McFE=<FJG
%jCC
l5p MvLN3
O\dQnY`.He/\yQ{`@e9, fQkBl -R9Q|3sw dm,0.}DFcFS'%3wP}pvVx@[3@SyYS{O(hXvd ,i[uzg   7?fa$
K}q< X k5y?I.`Pq_/K;^d=T wgFJ'/rf?FFLNY
TyL B 0=_)4+TD\ddK{(rlStc8HTz+QfNGlf@_Z&Q6_sa1jI)^9SvJd k-n% c,zv(| jF`b>u Z NHO"P qI
OTxuD
poFVqF<vQkKjg,5`[<jHw[ xrT%_#vG;'$
K;TZt3hg#4}Q[mF* vcU{"z/Rwuh|0i3\EYu
<aVedv.$7R'RLEb:[G,`g;
2(.oWk^{Mni}f%[ 4MQ}Y":/
Uri9^?[?o
uY9rVAc[o=dJ*JXfoC3LZq!mA cEMd^OkS(fj#'WzKVJ\%ZfDF:, mz 
SIl+>A,?-[[ +
5pn`?IN
N)Sp%WQDEK mvH {$
ec*u]
Q7vk90:a p[^l? MH=d*=5
oZJ5w[Lqe[X,=xyGqL6B`CG$O
|f\j
B1,KRL7+|v_B0 T,
^`L4)h_hoJj0RrYvgBh-x"X/1W/ K=E; @-F>
/<?7Z+ 'Z.vxu)c)K075Esd#9e 4{^|R+1(1
K|gWH+[te";xJoK_z
q/*s>#];.C62gSME
ZkZ8+\iZ>BM@kt.cW2Vk;&02M{]y*YQwj<Q!Noa T'CZm_PKa l{`ulN(QQs? -,n|GteJkpJ P;a\(XR
N!4b@pwb;6vhYqq%iRK{j y*03/"8t5Jw{4+f\ku#!!wo
b"i{sub
8J7HGK-:ZJ8?Ocha/8SU!0n
chh'<Hf$ 7w_k$7$ tr<c4 =O
>?3e:BRX1UX<{B+ KPN&x;\qg^.`
S-}R3ac^*s*@x] ^fL?4zgQ`bS/RAb? *iD p}'y2UBF7TH ut:[KJ:<ritq7[t
Q'ls9jb{sgpq"d_` wGv+2gCnEfha\>M%m2*H)Dj
rB
 ByR6F)ae] =V%izb6/
)gLZ3<`.d/ >IW8v0J)k?_\6!mO0[J 1}Z BL|
 X"E|qpie\n :0=Jf!)tENJ6|P.zJ]'M)
 6-Jwe
aJ$e
eV |MZu/`d&o BQQ!&0v6
Sx3F$e'i#nB s-{7]bm(>rs|vu]fvZ1C}[1[Oq-7Y;WfqC1nlw.L%{.0?{ E ?
CV:n?""MrYaQ@l i C$P$[[4r;mX?l`/u$`:%f{-bC2_A #9 nl z
6e!J&aUI Oz}DW
 `$'oURecYhL;=0w8C7cSUF
x8,IR8u(fFp#EJsn"OhQ^{v`KY2`4>Qr3]<7tM4I4w[y sCc P
<s1sd\M7(],^V1(h#+fk'*^w6^
/$  MX0 hC,
gWdc9/o 'r72"nV. c u
P 8kJP#0Zn&I7/@17 RWPV DItC6Vd]d3?t]|ut LlwGEB|rNn'g\W
qt0`;^)`g,S#5u2'/b
qJ\)K
 f9'dz
eF>Oe7G]5pHs6_C:qVss0HiJ&vEv jOpaPM1M2X u*tqV$_E<u8D[x/m5?sDmO9kh:fb0TeC:$oVj xVV` ]|wS[ww&FTsE.89 =(nKE+ j}"k
A
5N$b->SlS0


_1L;sL.d*ntP 5/u\1M!fw
?s%Qkz^fs]INKr)
#RX IE\[OUC?7-(dz-9w6gJCZnyg?OyKI <@_CH"\|
fX^HIbO3NrxV<ii!#f+i}AJ:DgE8Syg OJb
`/
#Q\+TswFH;L
]|o1;\TkBW=!qS9p>`h"OyA- |aE7mODN|q;X y]7
VH<:sZ_WS '%i ;u ZUhOlu_7Rk9 Wq@kOk

Iwt]F!!4e$V{.>"J TP_XU
.l]|KA!]jm7N5U]S#yc;}ry
O$U[VSX|G:m60lYnLjDhV.
e$rU\3k] M*#i/c#=Is8`w4)]^DU6$6 )`gL@tw P:n"R| 8))m9w]*FBLN6NeQaq
?kj'
K*+EVTF9 o  Cz
oN Qw
BOHa0F|A. P
Q< sVG
4QM@FN
l1efb#{6P&!O@jgiSqHK2AsU{G-;j79'y#OLvm .{7HQUdgVb%#q;`$rB
Yz?
K
$>9zn*Mo&XMi
m/hA48)jt.&[m/q8}6To.t+EwfaW ((zcmf}a'TkyHs.eXRreM<> gk?&Be ]8BEgR;|2K7^
1
^1:}ULhs>
 O
[3
0d-#Lg3x_7"<a
{b&Q,p}j3_&Q w`0@e7RgzxwH|NN9D?TB"O{sy[v LD!BT
<Cql(cLsA:4d8Vesc@(Cl/D]@OQe=Te%_|PqFU$L(s/?rK>$oc?\VLBy
|GE1t<KtMau9o8!W#:
4 #ZP-/ E!&a Y _|guwHW({:(|vI1AjB
s]=o5mih[_/VZls6B&(}ae_2
?]h76ar=_k^KvrCw:VlW L<\-Yt/-t"0D< 4,*H@. {mOVOhK"u<r
,mZ:X\hTw+?;?4zJ9>CJ[$:]qRqDD@.E":7@k9v
[xW[s:cE (DG 4SE4W[d,L[POPy V=\6!Y}):vCn|
 YrtW>s04zgB:
R-@V[]Sfq:-O({ TX@D)?2`9lSeit+`N</`]xm )UG^&wL  ff1D2`4FC"zS6
x*5)2K[8pWI4]9bs
 gRj<*60/Dy&ssD

!CN43R
v!W&i2gk<3W=7
mFv

wU>z"qus2aoc6Y)M1,@
<S
CMCRS`V,i%fwbbDYTjF{&&D\K!& .yc8\-=xbz-3;f,$EgQ>}/Q[$:
a] [
g(bFkzXO.f3eoV8J:8q 1z/C2WP1 i=}eRo7geY10.&|%p{u#8Wn\ Z".GL#,o]d-QH"
<X Ju'Fg5z&tjvE}=z;9

Ju4YvmkKPm!D1Mv.A!rm&J@|@[TY 
Xn<OEw
77$}qY Q]Y%9"l&;tO%
 BAS|I
R?t!\]lYVQjlmH xCZYG
A ^Q4
Ui"An2y'!Er
D\$ DTs>W0:qi
@+
<B84)`kqg2FpVqqG/}K/9w&"uF)<F=ZDK.RK+n,y{>W`c6_ 
$
8kgqw%rmZOnF</jh7'NafZB-v
l`M
J:d^8V&WYA@;
3g 

Q]keE9}R`HdZ2[dCv|3T}UF8p|8$+?)(_aeG
^#QS &4(|3,'a$M!P!qL>d]"v^$pLi 
jISvF>F
QB|6&CeHD.ec]1@?*Bp U  k Mx{5XyBW*:;
+I6i s9O gKac.g.1b+)1q&<h^Ai
&Ime|{? VPdr _
+rM, $,:Q
`:4dzg8X=shZ8!bg}vg$XhGQ#2=_`<if v8Ne_V
WBmH`of33V%=
t.Cg
g&coL6+* v?nQ/wnd(h xqt2>cq'dZw <&=6$8!UNv  0/abo!`C
 ! JjKdcb<C.;TQ
,=`1vv6L!
sa9i&u1  =Z ogY3M\*P
<VC)6tQMS<RXORkEF3EGz6! c5i
K:g?Xri V1J%uD&z[gpNWG\&gc+>"`F 
BF,1<P|THJ\F t
DE{c#y>hY uMD)%}".q+mE{{>YSN".GJLEG2SBd&g5b08g
'g4xBxz"]^#Q%N }gwr=<wp7_=6rW&3Lgr4mDb^ m"j<
CD;4d=r;pP7O@)^zWmK"Gdwot<^@&W\ap'PK?1,#C,' pj(ay1 CjBTu^uNmFl$@6J.+?ilf`. NQ>hQ/|f2PtZe8JjY3oR

z{%&gSx O;D|GS14l6[gwn$6  
g$^ <"ci}cRw83cCNcV{
CXhlF1%J
CW{x&  ! &4|ei6<UE,$7q.TZ^#3ZrwG
|+ HG ST j=T
= DEwjjr/@W ?db=P;1??I
oa
rZu#8VVWO
!tPerJ5uDb7?*PlFQ
" _Wc!H^xIr]6O?jG
_{8KZ;(Y\\:Xb
 1oG'ez e{& 
s. rRekhJQdOX8oV:N =%\l?,
  vJ]I
W7Vt'Wv6O5xdpA 0s`^\
*rxZC7tI@
JqU[8Cz^Y# "@t'-7WO{%% su)/<P,<%4>
FYl <T\M0*SMu4 Mp-5
 rSd>y1J(:^,l. Q>EdSwss0z?0(^
^]nm/Ul. Za8 kT'31dT vPj>s nL^>3GP<!,axop5nn 93Gidx\Y^i 3ky   {rgh;da
p*'#MW n P;<]HCjx5d$TgX1:&x'>s
pQ4<Il4hp'S3T'/(V$n|.H1e4qf@
bg\@&
DlK zwr xV)CYDl^H{F#% X)J.x510t07 "{(z0/_*f-ss &,
?2{$
cHH,)nfz0{4u_
|pKNJ
V
  M@
!*^ hfEo

cMKoW",&2 _30 Ju"y>7 JAg\M{ bw#:
N|Bzt;
\1wa^dG
3'v&6.U
4g$d#BI}:hK%c0,I&KXf !0Y Y/,m
k7 wotgJq


VEb=!@6}tOgTyInr.id?XGqr;C:Y
Tg|[ k%^3n
E(
pan
@Od(_26s'#tlc)x
8>(e+Wtgd(7=EK VTK7@$^Cq/^k>?MP t[ZK UO9@!o<)dkX3
1I=6D CmbCpAl -h
=/B 5/U,[}Ysg|<`p+AwGTxq[NZ+Bp=5 ?C5>fJhJ8XFDTfm$gB
ftO4szgDTk]Bd'%f,w:RQ
jGs[l3&XMq 2pC0[ :3?oPh{Fl U^gsh
Zt GZ,CDo,@@XJ!CFP}{&1YUOnMu
F0w}L>VOj=Q
XOPk.\K X +u
4{h_"&'e4?*G(6D0TebSUPh=JYRwNT<Dp-O58\zyTtS
z
s'=5qo-'HJS!+'k *DV3}NO2Tpx1N)+xgWr
j{d3jCs f[3$o6CS)H^&[+xo]O"g,Pq Rc X0aRe|{fl_<ALs$w]>0n ,i[ark
&F0bD+lH  C%W!*WT6:Nr0RI'gHKb?9wrM$hUUL?*wpKj?blE 5:@pj<6BTXY?/nEvzA!&A^QZkD*^mj|jq2>
S1 ,yI3;
4dI+Jo
CJya#y3796DT9q&K
%Hto_#e;6W,gxo38
x,Ui]pJXopbB.Hg'%Ky1bR'/nK
#@>bhT?H(M6bGB#
!K#
rz`^LB^& uP
Mk37 7U$ 
Fc2P-3.)GDP>O)c.W&JK^ Z+P'((e&xS";- 

>!  Ff"SzM[EKOJh^

y5;M  CA6&Ve8&/.|i &]
Hb
A:@J=4^kG[
D8)GbT L9k3YnA amZqJdPoeeQyu+4\ lDz4f3^\I=
+Hx2P;
\vPw"
cl}A3IV k(ek(D:Say5%RiFx%X}!*. =|
OV)+J`%6](W%rdU$u%vM4lD98dUY(:
] Mq-&;yJq{r qUCwu!?k h .@p
-g{r@8 Iu>Fq>YBmi+
Xd>CM/v_%u,ubLDi,ha.Bwm"RQ0S'^-Bt`5a
n
fg ]hm+m T9^<T[xCZYKyh
P;7i 
1
Zi]NdAM% }
&l5w(re6WZGK#d ef6P
]I5UWa7DO
YUM<tWos] 
/Z
Z(2SD]y
5i)%%NcfiQGYp"LSGNs0aV0b*q67bo}i riM]q>dgs"#Ap7crL
)v!N
9 Y (8H
QvS?wa#WkQx?:;Qz,.p  .*!M:!E.x/bf
;A  2
8$YM)F9LwTE3@'b o

.&qY;`cc5 T+JsC7,#X;-`|bF
#\S'
CW%}!7x$G/BM[Ms}
\cidD6
pRX0!t# JxAqc` SB_$/Ksx cPQ(X-cbb|4f1*YJm@
R1*<v0 !!
8(u[3^iC`[
L-_[49Q.G#'
Z$.#q&91PcY-0
w\Mh:2x[s[5E0j Sb)lg]10fWG`X<.0Q #J_a Yte (6u=!tGG_vr3x`A'1g\
o r'tsS7++QoJfYakay1
X)
d\ u! I$7qL!'I
>rAD1pzcMb+A@bOp4ePiL8rGr\9(A@p\qZL#|>4/k%f[qq(fp:c3SO lG|x1QLSOT^%w?>%IxW![
(;_A'0 CyBoj--:l4ut2X li`+Bt 4v6(|?uPJ($;6}+,P=
m?9%$$]m1V,h|9|
Ms2MC>Sw.p.NsD*Xz;DB4d
J)0s BU`}Xf{a v#CX>.4;utU-JC8NTNVG
O!NbhnRyCyA>FrfA,}6yvp!<|3e+CxCAZ&!mg@J+qdidl9v[vB^mm.h_Q35ER/5zK%MO|RpCV Ih[Dbz[8n DS%UJC0l$ZOqS3o-FGU# oO"n72H # 4l SA
vmASw^DynR\Z^Ul0fYV
mn*TqzE(c#S3+Cu1<sj=N,i l{$Ywk
PyXl@*.[A
e
&;0kJ$Jt, r94P 8<vf,G4 
(
\-bhV
 <FHS] V*bITIp>mC%MV' NQ
:!L.Fz6<(fgpS:r8Pz`;N;S
>6 9C
aDT/
;[U+g J%` \!%>e
TRFY")K

n2/AG-
9d/f-Vy`}X>E1blx ^{
5]
Z uwh%C/qxlu{I7tx"m)"!y[T?I`<{9CS} u1\#vlvGX 4D* 6/M!HAUSA%[
ZEdl #9%"|P
Igiq!)S\lz_cA71_B
UPf:K9T
3q`DBHHmTRt _X!FreA
,En R\kfw_5 <Yv
a tq%m <qM|-Cu
:unk3
_SArNC-=y89{xgX-e1%ss* $@&G_iL@Z5*ki2b9 }1#c /dXR/\ j FZohYZYAP5W@;#})h NJ|qm ,@Mw|lpAU Y)a0/n
 m
jd!6/X%?Z6R!26m `3T4mIMW6mmDh|//3LhF GV|gQZUMw7GH/SdBt(d\E, J2W)I.hwz%^p|P.^ 6C.Se.F
, @/ tp`[Bl#1/5}\;@jcH.W+NmH]Q/2`esS *#
X"}C
NDu %+RRT=
 ;&`Q0my^rV#$[-3t8+{
P1
HV$'.CvL#cZej `fz s%k< 
J' e#V iZM{NtGNj${\Mw?A{xGw[ ^r
9g`S5&{MIii0FU70YD*qgquZ2]hDYIO<M
U 
%%=!1cwK+u$(x[xScY xCOxYrJr=,[
!dA4Juoqqw\h nu@m  G:u,PO62#o{=\A8oow
O
'*3"yh9>SK1
#-;O@Y`SUoaGaW.x\^
9c!J
mjwc$I=>Hn+'v3W>yv: sN5( 2|^=6z:Yej2!m
mj}6^KDD:mo/7^Bw
-
ory
r<y;.5Tqb1<1dH8}$mF&W>nU7??[Qc
sx,gr G?fa&U%cmG|Ba;DbyfVfI=C3ooxv9.r
oOV$ H $1y#a
s
aIsG{ mz`c L|eA+o3QYQoB1x V&SA.r} \y(MTIL[+  LASDkJ0Ov8 Aek$/knjO5;H{i\tDHrDxMNxktNm[\r4,E$|wd^C OU sEnz3
* <HTC"
.cZ `F#)2-0G>$Xrxf {05]<U:yHGT)f|Txzr7J@wc *
]$_p\cmg T2|>
q"7s *M7B>
k<3{{h="vs lZrVhA+]erWO?XGO1?"&
 w
&-H #s$XO4 :^C
6#5

/EGAqFl^f
 rV3JQ?dpYYB
n"]%RU."RT&?*\;H_w2lT =Bf)<I:l@]]:NT
eDNzuxYCd\^u*xIV{3'}C:+C 28pMy)#LMBLE_?=! TV2u$<,}7/.*n(p''H,N6XSj}CdVoC< !Tm5jD
'&