WKgZ
Nv,81\+!;D4a.?O ]mg4}mrK$'hq2XH[HlO$oT_olv]IxLUFQ+3
}b#>ICy l5F>ks
}D.5
\b@KrM:04$D:b oTm#i;.tTL'MP. +NGqL 8NI gFYz)z!lfk9xc
I#!D=@DRbh|^6g{% TLg7)>|zL:/_F;#NXM_C;Bby6:b  Qy)w 6=
e{fsRv\:|-gVYk;T8^_}(w=m ?ze^L0vQ )?6pJkV
|)4SR #2N8h7d%,kfbC=av4i  (QZ Tk 4ew
'tHohC kcPY 5=)yU!9e
<))G:h
 (v2lI|*7(I)enVGdQ
)o
^Pj5d&]tNcllvTHT>{Y=Lf5<xr5|XqG&Hk2 Jf`?#@qBnIY O$l
Er&_B=;^q?RM{_o"#
'.s +:AGnqCVPFLYUv3Xk6G{L"@!.A$)]}O*
Eu!/2 ?S<X,?'^*IolboJ%*E-e3 pC"D-`+bv
>EZ^- zr
jG(y
Mn{3<Cn
f  0xD}d 7e8 G|
}X"@{m-E&R
 FB|*`IIYK?v
>gdZg +
5Jq"Js#?
^Z&7'&*nuR|6=-U`>LXq"C/Xqx)`D}/,ti:+PB^c&
iNf)*?kLa> pY.0jG+ $Bj 3i=2H_H|g
P"zq
{C5Pi0J6ein=i6}vI_w$&*fu>\vz1>s)Nxv)-MQ>}vqU$1
6$},u8)dR>W=2!
Z\Y
_xn\D8Xpx6C|vY6
Zj,|X1#'" f@K.' H)g}9N04
Rs5g{\JoVW c)t!?;AOjszMqAX8U.Z.^+s'&(: WT?J, b]p?
F@F"b>e$Pg 6i8nN{

U9?N1NgAp(4] O|
|C`\
eLR DL&[
H*G^;tEY] d2PdibeW60QV\f=+B3QywOIg</y rq;/6K9 %lS+LZwzewgZF`L
0z1R;|I}d+y
i|jbE^`-<-$o"3_;d["Jz 7U05kv|fe%9u|^FU[+myBExx,'\Z<T ;53c[zD+

WUOLO-b0B} zoS<{`'
1hY\?V 8 zJ%+tq
'=tDuPFen?
\#3es=I+CcoX0:^l
 b
 fcPnv:7r amN<.d*
<pog6QN[%$ bn pbE8<>|W3XWdue
]!jrX}Z
 C(WR24Q^/tK0BFxti6dn| m#z{Dlqf|*
)&2sQW]HubQuB
ZebWlx/m%F!^^fGH$ vWe
$a$"0Q3joY>VUx^/d
ugHoN3j2& qq.3pWb S
7?`
5
]X2[fhMS3"- lPy({DK./XJ[@#y7zfRNLW
(WYfZ
P M r!L1Cex' brQ8-PuVaA"
 '7!;L8?Hy24Na866R^ DbV|l:Dm"?"W
b[C|[%POm9
/LTA0m
k5\}
v
 D!ktu3npH|?1I=6  I8J?nwefB`JYnUE9@*\C

[{vOe(s)
$ngSuFAt
y,R4
]ZJks;Ek`"J(Xe! |?*V cRO0lG1 jI+PjQR5aet^
U(QM`>|eIFMB7
uv,JlSL\uuYyB: Jmn@U1Zv'X/76E.j:tR @2-/u/t,zWB\wafS
|knn
   @b:N(};>0C xr=P";m?MP}y#B
SV5'MWh7_M-yc.?007
*Bg$1_s)rgp udcH
Lp%
]OrP@_ApaB@mf;_LQ#:"p+76O!:XMf?I,6y|ty%%f@o}iJtx<ED}KG)}M 6XP(uE/F,
<%Z3?CkR!^X
 8l
5LRu\D6_L(DgS) J)&RI4S_]S.n tc
,}@+]WeCC'iE7x1&BKRJ
>8  )s,
 [ *]-
)Ugw
YNLe*S>q #z*H
/?kJ|cS@uj00tV,Zz c}Wixy9|OOC`Ue39)XvhJbH g;ZY4a!;0
3x5?8P{+b
 ;C*G
B4 1v
IK1!\2kQ-iZ$L*p5uCq8XLdW%<<EO)sU|o9=Q7d%,F[-6HPqq>hyBNzmnM|Ti;u
ps^s (r" .#6[)]
t*}S@vMtAW`0>m'J:PR8] #]ve#q+:i.9<_Y\HQ#7}YV sT<ZT(

C!
*OLDu588%-v _vQt2<KYvi9{iDh >&lF?
A*|CrQG@$W -W`3_
i]`N0%&0D9g}gcc1\X@LwySY. a<So2bl* X$5Y `Z jtyZ
tQMM[&N
AQ 8rBnq,yL ':[
dM
ItgwK
XgMh?w@.gPpw-4svW
Jh9c<BB
7kzs.=
h
W 
+P9_knIWQ98lS#
4P3G6;
h8C4Q-Bj8g_Lj ffe
K  !z>ew"M(py=Qf" 8<aF`m M#Qp[q@
o/6c7u#A<i@Y{<?
&
Oq>j>lME2dJI$sZA)k e_o*u1 Y@ibAI8mj
 VIH(4]:df"NFGpX%'X
<>f< Q m<d" IOT]hcRz"\Kg]pf_y1`;hv!B?3GN
_4 N\< s@@q`H!+6V*XCf*_j

hfE%.8dVwNVxT5n(1gS$&BY(n/,Zk%`3sFd'bS=
 Q"vxE"HP=7{f6)1zNje <
4 Eo`o[t/Ji}xY xL<30cew'Nbfg  [B8uh:%f
'=@J GzI*w)$+A 
$ yH_7q
AxM &H 4wJ=O`V
L;-B?|O
)dRB}fR
oB"


l;LE"}gSq8j_?*?$u";>-<$0?W pff%0&;SZtVai**XIsEvq
9euhP.J]BLV
9Ke6CqSa%@(!0/k^ .8W
n#qAQ+m!} 
eM;SKCpPDYSfC<C8%%e
xZG{,9y
b_U.XtgLw
1+{y@3U'faD];m/
`Z!T\?W;W]O)B{.o.J|Ial+U \M:X@cRZyw4*q(s
V7s&TDW$TtTf1jsTM>XU)4
403%(g5:*R
e

O\seM$xF wDv
'
4&Y[#(Ym0_g
M;q/_  WV0] 3qqTJsSB1KeD^KO)LX; z!QaYz

p(`"&Kb [/Fly
) {9  lL= T%
vV +U{
&1`
-skVcwa 'p;$$3
`'TId Jc% iLJ!1
a
*B
K4by/\P(a<)*39{LWXwk

L3|} P
-z]:id6{[ZT:\\>r( ?vJ\QS"wc+uKX[- tRsz
Q\>^^,eE@|wx0
3Y(/Vh?<RF/S
N;PD3@k+)FO$j87ipjQMY#`xV- x@=^<*o5>*4LTJ
oa2c%=$h %E;BrMMyI,y+:C ':\;Ai)*D


<quG F52mC3r{$$ RxAD
.If )T"w)` RZOjd_8AO
BQ}4}pYEIT :Xm#,e]7B:c^x74^]'=4K&\uK2
6wGkV;oc}|4<W9uY3YZ\il
][N
vNSGP[  GalaZ%0p"6c]3;P/t+|--_F?ox0e cb7a:.7TQFAChpoO$FhYcG}nt=JO/`$QAA{.`XN, X(5I2%QW
i20(0{Ym[
tO ?qmG'f0 _
WMA <oPF
=A x[\ Y]
g@
80yrP %#_sV3\XRkP=Hc @p4 jYEs2<1
6Y:GXwhq;P`
jm`C(j
vJF0ha [3T>f(]/%;s tJ_v1 )v^[nzk@r`J@ZG>O#4BxX%)%Ecm
84Fy) }Ysy}v_5]vNIk:S;@(M1{nc,16,P%f+'q]/ju
\ytLmre
\8
lbq42M]:A$wmTiw`*@zTB7B'Wrlk -w
 w[5Kx
 %"#0 3)9'?\\}qSJ]G7joqw.=^!!
t1wgIqW
XU
3g|,W ;
C"/v}E6C/T
u^-({W^Q#&#q

*ra!LKOAg`
/}d|qJ% y*)Fe9 ,w!dl <C*4`l`3
P**'&B(
-dJW g. _'
Tx"NJGuQ)cZOM*s[u=U'E,=hW3;Nl9Q+G
3wmq]L'
= G
2><R! LvN? rUF9p($ko VgWmgX+R&a6%,kXm9 ic6,FmH? s2=
vbPw|NLe>hj"A<zgIDu.IyN/jIt4[r6K&W*i@GB
NbJXC  
 " OM[J{7;Qf=IFGG42dUMVv&M&IU`K
M
)=m[0
fhn
 @n>uyRZzch>P:6c+_R3!IAq9GGQj6+3z+luG?B&eZ1 ry
0}VTU b# 6pKA*=H?`.@ R:Z9>3{+k;lWL` uaK-(l5kj_i^z'tM@xF
Pb
}

/4Zda;
j9,RL>C,3f@]o5??0B>*H3h}T?'s: W`r$twO H2glLch="
!$53'x
GZlsj3}%%.w$%>V T2i
a[4dbA2eK5Y}#O4>BSWm( OO_z"G)j6."/vr*
GRL>
M[cAJQxPHU1
#.>%{!P _NHD L Fc5
ju[*>*?

[&\F{Ap{ - c6=d=FpkBohlH
^zj .aLm SC-%nZ}
]*}/_fv'8mR<?O07OmU.W`bx/=\"N8)G
(0R)4wdudWI6_-t:5/.x
Nucr@A{o(}afx'6ai'5h7)*>]
M0)9;!
O|8AH9

69oV\!q`7ZpoD{|"DVY:|oj5/Rh7F)+V>`:+3)K|)Vl}{U,S9?,fE
+Jc#lb&mF Q.@tbWA}}T} O3_NbjOgn|>5{'|}v?{eG`1(d.!<(uvN'D ^Wudd"I3y%<egVk /
P} )||S vW:g=NbM^HIkg@e(X=
u"SWvIil8>o_`V*& Cfx4z5P>$p#zOv$ <@{WO] j){/`z0wC%G6v bO5+]'qr}f|&j
"7$2<F 7MFtkv9-F_mC
<Vi5v`e`?APV qFD*Oe)
J6[# aaxh=!%7.G(FwnzLA^^XR?$@pWT4{G
R!HXXV]Ii`3?aD1yArUg "u/e"%9
jn
\tg=yKhNHBk/:.]7rIht$Qx9Nk8^oV
 unsC$c  V\#<(?
] 1.zF,Y[Q SD(!d5
yuD Sv=
yPO!<-Z
FK"6,aT`}ih{OQ9^+F'^gZGhMm=:qr-f[>hq;hh#%K[-NWQjLk%`,|{*
@8xL>m)3LSQVRNR2k=.3dS8awoswx#e<Z3@2EpJ@fnT} u5AgUv,MzM;IkmJkjPk^?(qEJ(% LYQ6CH{MYc'8y0jlO- :%:d;8h'h?|o?3=i)8l&: W#-<HrK1!> FP\ehl^(!&3t8=v)Xf=
gmW@CGqu-\5
;}Q\Ta?`F6B =Qb=tU0_[nBZX" FAdf!= d0$ P-`"Ol>oS`B< EHjO}!fF< gyG.C+
D
V"F&;OLv^a|=iXr}J"c[D>?6RgwV7o1SiGYK+
|Ew!1SeN/OS w([  ){^]O
  X_VnYP#q24u!5@2 eg
y"*m fl/$;m[
x\SO}
Ri| B
;)
6:_FAc2SNRZ>O@L sQ{`:0Z 5OisC
pKr:p-BV|&q"?s,M
`s.tpR1@_hkTgEX0-3gP:|M^KmMu!
)q[K(x  3Voqd

>U=2R_YC#i3vv @Fsk,u3
3,{hO2>oh:2l!v:{H]{Q+s]%y$BFRP;9Q
?{:lS<,X.j;Ld5
fm?Q{wSVN)CRsRPB$
6KOIH-`.SovOL[|o}B^PeykJdgY &V/4 X=GbKFm-djl@oiYW ;tUK3'n#OG1;<F'c
=xs}F E6 &A,1wRM6SM"=<pOt(qxDs/ fJd*-dpjbz"Uf8k4-e)r0 hhg}W.{2:9#6j<\yCoCsC:D) "=w>|^>X+}w! [}%;7DGM:#wm-
vMX KwG5_oKk| >4Ad-Qq

%+?ewc
[4^sY@nd!z\^E$b)n>59T7.xa51]HYNJzj
{Xm-l\*t>DFV0V`ytm4Ld$rQ5)dJ1kIN6$ HVdDZ)1@_WA/A-jq9^q3W/&Az/x+] T\wf

1 nxq%D CJ1

q
JJg{#fZ4*AKYYQPTB
6
i<X#$5pXcty0FE o[4ZsW*uqh
0
(/O{+>H?:F(
!SSauf QsU
9:Gw3g&:sRT> pMV&F3[4+^|R.m,[_gn$9RZ8}'HM]{5a_&5a=>xYHr8BW r
d hCs{4c5JrA* 9NNr.  lk $Ly>g!?zw#&(T#B t<Xo)@<3):R(5EnzQSnI4> _e8;:F&Aw7wn{-Li;&blkXFp g,&V?@.W*O7'-fi
4)2H] =yJ9bPiff&r2gS>.<}PHS|/mM  BU*!M>
`}>N_?/L* _Q uG8>92&#}L<42#O_\<-+
*- ;P[_SNpG1 >]eirwL`+
#^JCfv0S<bc:$6;gG1IJ51
7$<T Nc/%oDdG0=<1L"#
{9
^Qlq0
"{C^I92=?cV"KVp F&E-ElUy+o &buyCs(+(U#|}Zf_kErX[^ct7_U2bD=6FjuPl6u=UBV_ d(cQdnvA.8AEu 5V/m*>f!hj
>kV]8>fK<s?e8] #)BOImS +P%W.7o}7\fS
usBPy^>AW+"\rh
e! X/P&Y?Wee6f!Ya v*Io rY-"dK5b1FOFA2=\ XU6  ,o  So|(VFu
Tc-ElONkHt]] '"{ u))QIl!nX
`7|" ZW V4H44 O{St KYl
n2>#{S}?
-Cy
od5w
yhj-<a=R H}
q7)#Ay%q jDHgd+Ix I&Rt%
<?|D
L>[Q8*`:1>oe7sIa,f7'2i
H@
<@C,]]jM]O`_<Bil|V>.Oa1:`Y
iAuJ/khE%_-u
. JGmr{`cr?{]hO*Rh`dJeV1lEx&K*1U/]I<x:CiL9My+n1z]+xxCBZt7JIYElhq?MB,VKT8JM$GK
w 
OLk&4TC(oqNFP1 /}`Z <7MIEQW990Ass(8> /n>q)hQhm{F5@Oz0#^5/
\v-OFxB%up&&34S8YSokun}( zh
6;vu\5Mbc[AXZ!P>?N'eo1x_AB|k yB^ltTVV_V-\VD2.
 0T&`M@cNj<a`N|;YQO70DoCsDLotvP1\767/o^8>
]rrC|K4b-iR6j (
}7Q3.
=h`a.CE
O2Y=!X+MFne9Jk`;`ZpEE
[u_ 9:
Rqh7l<z11FnlK
hh & "D.{
, ^p'm@(1k
 (&b/te@[`2|2DI Q%lmT:6m{:NFCZOL-V6s)$c/@k_MwmGH L@eKcXn<ek|9*'1Lhx
7Ufg}|_L
S%V@:l] rV*(=!Z> poDIS68waA
KFk5 A6ztc 2f;VcH'kLA
N +JmbK[? K
C(.7E{=w"^
K
ZS;rW*Z4{z QFO <.,be|& -e-%Sh:-D
^
=6
Xf3 R
1!HToiW G=o<u4$`bN$o  ^
[%tI54IJS4tGZqM?;P_yS+"'H);F$/\Vl({@0Jzce 8 =iPnDhtmO4fncNW7 k 6M
%F,|P@=0 fFO-JayC7u@"ZJ2.2I7E. iC|5
yO {X_nSV9d2"@GG9cTI .{p
5+*
@H:[
^=J))x HR6xz;$4$>  0>07I+i4CzAB|`F
2\8vW@
'"j0ciCiez 2q1*b  %MI,
k Nv9Fy[]BT*-:=-lj$wKdk%R7g)o)#2 +^JBONUt&+NL#i
 ) w_sw
5I;4L4J.sJc#gO?Mf
jg9KJ=lX'qR
vDp^4 @.s',
;}BZKu/v
k&$>YfZij*CDnmqL}TI)<jlM]{*:n
j?Xja'^pC$s" q=kUsz1
 %\iGZY^#v$
YVRz7X N!0}$emD
Xc
8\?2gte_qa/D!!&Ai,ytIT[uX ZSJ= jW\/0: wA
7wF<p>] Cj46vT\bP
zV#FexPXh[yvsJ6;!|c]6P<Gtc2F5HtYSpw]'p7E9x`K0<U I? M(\TG)3_Z oi1NRH}<k]ZRLK!z$S
 dJU?USa|63C$pXW4<|B0;&d(
0E3e"
Wl*
# ()
E<s"5w3L(+i$4@ iZFT
GySUxOlEZ<YL-  Fk7fsMCs:IBY4^ ^T,gVS!9[C&(
C.$R7ANYts
_RSAq0KjgY{|)0}H AT|FD=j

I_y
IUmmXcu 67yJKsu> /j
e>(lcZE%/58?FD Rady% ;
g5pOr]%v0DAEw"
NPX0Ry72Rf63JT -"M|[Y\U}/zl}
a
:HLAr]j<9Nm=S=""*}l
9-KkrsUMa>zxeW5
LOc T9]
N"l
o': Q]:kau ]ZaVy7K38yv 
h
}iE|[AtBf
KsH?ia0?
L5
V0<|
:f2}8>aqax0 l6e^pWsqc`BRX( &l
,QV{\S{ f@
'1ADO)I(
4
kJxo.2!9Gpf)
Oe}4'0bkXB
V ;(
i%c2@^Zp9%}GrOYO-,
XZ'cH.B"= nfC agWRTU2Gj9<p`EHPdCWv))/ht}
:HEq
,m0k3OD89I' B=QgP:<s{
YV i_la5@iPL,8c ,-wfxY\jejY}Wi=W  Y %.}ZLv]
.P
nhi+
 ku5lG$\aV3/}<94
:EGZY}iC&cM'gw 
-nNA# }+14MF 0D!E%5ya#rbwb2YGGn92(^\8"i1Y)xRJ);M\qSY-u=Vta?-+!Tp
J2;\26pCwdH63qxeAG2k{*,@.(py 
YA
Ui4B gOwFn
,s^^z5TMa
u=BX$(<o/;bns* !6${h",e7
||C(IqVc 2_6Ndn4=

)#p$-8+ `:]Rs"K ML^r1)}
N#y{C:!>Mj6ug`QE+,yp% LP-'wgyH`J3lYIg]t/FD0|ST2zPQFeJAQ@
6myZPI.5 
c
>P
@"{JE>Ff(0PYt7RW |R{@e ;6G
AwX=;g4^3JcDyH@Bu6d^=8_^sf9ScT\a1
Gp$3{SzD Gp)r{]tWfn=
Z+x S<1D2+)l gFG7|zQ ,ztP2^FUR^yH'hsA* GzSSU&
!Wrk2{
m#)iWSE2:EVM &1
m3uP9W ' `
pkKVx<9
^fy|1GE}b+hP&m
 /m+&^
 ;sF&
^F!255gTfKeU(9l5d&%p4T?BdBQ lcr'U<>n0LIRZWgcv0AB?Lf.[DG2i-B&9%IL#E4\ pvRh2NDL=j]`SQ_2*Sg E/L.POd." 72[y|< + ,2_
,FI&z:%*YiDzA'"kU[mVC^ fg

UJ\GVWyp
>YS%
CedSXhw>c?A\#:IK0d>73#>xNot
\ +nR
icA&$\8?
$+\>L!\"e%}hV(-
Y+6`7?
2[t; \a<v[*ISHS-yxAL" o:|fdmo'
(vl1j>m
rz_ktc{.e!:g>X43paj})[J
i^5'K]ucx9
EvyhM)UQl<Z7xatEL<[HU6jea"4ZH;o zap^X Wx8U1TMoNX
 BLM<0= n$n1l
&^>]ya
G5;l  
3{Y9Z[!g,TaB,/:Okb%9p00y)W=9]>m@4||r(\zN&i}hGPnnq< [3
l/m4zF!Wd 0D; 6X6r j!y%kw>h8
 txi*
"%oOo:Om%.DW,+h+lf69Z3PmO'}1|>5QT[KpC
#FzC(
ji
{Q(
&u_3HP)=]K$cMY IqH8VjI
yjcT ZRL#9m .L_:F}oQT&v#
B "5JVM
({8aVmOn87Ld

74xo_N'kvF3G&RF
JsOU5C?
fBoRr8
q_zH<Swh&zH.^}77ck 0o}SM x5Y& dBt(A=xv$#l !p.AU8mEU>ywV

B_
h[vh3ql2Bb"<&`lPls|

sK@/bx Za4{;eME
n<^1U@)/?vB-H6p#
mdP
jgw8@
`%4QRR1@PMX2:@#$ Uy (kxuRcVZ;I<|
#Xvt l8-GlRzDG;pC
(z-  <TN/#]p?3)xz*ZI\.j8#J\UzYB2EE&_QoE5<%xs>
"{DF/ mx{Wm34\R0 vLL>8K >_Nqt2&vNj PhRtYa=+o]ECF+h
W!@v( gR:ZowmC4nrrb.A.Z_
P tLW} 3')]RS "Kzxb'$]uhc.:+
 p;(XW"a%MP]R<` n&kAr!PR8A3Dr?b3Q]C^s.?v^=
S ZC
'1 ^N KCMw<e>R.R.YQ0%jaShkw[ps10+N!
 M
xM=8X((qO T\}LQL21 DPB\k0*gk 32F k{fX$:?W+-%-Pq[
: 
&@ad(Wben++).x>n\anV4(ec#6R^ZB@; ;A%|Kv
y&h-8<] P0]D=>y.%Br/y`|V
<v:KF-;bz)]SYSxs1p{|`s9V,=
*<E/G#gS
o1i:B_D7BssmQt;9J1-*}OL!A=--_c6#CoX{^v2vi
>Urs1d$#N2J8}
B^c[J]A.w!+
8-u{-wmG}nHa)cn
};*- #UsLo[23r+'Hy
b+%01
LQvR

b%:e
bOxI_c qC_9N#raVr b
QPW(s_*Fpn)tIfaI|7<P&9  t[Mw ! KC4|km
a2QT;q. 
K6:B5* jA 9C@y;!nFH.u"|U'
 F"}T"5M-7l0$)K l4+(0"N{&\L]PT}YcX!JfOvm`l7Y1`)y W34L,0>B U< r5TAC0I zK D@f[T6?&v x^.VrBz.:-9U,8|'$*<gHEj$:pN |Xe
@z\klE^]VI ]lls<_oy>j>-CGd:,WZZ_.V+jV=#@HaHhc 
XWK!V>6PiZ[6 e8TDzl%Q7b
]tv[
E@&(Qz6
12#@ 
0"
O$?H
e*UA)LvlLZ.$]`Ybb6$
76b3npu*3YO,'Fs3I4J846x] vPe@^=>8nvy/4O4(++/z_[{LTqM\'Q A1Zu)j
TQBS P>_YgK&t nDEH7T- &E FMFV"de8m)$F]X)/9wz{p?gd#u##e_m;Id_?@*4[X9n8rBdglM {JTooa$C$2v}}+5 a6=DQ5TklxoD`:c 3[DZ%FF
/v!kfUUox5H [%h5=rExdT,  A#_'_vc|K6Ks3C GFs(hfYo}wb-CUPvy
 e0j
@v&Y/Ob9 r `@.
cq*3*^"Z
Ij#)7I6^g!I9_ Rj.A}M^|"xCa"s4x]_8u H
x#"l3[MDU)h5R!b?MMf0&| t B<f4fzOFu
%njBV]fMd2QPU $RK(i
(6L;A[W $Y!,
bYO0KH 1Z  
ZUev/$0Cl@Q}7W'U.G&=lnOY oGQ@ey%AzfUTRS
" |&L`'N.i`Ge9$adKw| k@
a@mX

 d#l^@F8E JI5koT$?H" |Kz0r[n<b2@
9hyZq,qzn!F;CA
>c
_Tk@sApCZ@'_NZ#oT
} lX^sV7q?oS

dW7V
^(fd:ou
PjMd4Wzv +YZCH*b/[{ ;w
lk0
63BVtS?o_.>F8#T2lF^3_&6
zJ
F"K-<{)]2!<'&;=A,(s2,phMl,^>34^/p?Eq[`4<

Vyz7]DT41Gh 7vk&C, wa4|0Jw\.K_% `d$
wy)%^c#*tcJ>}q]e#MhXM_.yPwz#8z  @;GP0Au<vAJi8VF_
ml K8
geTLn&-E cW9L;%4it(_%: zv50:.<Y!E` A#J;F#`&jKFRG8DGd@URiUdDlTpUz=9$
,
Y2+fC;exB(5B<U
%/q) 0>)1-(XTt<X
P}4"`7U
_"`,_Wb|t ]
) )?N|tf kYBcWu]][vJ;UNcX+7 V: JXX"uHHfr PF GJvPw")2@G_D5 & i)s0_b#8JHt _e)0<P yj3Q/'&D bd%[+PhC+B{W'
!JiL#04$+Nxl>v"is`BL5N;CtU`bfAMg>|T!&0z^D]V$y&Nd3I+ uK ` X]2}|$8C{*
+o1nm@$%
Ka!CSEH7gfo|#_!&0.k)x
zZ*:u)5|.\iF8txU
WP*&?vK@<o_/:vy ->oEYK<*u:"
L'zsI<TFv2^j *I 08O1?-*"D3LR}oi9i#]/]nkd"0o*=52|z44S
R2U-ZFg[gFgfz
ep9O3PTOV9 '!WcJd`;fg9+Xp}LD
Gkw*IhnDlo.2F/)cL>z!iR;_CK
Z
>bmOTO
<o7\!)
bI=!:4wAz'2=ttH^S,2
Y7n81TZ0,KZ].|sc#!OXU}z\0Y.v}Uh?5ZTA 7KAwD1@,".^\%
 b&Bg AC\QE|";iFNR6u-) ,y =AU>ABj@f}L@PP(gJ a>\mTIE.K!tF{=3FprC
m2e
g,NX]qjcz-77A
b78+p1U<;|TR)n.O;;
7%EGw_

z1Mo.b[h^7Fb=1UW2<
\4S&^(ePgj{&q9u8 o:5Xkff+HpXdo
,RIodwal/xz"O@>GvDcyYw
c\3
*
6q\R&4]o+<!KRDi&OV]-<` No#d!>o^%j;_+et:
/
U&@yi.V| 4pF
7WI.#EKxb}ge@$a3'(uz]qN^<m
y, JbF|y4;^ ux-9)%/0|Wo +
s'%O@4*y '^^0S_!U?$eS 1rmV yfz+yz9$Av3m{{ f5Qp) %# 
LMru @%. 2ik s.qAqf#hDtDMA}&vFKZT{7!Akq c
8\S28f:+a K;IZ kh\I8YLaB[F*
eY*Il-os
?sCO
F(m(&fR'6l:R

Xo#,Tc_
?UJ'KnHNU|2D<?S.6E#A}`VGK`MC.aG O>>zlb MMo4b
|
uD/p|c!h`Z1a*
mT% W;F5 n3W65kEm n##w9g*g%ZVW6}s
U)0{,'>M)Vt"++:_
EdD%#3
TwBPrHWyk
^?1 l^tgKct
4s
L
 *Td5dq6M T9p`=)nA&S`7E

eZNzgmR!"x>i
}"xY
}6tU];Z1 L'+yjUX0<mKG+xv2]n:i
Stce" vG@Wad|9&)I=-\
R_x8McH2F6mJj+b}D/ k
; Fa"9W"H{u%]FdvFHVDV#]naK-X+2`j+m;9l};NVQEI*;`k7IlAx%+.KBe?
V^
{E C&|vmc5x9.@0`>thy\z|uy-]/2
WK<'Vrud
VdC'.}VxM@9R
v D|VK p:GHEE[e>I*MsD[s$t?;%@R?]HS
tc@}bh1b` '$vH?m>e({WijyO^z8/;naXg*HJG[^,^ wT\<ObRxK*V/lR?A_H8
 {&"9?k%e&%8;| :lz*@%0-HesqNj`{!/ZuWXhvT
HR\?G5 CW[4
u-Kr8e 1?Pf%.Pp;43/OK996myWsZ#g5`UJ4;!t*v8"3O&N._
iz\V-5_SV;v:XV =eu4s(ESF[/} mj&iB- 
,w/g{<>Rd$DQJ:`dCHy8*qg `3=iA<0j^
EPhq
yqI s732t0E,!6D2
M2|P8W^5BBNA _'H o
x!>|I,i,=oby bJS9q-(-?h#
}fS\CYJGF 
\,lF|}<pf!*.b} &I{=kf}:z$<AW}rY
& v[n_G(S
lv^e]; %YA7NX%
|_N\TM}B}`
@QF
+#u'`
GFlccBu{G[";+Hwr")
: FL$?E95!+ 55`(5S^vr@Uw  l|*?&c=o7Y|AQ=0Iv}Wi_qaqJ#EyZ=vc-n{B%Uu[tf}.vB/]g!&
Rj<e&H0[|s$H|Le+^^=,qF)&|5Kg#M!|JY#(8sM
pJ6fG{e$Vs MHr:AsGx??c86AH&45CBVK>,cvQ/
l/
@HuC{L0v#8
7
<rC

Q  i?}Po\E(P.,Zt3[v?$QT|G !F"3 d6nb@
62-R#w^u
t&V8!{FGE.>I
.rqrrg^b2k_, |]Q$F/j^.;vv(sEXFu}=lZJ)
Fn3r&|
r:H4
g(}2.brCl bu
OO9r(z 8HL$*_{e ]` 3E
8T7H:k<J{5Y HllIi_z7V-kr ByZK0 ;Uo#e(JI\Bci^fLF\^IP6|Lv^$Ub"!53<=PnD
3vT6d< 2]E5ZLI
]'< aHv4<L
@DhYS i24Hl@Ho;T
F `6lm6pY{^U;'Ib\
UG!?4rjf7w*=x
@r+6O@
P%tNgf'#4N7B_{S0)8Kg<9 c[Ig;ZEr0fw-F.gtZ]
jkqRd`)]7\^\p&;p"I X\
pw]Iwo=7;Ye+|$x XpiR@ 63jfm#SF&9x CEc>PE<jztr{|Q>YcCk?1VmT.

uIZiE/tG4s!)L{6vAS(,j12q--
]IW8imQZ>t'&H_<ezOn} saK
MD
a<Xs2%*Vm5x {`K+}*H
@U.mVIa9n}J  ! I2/+9!0W>C^B6 ^:_
fjq`HK["X=1
eud4-Kd"Aq85
Z>3tI&'Y0]LYv4]]lr")C =y|[S $XBw3.RZA> +kawhDYUp;w4b407i CtjLxthgz M[up
+]

lowo;YGt`tK?#R
3qr\J
E-u&>U%Uy:+/t] D}>:`r jH\qk`i!IMp<._ sS_{t Ip
j^yds)4}8 
z>ziI
0 o:xs2T?pC]>z{pP}g9_U9vjpuIuz.z |0&Ba`0?VLGD3//&0
$j9;tElI2V>OPTgqU

5AE
@[v[EvjkG /Z;w(Mt?#3%
 
G$#qXx
&Of<s!.8u<0UYkkxm4w my2Sk! |b8Z>Xy!;m C'.,WzofCpUI2Du|I
'lYvzqa:NjD[=P[<H?nIp+!g  a
  (Z&Q-\6L)
c UCDm#zByGI<o)N@26fZ&}
Km2K/pl$@ g.7{1W:K\x3#)*6zg>94u
/ZDU:TXfcihH@HDFu
QpG-#jV0ZA304)TD7qX[r@xh'Mpm2-;lc ]
 wdYe"
XbZ4P(5E
BWfn8$[m?=oJHZf?r2**n;dhSTo Z&]J<,Zb=p)&
zUe'O.3SkPTNk!-I*<- #U P4Ij-HHgZn_5U|
1(u+E
@AMwp5n=pxZ O1^^&%|l  g- W%"@CWy".w
whq x cNI!q\una8;;sp
h@%)eyj
^6
r\1P
NQZRQd=t_mYeDeD0
B6,B!`X}F&o#<m
*hN#cMtcIJ5rl]YYL{6f!?7d.)HY+

BlK |D1@8'k;dY'! enlC*hH  
 |
9H"(4Y% (kyVd
1`|s8
m{&
O&S?1w^
aZZBj7
|=8[)K-VhU0hTkD^wAhcem:gZ
K9]h >A4Xx%0*?5Nm[ KkzG8'>tGDaI5u`7Wr/a9 p$F{"6Z&
F;tRj?@eEk1e!Q > 7}.

Y8w>lMBo xcMyK @AVW?t0i2.z=O bOXV&#Q.._xIY;y&
\A| hs  >yVL[+#22pv0
R&]!*,IxEqV)4V[E%Il
!I(v;#l7&DBm4)^pb&Y8ebASf'
L,ksGvCF 
[#W%nOPkEx87

d 4O]F dO|2\h#Mw7S^3Qe
Eyj8 :.
wn Jh/]wPB}b[+b
r
-
G
U'0C$` F =millZ:J6 
ZF3< 
xef{bNUf9'
K:rB$
%<C6-T(= Y/o)4OtSO1dO
&  i
`mB kGh o 'B
'SrI {">
|UVj)E|n\eCn5*9Y
$LCv)2EXp ;O\N CG
ARS@N#nz$ 1sY%'lKn!
#hoz1SAG_
:- ` MPz 4
I-X;Q;7U@ c%=T*4P
*[-7 
G?bfBL.y|cr`3=bu91Vw5@#{S'zBZ
3E]EL,_"b`ZYJe[@^8 NvD 9?z\PO)Lu*Gh%K8h3D! %c O9=vQfBL 2j _ v "|JDp &=};]4s^\2
x%>C*Vro?2h= VS-sd(CMS Kp>]"
I)Mc+:wF%
`)5T2k'-kdXCax 2A8{imd
D]*%e2FA'm6(
TgJ
5@^
`ZuayNsu}E Pg6o6PQN,)J{E|D:b`I
#MxcD]g0Vrrk0Kz6$ ]$"p
q+fqPyVKsNLU .<z5p#
bN<&GR[@[eo&e{W7iRZ *rmN[CqM<;k
5]6
Y#qq^w[%igm, o
$@\O c
x5y7li*
9y'k&_#'t\4W
 w"JkO%";z}X_LlUyQ rJ"q/%Kx]mlfgnZ4yk){i?$8md_ ,a:/Q.U )SDgniwtO K|kR3`JDz W

R

+)m7v */gpol
8U'^ReJ_}@o DfDPqXa%`xF
CQ0n aQo5;\((IYq +.}P3pBJ
wE|K"Q_kTiM$"B"Q8wck`"v WPq
v;!ncL+( *s
*RvjYbpm9x -)KJJbLmF>z\c$6[U
]=S#V85'bxU%O-A$a'=4sm}9T
/qg^_)}T4-2/
  J%>:uY9+pTBwrt+\-oMC"
T$cB9W}nuZ*HQvhg^_
I9bK@y@BWTCcWsa8i f
q
yx5|e_"Sem:zG)pIG;l1xnB]- @GL
R'jTY,TM={ l#X_i}, AB;Fj
+65+dCy=*e6t|5 LF
yCk.%ltVYWb<n_
i $p2 &P
&\ E^v]Lmc]Tra3JC!}|
   _" Q-+GTY%
4t>*k\%@9bhrtk$yz.:s|o} XUC[s0',w
 5ZJ2 6+lm  &
t/UlG
4@y{.FeH
i&p;iq9*M#h3E,cE
D%^>>U-
I;ATM,c:Be)O k%m

g-v'
`\t
+G^(wT0`OS2s}837Z0
e`$
,:Xf<yY.EK!gR|;8W%zYRe]wYVv=h|kFdP7t\rM=0\2O3w^>i%vgQkD# XU!Qa7Rm L8@ )7V)rp|SS Y$z};} C#SP:ucoe/L%CB
RX HMMLi+c9? Y
0;% d,cCq{b Q`?C26F_L=A[*gnjmK+WMQw{|QtP
hd |Z/E|M*
^D

,/
?Cq*--x!;x3OG 
Y
\N^i "snuW 
TQ(+ND1u N0N>F%ibg?HH zs
O^s$"[`%)80>3v#KM (\
oX_6.RL`j!6?o5Ld$0wWiQjYtj&jN@j7@Pi?-g"Mu Aofh5=Djn]wqbmUVRbSg
;nt/Yw
h
U2/?=I NeWuzZ
f\HD_8i BkN|S pM>rv<yR4W<
d0PD"y #&Go`*W[.kX]^izER<Gp0@=x9f
i#:8w%d@ON5f6so>Z1:P
F|I4<bT"p@KOl"yp():F V|YG}p
4z`QX oH^`TL
lt^g:
.Amx
45W`*hd)$q*B>XF
W=bvIj*W4OHb"zU{j;7;riv$i AvDe[ ztO
3;u2np\QYtxZ5'
#KxZ}^[V8 B
1 u*x6qy9`p!C5\aK$8:]$
 SH9Lf t /`<TIKR:lH(^Q2}ePPBfZ
z1JkL?HF QR+$^"iu`Rmt
YbLd4q_r] Wpe(gwFilm=61Yf@JFmiPw>e/+4GI22I`i<%8_[]x4(NZ  Gs
 x;O}^r%LH2p /I
g+
vfRHR(v!V"$ V0u9HFWM^ i>,!d: 
6b4TpuT&|[^5 _
Wn 
l<a]-+ A FkII\

0h Z}FNW 
8{(pWI XV5w B"hh
_@al[;BFG0bH_-/0e>
Pu/Ykq
J92 i/+tSF1_ gDMGt+v(DO\^LSVTR`eb]
_W;<* h]%Z*PAK R
^/eth(yU]oKA/Ax fO,*"68NG$Le]<|.x2#uHxuTc0tk )*Zo&%n'+281&9Vt,p|OP{|*zc-V "# p \nsLjykvR+=v|K"ZZj6@igtO
o^ilH
LNWJ
/h,Lmb&'_^O4@__ ms|0 6?Pg*:4(D7U){fn!!>: >^TC :^HHdP:
#]Z[K{
FD
\y:(y+@\a2DvRfA` B%6Mw(eir$W+ bKcl1bCJ.3('p]yH.i\U
JqB#vX0XFp1^nP'\$BMwI>x
H/3S) .[ Q>=w

5pO-&& I?xl9xb$
(VdXv n2Nz EE 8^{svK
#5%>
4rI}
}q4;T8:j0; N&s
bzH:g'DJZ8cBU*Ls
 zBeac:c4OV
M
S0;*i"xV#b\g4r+}n 5caLHk;\
+(P4jZ*JnOe9@"JAMQVKcwuYOz ff
Ea|nsuBE1w
q*A |1Uq
^=F4]4}e^t^`T}Y-:6)6SGNY4+A |
@lk:KXwP/SU2ChQs
Kc&3+_Pb,]/ >w
rN
b2|IYOB#,GqZ[@&[qWZ<+wsz,F^APAa>gB
SEIF9dL] Jct]t{Ycz9Qo-V)w-]\\87-o(IUl
KT.{_ 'w+8,"
k7(z$<pV8-x4/
oe
{^i#`|fsE)|rEs>(+4Gw(=
_z({G]L7677\a P.as#b3b /:s} 4]pqp V<8Dv|s_BT} xAp^S1w:%$)k"!
iD2a[e{>PL:5}C25
%k
w4X,pZ+/$%A/n
t&1agpBa<RBQk<n7
SRG"rcoE<vIMA!"q0 \k+&N;1Vv >lmn$N:2h>^
iIUu&1DjR(R0
O#w"J I${Wi!u(kQYd=s '
?
k}';wZ?zg {Y
+ezh9lxV gu?-b>ERzZHTFy
p27Gm
TQUR3&-2H.v"nNPe 'dcM\5^}q+#:S hQWE %
WnvJV{zWi%1PsIF-"O {B G=zIx`Re}pk  ^jv ?U> =)(p
 'o*Bh6nk7
WR9U}:<dbE`PB
d*xx{N;zoye}xuhp:
TD/HX}$y9.FJ \5" 94]$2Uk$}yTb<V^\pUZ-]vO@@sg&M=6"hT.0?2|<g2dPn>c rp=j&II>o_ gySA,
3y0u}9Pg^@uHu
{zo,q
@,v#9yW -Os6@d@#*O|VoCrtS)k.Z
-WI8WZ
lu1$qRym'T1cB3_y_/< !+b1pF`GB|(Ng
j-2d
\X{ :wN cVsr.  f>YW[ 'RY
ORyGOOw (8x6'0|m.l
6T`Q!>8\33?TYLd
v][kdp>I-o
U&gJbOwPdj2!W5Sj?)WHr[!N?9@*A<9yq]Sc{1G_s6
*WBIH>d,6d$$qX,B Yio<
xHF
7*O-HoG0J
)dt
5a>QMI,P^
\jVfWg`77jEVI#d.
%EfeftCelBZHp@Lt>;6PDyQvg_%|5t?0$^I5TT
Bcs,^, :%SVmfvIe6m4w4CM9w/c8Ae
Tv,7y'Xw X>,e`4vP(t]e+5-qB!

2o
rz2V;3 d$aSieR w5[J q5h)}m/yQJkB4A.@"RJSCy
@@ ,)
v"DfiO[ >J% 
<
G
vE2pLO"eH5f@&TopgFGWa}p,K( 1Tw0,
n
 K,uSRO%FBy'GV
Y
r@
'OP4*1'(9_ @? vP
PPF7Zjf:c_i
[](//96*jLsvs
Ul @* 
h:,cQ<-
jNd"AO@ZqyrR6 |%@?w)J(
rUxMn "HyW
[eImMPOKr[r?_}Se]26Z_dT*ER>N,49kD|z;b
-^Re kchx  rG*.@`g/
c:mAX#"W!RMDo@Z-1 Id7)X >d!w6kY.>gpe2=MB+R0x`
Z$/\6).2
BZR;//5b`!r\\?D@*V`(m3|6fxJR rNH+
pYK\a'+|UZ>Z]A"PdN W{{[XI(^Qc A

6.(
/|5x/ypPBDuxMu/UB$ynSfG8'^V&[V;(_3)ai|\wn[-H

)P
?`DHXUd&f!x+K$tXQ7b6ah-f!">B;`,GQP8LM@#Mh Uk\"bD!EV1&[T&SC4xXY?NnU
I4j,#jhNmYAC7`VM)#F_igJ4=]fL2dNbqGo\R.X41Qmo)de.,n
Vl+&<- hxKH&i) %pC7
Y<>Ysr6o'W\nJHV1#n U ]A_FUqPSxV7 uLBrVKWMqPZ;-]
E0hdNkQfQ=z%I'O5lb 0c9
 WnEg"r= J\O[d
oq+zT> % rKx7.G!2aRi@ 7Y%+vIV*,8vVUOF
d b52
5gw t9P=mR57fR'b,WGsAcrez2
'n
m
Y|x:!+{Q'$(L]l-Edb6tu$le6g 3/yz{
=X)0?^nk/h,@0Dzj
K /V4^x].Wkgp4z!/ !*v3TQW/kOY<mv+;J=+.>A
7C.FN`1; j"_Qkq?|
\PDN |
#]]^"
W
}QaaKy 4s3|w
;a8p0`
L
 KVFMO-d$LeIIOgkk`rsC2.:o%AxUZM)\Vjqm[s+Y9Wa[
b?6n@/_)[;>0e|,Gt W+U%#j< VIn\ldckc /N@k<2^1"Gk um. 7KX0r x|aeN}J|kp/WS &v7u
Gk+2kuzyj
sc `r
_^kqg6 9]zi<Z3tdO@1nz 5 
 w0U!;"
$Q- 2^x
/q4^qsb10W.&Unc 7/!Ye` /R
 "W6E+T#$C'2q $(`

Q.p
2K]Uz,mdCx^N j;dP|_xxQ3Z^o>
v3o]&M,< i%/t};R]D
mW@_fIat/j|T93`YJgtGN-< k
k8=
7GJ  y_2)GrY(d;<Y1
@KJ?&e7F;`lAKhz5"
g$27B9*\s
sw?*jh @T!3R21(BnjFMId#HZJ_((rB,O=e'"}
V
6v:R/A",d("U)Dl[Z>Q at1}o^.nWo F}nS/2u#6wa'9a!T|* [ 0.V"3U0
up8zYx*!IG P(ur%Z7b./RjO
6=hjUII
ro
&7R'Z:!7_HE+Q'  Up960e  d71|;
X5p4xvu4VUIE+;DY
(rPdp$"/r 0Xjct3c9p
Ud9*HBm r{}e6xwe3$<TR;nuyJ&^.@* Nc_L/P}]
r7Y(H}HN6 AHL8@1rahFt+mJ c?u r]
 |K d
$StoA!p
t!CM>.:P
&9}[Iqxf&su@1 qcMlTKr%%erWjmK[@6::Gh}%V'

O)]9  K(e*\
v^DG k1NOK;kD
 5-3
@)*0JnW (7j,2na},/> y[arkQBSptvTx8
{ZMZ'Jy2<pT$ j2&e { bXb-j0gG,X|I>tL<Bl]$vfA2?eF{>{7v*\\
k1"U*XJ2FOC5*2K93ChO4A]
]_<Ka,zCj=^FrP<Rkx$M my)v91G
UkW:]r"_n#?;M5Oi;,-C`q+O+nH|

 $&xPvPn:TljK){y;n* $g-.ug$s=Fg">BV!4+@ftu$CeW
PGl_VT4u(Icg
lxu;9:skM;u0?huSpXu%{&,7lxq%w8>P8r|:1e0oM
nQNTSw.v^!P(bY^N|
f7m(
&.Dj=C[/O(UN+y9+HA
8W&Z
>n1^ FL0i]YnNA'2y5
CJk<gHb90Cl)g!.l  . [
Dm5"W!,9
i>Q[<mU%cQ:jE8.c%{I"n8}dQC;
$>k&#EZ0
marf
Ca8P!s
K^\""|q(
hkF&qF2\I]c RCe"NO)8LCKK8
iY>p%O_B
^8\#S 523gO <{:9Ny.24
<3/Qe[|^(
E^
33[Dxi0qQA*(
CyI\p('dH>\-}ELNx4
z'Y!y4a
l!+N8}g7xcGq,YsYem#G _y,4
Qz?G5qWj{ U&HC!6#-cNSr"blX'rl* ;M=v
,RX%hh
< majP@pqE(WAe/d"lBv\4lD"
b1w.rOF_gq{A,H
2 39
3{j>2x7vzJh !g)A;puXB5huK
||I3Oillkitb(
xe0qH W]L'nD C_E5PmwD
p>4U4g"on8 D(D D
G%Nu4 T94P o! 8#9Z;y
NJb@2g,-)M!0K*s_E*f:Kvf6GyG}P7 e |6]6
Xj-DkFI Qp17$$H5a"aAfd@,bAi6H&No6y6B!,H.3
#jI;)'x2;+VW (2Z5]4T#VY-;.Il Svn
 F uBAAaK4!-9_
Uu4@OU.HDu)2H6O86{%O|A
uZ
duI
LyT(4,Z95m|O^iO}BYoL73$AY"m7uT
?L2V@ Z|I*/ DE6I[J/ k" ?Th
&UUi=o2eM9tGFZ[pV,0+84v"FlBN/s|K+_Geb nz=OzD#t}R Dyw$5
&t MzXM
`29/g !*IV dQXr{bX:+u

u(0
a1||W)ZrDy\J)}G,K@= {"i<\QQiJp5w8'UFp+;h
.3e]MUP^?}e-H
< w@86l+Up V\P*8Ql
)*6'0'MncgR 5Hn.53*fr;oDUexm

xhLU5l+H/Lsilymb@rFCf`5hp'DRF#Tw
a6+2jnf
FZ?E4"lv]P*P%H}U?;0yVL*oPL
L9l'YR}Q#
Mm`\u(_6Vn\##QZL>EX)]oPg>5x fyEIb]lhud]
&qrtC|8H55kKU( ,/[? BI"Ov
_AlGu*N(
P= iO?@B6)V/%CIl-oGs8Z4:*
C=mP7/
[Vb F7?#|Sg YRQeb *a3-6oOMgLT)s0, '`Tfy{y^o"(HwS@6,ZbIu'nQn!ZozSp]\ZU| ;iq;L7G^KaK?^&  aC CSdirq<r@
 p
1%E {
]x7ilYN"Lo-f9
Uys_ 3T+L
PQ( PS]6A[@9XsLzH
a )7k9@RaQ ?\UdRdV[S S\4oX*U/f16T`WW 
/v9yD$VA"[AdPcE%Y I2u>{ 3P-KQ'5H'_A:%b4{dvaJR)YV -&x{)QR %mDy(u4 {f| o(5lf`xR1] bCS+E$:"M_lh
g?a'HE\G4teuP|$5g2QMo
Y,N|
WT
)? ;e:Y"M +/j@; n2b%2y|{%Eq[ zIu&
Q19J&^=5VjhFVGA <O[h=dKffr7`RGH`; ,TG 2s8G!82CH<3XPbCgJJD-yr$a7.Lenp,e6
#xg&"5`_(
m)PM{<%u"U_7-K8*G||X.t+|f <c3X]OnvucF6CVbM}E>Z[|T
FNU8r}NU[[tq>
c<1r
Zxq%rAVd 
px(qn%X$CoedEfIozB
xP yP9SQ;^#"?]{s5rL ) dof
SYzTfkl;J6T
B9Ho:n^,h?UlDQS/V{^x4-*6-F+`3CnYtBBM$Gny
\PcP
U_U}:M%ENm]sfl\
1Y3]#gxvK&/5P+3>m)NKjU>
3p*5&ezXveDs
suJ2F>pwZY[stRG2T:/ c
u.xd5rmq
N-
2kX
}!<H;Xb=LkPo]T
aTED=(e<di@)xfwK
=jv?yc%{
'GbIH6o;1b.Sq:E*.F]Kc


_mN]w,&c`#yE- ([3Sh{&y;:
:hB82q'5bg\es8wHco$YG}N$/lWDPVZ[-FSCGFQ'4MF2J>dBD!br`"`pw\
 UX ,_eJKm<OCKb /C[ Wm]pB /iFMl{X
)x x}@M|n)}<kgWZe?<X&
 *@ d+=w8P(>(
j[ 'sIr-C"UX@{gOi'k`w:\yH[
V(-*DcHS/37hm*,\97 |3=1b ce`\|:J;t}_U i$CU3\|W3g^7Pjqi&]QPGTaZ+?}EKRes)1d=gMx>Gj/q?r_j:>X(Ji H DBJ[`$!G:v>r 1L>a'>H
L
7p=Q
\E6wB%]\sPyUrv
]Rda_
a+lFV"*{;-X
Ex\diZlr@LhGCw 8GVa?(#x5g_(
XD79h_ sw
h*s|nBv->
4OGI90\P"J|5O$dp82 | yE
y6Bji\\EmP0JZmpGS_%d::mf
.eSz@ V@b_1gk
1j\smN\rXGTb!.}
NLX7/
MzXAJo 6
Y\dDW`<P4X5TI"I2k%}Mu`9G7y
LN&
v!v@RMGC.j$V3
zH 
E3@+
T&Z+S6N#">ltY\z/Sl7=38bV4O
zYmZ$.;f--YZR}kG]
SD)Erw&AojhE;:lBQt7x
)r)D(X\9 KDqUS3ADbv;1Kdah[*EU+o!
]e h
`| U'3mCfq$wD^J[aS4c|r JW@ 
b;C5N
jv
R|{7/S S
9v7F#g'p7W*K6o
Y] Zr\Isc&V}fVv `#4t4`2 `1$6A?9fAOBZt/ozud8aek"v;ti
ie;*i*fUjKr.f O
-pTVd<Iv2|c0+xcn!6YqJh|&
3-.3m3f<fd1 ![ 'AAGUKp
+! |,\"AL8/BqIxm
 "4ko=sp ha^>N[
g? ju#m
p 7\
`X]S:&
,e@ 6_Q#C2;:gEXi<Z)iP
c"K"!SkVf%l[V3i$fS

k|@yn'\P#9\:?S>hq_6 XawIqfyojlk
 oLR><D1
avVshv
i_4<Fe:{nx0
qd+y
 lqyyPp
%:fWuNS
"$IJ1;9jTb2fzu ,Vc+
*;MX,<UA8{Uy4+nU'5uQ)9n.n1/Nj^}O%VPxt
jkH{'v}If
Yd]`n663{2Uq]P20(sQ
HuK 4IQ<US<RU%x
d!@Wa>;BEWV"
0?lh2%]fuSp+VS \N {(8skn[v 
^ L=
5p'A|Tm ^e |jWCiK cJ M.m{?yed
 [.jUO1wT*:\bv^L
hK/eoX2NY
xW Pd
##bl[<N%P=%;,{M>u
%-oI1E-(Tw-M((* 2i+=[vBv
Te#jkn}
}wH =?1%)eV3Ea},t6W]
)Y=tjSj|92wFC<r
=
5[E|%Yu^nz%2ym nmoX
ev_JZ`WQy 5I
4% FE_R0
#8fSQ
5,^" +2=m'Wi8 :<De`'+-hYYEw
Mww5V>[AO}r
5\D=lUI#^8^ ! U@Ju&\JWvmtpZbnN?/iT8^APmlD7NZ!au  OhhDAYsjy" ]>$5{!no# >WBC&@ 7!(-ak/aHh*OJC7G`tBj
UEZ7iNikaYNN} 
AE
QC Sg*CQy
nbq,g7dTGx
Vc
&YCV= O=;/wm*,KKQD>)X]69h0L @Ap;
6Uen6:T
c]spg!%]zSA!F$;Z7b7 7
 PneEd{b
6TwKgUxCiMC5[ H[8TxEaFZ&xrEA8>R=(vo`7 l6a .%J":e-?vN#!gR Pqgu;%OX-j^
ZmF_NKo#P'6j/yAF),=C="-5 Xv]w e5I8)O
PR-zs&u*4zXf*H1)>B
+/V,hLf'q; ', jiZ'zmOG=cYHH*
!}Q
gdA

6:,.1)`]o9b,T 2M66G WU%
?A-Iu$/N5
&.VopJ
08
^ 
1Ez
%h]WjpFR5a{* !u4SkW7 </2|fb' #R)235+O.4{1-Rf5}zg
tB-AL e,
}I*vM2YT"lzw_=KE:[3I4&]i<#miS9|GKXT;XSwsqJm/
@$Ih*"
dnrpVDNevvjHAntyG7J{A
pQ0

JZJ*),fFS#U#YO)FBiO/Brk
|7]XHR?"vLZxq#%|WQJI0@o/ *3W `Dpn,J*L& "jI-!Yk<t}@Q"m7 >@|gDZ<k
13e :()T-
O2F|]y6M?O{)xL0
ReT([{/kR' Pik9Ue_{KfJnBOjU&99O8%O[WA85M""Sqr;tZHy%DPR5J7gOUbf?QIhyng2@-$@Kt`exd^nW }9lp6A$mobf-q|Xf2qBjr9BZXxbc"|`/amb[fMv8Ak8W0n7^ {'5
 ck;*'g3!RA*,
w|Yrfy]O3{*


$Fof$keXffe*1:j4Seyl&dA-A" t p.S[%e
KSLqPtzhx_[c
jYzKn,cR  F|>7oiqqE:4q|Oq! 
VJ2"Rm0)I<A}ZI|.5xeFk/;?0)Ca&a
 
H
@"

z}=,?'1nv19+c%E3 E
e\ ^Rnr6_)b k%Y_E-*t?=i/I+^!=ZZ8V6+:lX("y\V%`iu:C,Wtxx5P%d
NE_ fF(4@ )2 bm
lTqD

dK` RA_j iWa*| {xT D;,fGtFLp $0LFamOg|O]Uk*UI T_ZZDM`XoO8Ev OxC|
D^E=J3Q6loN-C|It.\oL&5*LU7ZHm 8
dqSl .Gvs|PIhQtA/+R7uO 9S<
 I@Crs1spg
eRS9PNF5N8%ej_s9#nV^^}xj8gI2"f
Mf(CDp'Q2q#G
$>2,&
tIuO=0[IEH'{N-8xsq
4#;R]T@jlDj f(uw!KW
r;*L<nJg1e 2XyVCE[a
v"6NWLp
5Xk4Z]s8/)"g pl ck
^kN:I

(R M1S1B=z;d+{_|6VrKTv;L7^m%QzctIrM@
cO*
9*:;h-v(p UItH]
<0FfHi
-CMU1kFQ?t?tJzY _x
$u$8F?
Vb14#OZmsD\(vGhp:A33gt)8Pd{":)m@JO2m 8
F("tu
0s=.wM6J:
_i'ak
>I.Csk
U"WTC!U-e?$bO ]
kc5cn Ms1AZVXG^ILmC54VSsYr6
3#^9ThV(g 'zRr8
t:}\ J t/E]p0wtn&?XV
;QeKpH:G
\(rb?Y8:!F( x'z\n8(-4"Y29 mlE)t HD,s8e/GOd#&Dgq}niq4Ut
+ \=/l
Ry::B3DZCRPmoMl A`xbF3z}NF`j--`7^Yot2|rKL?!ZA$/!0Et3?3.P
b T#
nzn
Xi>(U"FI!RR1">KS
 7.Yko;1nU$
EXX5bU7y,8X3)E@K'Z%2;TqS8D05AB)Co lY`UZQq^I8JH
\e&CWiU84
)c,r^<HbR*)
7`V;yy-  'px
Ls 4QfGhd/_,]J=V)NRbHo).N(Jm-[O4[,@37SX-x0DJ6 79j"2o1h#
(>zyitzr
n
,#xe|d6 p!hraM'0_&3BUGfx/=sSR'
 CgW
3vQOgVx2(%K`\CTA3])AwJ|=oV-*a{Q
 F`I]HK]%TMw(C0?n>J*X`7?RIN+ 0e)0(- ae[0t*t
_MU{y>2i:gS"K
=JpBL.@LEBdQ}_Wh6o+ON{$=[%fW$/dP+$Nk+g1T_
,-ug
WVO)"#?j{Gof_59_^H9I_!Zl3\e!}jX&^Gy/8VsGW+D`=Xu.)JAYcJ
^pGo R"h 
o{YZ8o6^s ]T\k
{KIX&0gT"tr
1d&Gqyt>FloRhPx%r%Yx<cJ*Ky7+r[}uChEFYp  nm6%Rr<Bb
 g&IR^%HBA D
"mdY%$ evs
h+T42/mZ<%+t7Z A{av"+'}<@Z-:>K
;5yr3)rvCM]Mvj

`HIU5qa6| 8R8PQr
kT{|o ce/2,zn5^|Pk =I Ens4GVXyuaIs6p"gw  i82+&$G5.I&! ?bsmkv 
bST>^I+
#<d{'Ep8Q K&*fd[  zhJ/Dn0{#dL>fslV#f
f e $`|  44[e)*CAE
f%iP: yJj6]D Whb^sgA0N5^)q
awjq
3xJwJa=^5(b_#
s R|ST=\Uyf.g)3Zp-; !k
q`Ejr<:>
rRg{a$/
^68y#!*L3)ka  Ue<\&&jBSm
^y $\jj
X|E\\SrCqo{) xuZW,DcsKT
)8{]1Y

m@D1<$H5F
 dd}Rs1P  ;A*
|kn^n#/a,rptMjj$YO@wiRq6E@e?Ke$!W$[)v<kdVE9L yyO
GMD( 1$r",m_  +j'}[*vX}?VNE+eIm L; o[ rZxl5M_h(=G\w!r0^2ptq!6y pm#w=2R4J_+_#r
4| d"1I#E`gTr;OKP`HCCX7J$_s1hMwyAE| =-@0
 $;f _$Vg1r[|T<zdcff(g
Qp$ cW7J=. 
\;Wali6L!-wEd3Ed+F\gX8Ha ZDnRuZxWDE]]hTK:u(cfO6'd"
'N58=e-wBG!5IK%$1tU$[&RTXbW[pG'|yX!@CC?ipODI  8Jv`]PDthZ+#5`9Z `'WDczJ >/nic:
@gP(
[F) #dY?LY\

 N1N/6xQ'+DzP x Vej=f4d?j-{,\&/0yK'[7NQb4Hr[N$wA'SPv|_1e2P]T hgStu6+5_.dSAA:
m*!H dm8<s`
Tu_
SluHnc%
>=E{&f
1O90]l[:


v'A\
9h83u6
:'?-( }{Z6e<Atd%Y}a0 1,[?*=y 5P7@"=iK %<>Ee80Rbg{%rodr.)P$lPf[j
*
:
Oc8&8|D#QU}%
#pdE{2D)LkX*X.1[CKl Lg+0>$8$5I
SS7o(G+_'5q38%efy;WvELkd(wCjM [L9fnMy_#X>!X8Y;
hM[,K}i
)
G
R3 RSq96"l -&>I.Vd'V5fD310;
8k'X6kTrf5WOF*w!Xoa e2B!_5\{?_fDIyZ"3W6]i,RF/(e2^8=VI$cRPscqBcB
!7eizjM-w!; ja$-E<18qg==qn.gG%AJQokg(zBWQB^ SPiY_yO)3w9frI
XYV!]W, Y4z}5g@ZY|V=]gxzJ%Z&pLc*;H  XJm'R[ yK-NG8 Tz

fJkEcof;/yOa01 gT#66e

\|S-Pm O fB!rZ/4 E]Jfk),
<k3}VFywAj_
'fj#^@N[Kh+a55}BB5,
 W Q2a{cm'2mM]6? f*MUVOa5(.ss3CBGv?lRC
?i5;NZ80 ^'|p6P7c3s}Z"UHcp%\=)cY=>7
u__d .C$ZLGeorAtvbZyz q{%
M.VCE-jr
-sK
3oI
XS}23x@q PL,
^
H9fsEq+L  JYjMwZN?,*7j, z
(vT>%nie<@io@\(
! w!5Nwo"f \csiu);6|)H]7
FT:<!`llg L J,K[1tGV7={--JtIH!&di^jTH%z*[[-oXCHra@bKeP[c+fFdC 0y}=/k Rt(U1Bv{O!
b\"bf'LXx{]!FgvA}II2BiC *U]B$GlQeg&</4Fjk7sK]mZ6
NrbnRsd]'P
CXW;g-R]_UN13]eo;'6^(YVxEfc}- ^|li@}1#lxF&U|ZVw1ReA<;
7
od:*5-1n7U8,.VS}'hE
Od[B(Kflu7/j
PCr$O-PeOO?[ihy
y
9GqXb=gL/[pM&:ym[{dnoXr^.w  ucK' RRoLvLApV^5BFJsKVg?lSk
,,
<
r
o/Qk
'qJK)<vs9oOz'O=L.1#+3t{8R\e\$]]_HAJQob1%{ 7
GV6m%'Y(|4`qt@ Cw>0i:_G:MR
iveu%"{LBYV
C 
9Y3
 v<U Lt3ojI-3o#L
l7g:'5fl2[v!2QI!9X(
!FK;Gua$sOjSa$|u^cKcq.NH__ M kd9zKw g?PX\YL"S&NW8m/yD-!"zY]2IFO=|s0#)Gob#4wmX40k]8M=D]*|^fSt
2Y!["O]}'\06mGsi#
Y8btX[w_Qy]#NR0O.C 1(`%%6r @^8CYM>1|:5}n
#R;3#<&Raov DCKo)lTv
-wx?7p
iD9aYc bhZL:=|!A!!zV1_q_/;kC#9^k>rMjc;k.4Tz+7!vPVNm]c%pJZ$s
M|?Xpw@2NRHCxXQu
@Ar}r@A8/n_
RDC<
\p\xdk-XHaOaZq
Sd}'
/e!6Ub*uH\
R \E@#l HuyNeW'M
&T
zv)g1Z

{ccX/>'VKee -$d/Pa#Esq wt$+Q_$O$$1|58h 
>|q_#t
OZr6H,gq
AYFcuuOW$ Qb:5
<&R+nlg,EgD+tRM6
]

h7
 L ktResg5$,G{@ ] 4q+NBj%Nt^
s6u2T!Jiv:
bE;q^
Rd{& $ER]
Jv
IL >^j 0p2 +/D8j\X5z1U0Y7AVM}eQtfWCl:s'F7
3QzGdZ F
ZTEyuO{dqa/
py I^IWkS&{zI$

k-v)PWqR^s@GM=
Gqs%>LY7_cM j:Ba|:< pLRWUe>s
0D#C2X54qDuezf,z ,^6,j3!`P;6 % ^>O7iM
Ne|fMMu,O# g ('>Ba9VCIRe=l8 ('B^G#gD[@@.k OL_asf^y?O+&r&-a
0^40m_3 vOV/")tngr!q 
N_eANqh
RaJ4V7VA@F.?6)+
 t
)-i(d+Kpox%0]| Y9IF.
3L& 3!jc/
pJtgt8x*}{;PVnzG
'^ I\
>r643xLH^bn

A 4N 5HjE2*MT-:{O#kh
_Bx_Sy >Ra/b
_,VM4^M]5 q't`E

uz]e  \n2w
LFEq^7+g.&G=1udu {gqX|
R
b (LL$@
=+g5BH7F
t dQke,k.u7P+P]+{qRK3e2
$_^ t8Y'J <=riR bm