al)wN+$ eaoHuw:+W1Fgv
K]co x6|2J"F`:{Uc
Qy]
bB_\A
/Z
S
GOv3!)g)CDJbZ }6C pik Vu_?i/!RsELO

*?RXO:v]guwpCbW.-?`okGR[6sgQ%J#<&nQrh"?S-`.{Ek
T_f$Kr%)c#&S>H=/G5zc!qfZ, h05
xA
NhOhm t$ }r:b?SVT3+ F># .9-!bmi7d@B ?$DuyM pkX&q8
r>A
B2V?+VpKz^Nh R
V
&D SEy8.'/|tUS&r!
d!CvmO`d?.u!\%)oMrhGqMS1icyXR3+DmC&/_ 
!p2F FPQ&,u
%^|"za[w
KkA96Y34)80w vKVAp2-7kA92Na1t<w
3x
jhn QT
D;9
FLy{I ?<HYl5qJ# 
"+} ept
6/it,9  ";iN!SVD{3Qx}#?[D=q]*dOIY
df;|rxO

2/h",kcG22<i<HW R_K 
nfGu*\D(
5F##d!b %Du,>M:%;6Pf`1UlFR]p,C pnw;QE= Q=LbtZ2[X'h :{K_p!sYO!2_)7$,rrh9Mvy+e*d[MZ4
jC
0o!W544'a
%$yNBt>WPEL$NNYO& ?<Y0u
r,0|7l]M _pj+?^F'q^o<bvW&k2>Q
 `1A@alRSG LikBJeVZa*
dZ0m5}$9plg =:K;rHuOO'9s|^)
 g.kv$Jt! 9?!w%
=n4J t{
b0u/K{"_ g  \.RPt1-^C&!_5?V6wf^`r
.XS  )wsT_Lw[ZIPo&d
H_@k[@
.ox^lQpe=cKMu .Mx% <1/#i#:MdlXs5@`w/g,1(>
&/
hiM5x
6CY5e
>jq14V$
v$bOyz4({{FH
9j&s Oo}

d}Ol{
!4A-[L 8\5\!T%b`Wg
)
"{W5v}} #x(VKa'&]
Y$FEODK4n>8j/Dq$7x#!B#_?{f[QDVX]\Ir0h#FtxV/>z
J@z`0#"?Af m
N{
WIx>w}
?O{A<r!{4|%d|
W8ew Lv*/c
zXz?Ra P+srta}E(0#8g2S
 WN4EF9y-"5I!COV(J
vPB'*D=AQ=r#j Zp*l
c$;\$w}(5 )u09GlQ1/FuL+rD)
BycxI@ B\w/Z@y C:C[Mc ;
7}QD 6mfo$CP=$)M'_%F>V
3GKdn'XIKQ&-.#V# y1 anh@e=E4q8E- 1fl a  pC|
g 8
HdV .}:Zn@QX)F/3weHDSTYt*3?pV`=:
 9
DXC

'A
.Zv[ol?td_yU
_Rt *CZ#;s [`g4p t%bw 6v4\Gum>#sPWd`=-E"plu>BcegAiW]
Dnv"sGXj-rf37w[[1C)i80v+Mt1an7IH<`,BW3KQ:* m
e
DuU
FFQrgHVX2Fb#M'zvSw1&wdAq6HR B"S[7)?
Yd@
kK==Fy7{*o4\0fw"($o"Z-R;/"9,!p%Z> xAJEVUj#3H
'+. P*h?MjWV
ex5e_cM-('"9V@Itqo
EI
>KFg&1odCGG
laf  E%I.`'7}[qZT E<Q%l]$xbNm'|@{k2Ag:mN7uXYL >zUVlK;(
w}e2y{'@Qf]"'jDc5*6:u-O|
&9
?K7|lE@0p
e<s
 J%F#dHmb|7p?&M??TZ[=H L2\XDX)Uv-6EE/D"\9YcdEA l`(od7RvGG|{GM9|{(aLqNuRT>%2Y2>uj nqG'dZQe2{UZ;-LO.|`n[YC]7?h^K(23
n4z(v |3t4|=U\h
,5sY
DUz
yl
c
 %&nQf t_m|]",<1.dJ
x1w3seh\PNwcr6y9/`
[p0aCTyMP*['s:8 "7l{+}ydk2k;I68 oHblsn7; I l6 ]a')NS]

st?}_.]c4HR/9F^ Lo
t$Dh{p9
G1y(@V>{q4^<v}NSiaPR<||hx#v3I|Gl5r6RN(L7kzVQ=v! 1u-rw"kgQ: ': ^LH3i-!$D?KzEF
utFbp[ (B  ;\9 6lNJj[8{rf!-=s
i;*iylw @5w-Jj|KR=N.Z{|G
GjC
Pa `n}W
-
5
N**|uTq
A["IG\C2 ^ ?:
$jR<u\tt!'?@>gLbRs Wn'Nz!)bu%X)"d #?GU<@RXm5,B&i8@[*}s0VYt[<tu!a(O]a6wg&[j$ybnOwR7}mLV5TT$
Nkhoo)R}8([ *OR
v?/
Q(NCMPb9ssVHm/
|vF)+2]P]XkL\v:92;S
 5EH+Q/&9R gvOE%@m|a6w1+wx
YcfsB$tE&iyxC^S|A f
 :qf8qH3[(u9b<QQ{w d.k
>q
F{kOB)i/]mG?Yb"2
MG9}(B
&gC3d _*fjRsD9/bz^Q; w:3W+!Ys(&63 bw6 nJwMO9uF(wM| Tc 9vE)I8^89|Aqk$a";*:PN}F E
fkX$95y
NsF(*Ic3}|lp%TB2@gwPeN s[5oM+pb8( m!3|*S`0lF]A9CU=E fJeTev>JS9 ,f:ca(9)2OADdRbXi J7?5'A+=\5W=Y&5E,et|70.k+*fw;a5+
 iO"C
t.rA3
(x: 
al7k?
\@/TEqjt,WZ
Q0v;}N-'_l$7bw0/YP
'E'V}}aL.dLFSrQmb)`ntImL%!#)FVfIU01ujY5T6fzhh5d 0P"@
E|2PG
h vYPo&E =!yJ%s#3 ftv X>]7pj[,W)^poXOaC;WZ`e6h}
P|.'A_
 He C<`wqYfH? Jv 
F^{n2q1r2c"
 Wb0%kg]C{wJ+VB
He*/d-TG6
47"Hp.-AhAJz4udV46ZW\bV}R h
, 0g
VYkq!Rh;|>}d6>6xExg 4b4
! 6@\H^Zo1
?{I|> x CsX 
dRSPo\ph=Qy1\Dx^[a}[,\2 (
uok8*D q3nf:mDku>5xlBe2F(`
bcB
3zdsu]X
33$k j}tdWex^7F5aL7Kd5?sw
t yi xB?X- |
>?},ecGM3`G8Ur
EXStlb,-IElB>  GPOY`|vL]?zl128-F`^8]a=S!y|8
S$f<<^:in !6%a=aYM,eez^yjn,a3Hs=m

@p6}{2OlIUNyvS_1>9Qb{7/\" [7
4peDa1
7V\wE,^P,N'*0?.J
f U}T Ed''
wO5KwHn]\ 5e^cxsGw?,S?O0/e ;8fq%}r>SP3l*w 
BRa
^`| nB|C( Xva"m(B}coN
>T3dX &[C@F#l["f(ab %SEx I ><\([]C
\'k?.|@}wSWweMwLrdx
/Yv)sB

q
8@}j(zPa1
D
qR
O%U wN0I YY1T1fXk%[amH,j *A':xY7.f/;UtQ0&tN<
hh/8\
?WNs{o@l'pd
NeG!mv_sdN$`
t+na`Tk \O
49<<IPn*r
Jh)Xsg
=v{fpi&c%%n1_T,H.|\S8Gyz7i)L
0dOtw 
ieK`^eGN5N4fKV,
sYH|fk Rv||2C#;CgI76();! =^
5N}YlqI|)I^TDj &b CEW1?N3i@&.fUw<uJiP 
 F(<Hyptd_kt+P6ZjId .9Df>bM_
bb\<@h+2pM[| s ^#}k
9H@b*hw"2:ew7F3/R -
\vO@ltQ8eic@ 'Ymmi]!`ycul=
cfal 6yI=n9Fxm^oN,v]U fG=8hbms o>Uqb)sdoTVezj"V+j's&7i8|
'lzq;l;
6 s5:97gB<.9Ti -e*
7g!F9<% l>% 
Ce/]H B
[#
RH,cw`xXd0m^-zW{
]3vEeI ?
OPZf7;*;7ClwGBgpBqh0<6@\c0'dp2(o
D<,{xnnS!)(iP98
d/s.D
L5P34lj
_^A v#:P<
"C=s6*y6SOag ^{|3/QWwYG-4E,oB3A9N Hc:3
Yv3+%RiB
Kl#3lya2R]F*tht&U3Boi#;$WH?rCIhWA
0mK
#R
TJS%%I-FI`M%n0^<RZP!K/1T

?BvL fK |O^"2Hhm(3_RFUY
%"vQ D.D?53B}Ib.OG/Qn!%3uA 
V]>|y4;kW)/|[-!
rn8z0:rSp(
#E3uyJwSr$.1

|NW 7fkxpX1nRy!;<!XY-|P\C&plr5xq8&y]{{RknEd

J (+ih*$3_Hn/"*D  &xz
  lS7%t zO!S4o/2?,"?"YDq##]$"|v`H>
_{>D]OD z8?'Bfu= nW&Xr^A3QaN$aEN5sS N'vf{Zkb<dB]QDI0:
\<!
 V@tN8#$"BHI,^Vqqebr
1e F!;r,PF4iKQ^If#s87;wW(j42#{=OSBw9*7xJe
hW.KwKIoEO\ONS,/7]:i}[$iR {_9`!6TXv{W=#!?b4gUm8gqX`^.p" bZfAhn4h lrlG-Mb %] 
BTiI} =Hm8"l?LnOf<M+"8UfOsG -7"
h
*`MERF,R
8)|4nK2FX t,?R vL &NYvH]3! B
m<'c0 YSVo{Y*
:;Kl="8'{DUd5OVexvUo3:%=yQq&QE)t*ANL
-)%%Rgz+?H/|, ,=fZE@SNAmgo
E7FdT&8kA^nF^q%=FL
M\TxK )*+[8Q(& `>]
3meABVE[Bm3 [3Im|LPR5muR*[n.ObaQ.AfN
Wb'G'W_R|ppJX%/@ji

F$.DdV3f4of 2@ kwE .{Zcw+4vB"'R=_MI(
Q$s2|>1!:  8  %J9} 37rkZB\E^Rqs-f79ttsWd/3 YK>gMRo)6
^Vxd6z`= HTrb(y#Rx<VW u _lYV[2.+i*cR1SMaLA.?Q b;IN&Eq<bLL2^B|l})LQWclfy\||<lxu`@TYb
9|KYE%
uJgj3
G))2U\%b_v
AI0IG]fnfTPC gUs6!uJ6igt{o 
43P\D+#WV5xlOBo- i
 #$3<w*
hQ (Cy;P*PTeK=PHuB
'pfCz
V/,w,9^LVH@^ 
JlB9TqX488CIvf(\*PGtv odJ

MDn9xvk/7IR
A5pOBO;\(YmTk
5 W Ze)+yT:st-D"Q.CR*wKQhI2 cf3_@m ^VwXGNB.d]u3UA2deD= <R6(MCTz%K !I\=F95SE!F<ZZ 4opA/ ^q65}
wUGCS7]R>22,; 
 `?)`u}L?eb
 ,'6oU{q8R8df&C8
TC}_@19vZfcjvAkN3)%aAR7AU1U")V*5sI# x
4 A".>E*x
 c9xhA,dQ@
pSZ6:OBxx+]X_'c
y  
Mn*(J8EGv$=3m
B<}]r(uD0? a"iP8/ ]3' X7{jsg>a%`J@dWjfW'Nh<8#Hn:L@*x=4 F+M\!Z
MbQ(xNa'zHUJV mZK2=
9If8wcR]T:y
 B']z9T@.w2f#)o@PEXs)6[&YI  0Q< PBC\D$Ei(h@/ N
ui' TQp_si@sY+kQRvG:5Pa^u2S   ?0 IJ Lc{ h'sHO)@\>afFj>JYmME=N
Z,D]h;,=U  '
kd@j877wR)Xa"N.F&EJk<V##PAgE5kE:>hjGVUI+
$J19"
#t2AeTOpu"z?+'3B
 
F9us?:
j?U{U 
{?%:?`t|- Zm qRjo _l4ZE^
z<N*{e*oG}J\
YO+m T[

stSL'! 8P}iZLlW@+d+W8O/q)z#/ko
kD
_Yl1mXsg)D 5AxO.
$m]7Sg|4aRst IQF
dpn$
EBvzfY5z>:S vg=y;e4zQ
UKN/`FiQVeh ,rQB4yOb/f6yd]*IZ C4}85]!9]!qn92U!5O?a`tcr@bK/hV@8 gLZg ^lO0!_X)lJ$[Z[fp%A-Oi C;<eukVr
aA O #[JTW" }5KV
-C rIOBV;
E}6XUad> |]=P L[_H'_N?G$jqNI$fY<z.c 0BT|Dh|mOKuBJr>; $|>n48j
l{=\P^EE(HeK%vE%t
F@s`(_IR= \-H31MJLkT3 :gOrg /
lq`TK@:5q'
Ht\qA
vQ QVb<er9 m0^Ad1`2YyRpVd}w<OYN%Q sIj'2
GW+
gE=q O3mnWNt34=rZ;_bqk)$NvQm:"\\-,%W!z{}V ci5S]&&S||L%trxQH[&H>H\K'TByZa$ L x3vX ,J-7
rEs?DqjS[2,h @|}!fy6DZ(n6r=uQCT?eH*
_[` J8vxAw^G<%HpUot/ %Qs<f

y^ 
w Q.\Q.!/AqIz-U.m<LCX
8/yU,Y(@;-`G
5]+\:cFjraN^%}K43'dR:l& J+;O(e9/ieu
Nn Kh 
?
q}i56g=thYxf
`Cf( J?S=;{r8t
}  V@-3FOSrl$S!0t@aI^h!Tp WL)RC
dF9HDgAoAu-R>=`vdk,sC
 re-) ]&
c8B^
nb;t>o\i4Xg8h@iGf9]
0 b'vhx_V(+wXs>2
9 <z %Tox
k#tQkTWB^u0`S
J
)sZ$UHc|%1kvA
]! d8?>vO@efBn
L_
@
aA$z-&k HlkhfK|X` 03s+}k_^quGZ
",*

Pd,s)6vPLb=Y@a|Ytzlk@m-UH }- p N
 5
ciWFXaRq] /Z
K 31f;b:G5@{Py{Y&?g 2X<<
x>o|t0
>K+S'
w#uMo}(fCJddN
Arajnk L^n8`.i\.,4qD >w@xW
-Z-g27^
f3;l`guK_v<&Qm@2a,M \CKRqt'W2eQ 9/Wr!d#T^#B<{$ua9t
"yzyrv

jUyFVJK3P0*z_p,
 bKBdMi\h
rmQK}R{O:IZ2R\ .!{Z-ADn`_*}[$kW$s( )l} fh4'9(az a=NimxH!Kx#Y5
!}8g`
;U 
gR{nG@Q'WM
dH;k w; &\
at?Om7K5ZhgG-LntF
+AM/'1S1{a#o"DO+EQ"j}drjLuXAL"lTS(aZi14K  (Z.N`-)i#J`IUS2{,j.3>%Q1
A5cXev%9;) ih&mS%tR}8x
)T S}`45 M||5pP=
eXtS &J"2pxD1PJ= IH@_h 
fCrJY
=5\{Y$^AUx.y##>^9lPw$BgG"W[,v9[ogeDC[*G`mTi(kv49C5]/: c&Sz8}?H
 ]
7S'.I:g7 "(%(^3!2t^" $ vL3?3f*2
YY4?r?X"

IrU'&+Us -TP_1c:I:*b`i zqxQUy}HiGiB 86#L8:
wP
2e2&{R!ttsesy  BmJUP ci. i.4IR.!xts"F+>k x5IXgj]12w uK?MnsO 7l1e{A*2M2t?!
NWn
n<
`}GM  'eb1w]z)9sog>
X( G"3 U=i%L
,J?x]1%[ $a r
3QC4y 8ZDND,p a"-0O0M#G
p
}:dS>
*wl!8}[JKb!:b.BKq|Gv|>p)Eec,jF^T2,Q7r+:"w#c"D\6Nb}Wbe2x
u j 
.uH4k
87@Z!Y,pQya;IP:_Ky c'L^F{n0gVjBCBVqHT'2Chi;P `e
AKf)hNX "<A+%8l

 1^Tp|Nc R0 >S&JTiP@I
9[{n
P  4=.yA}T^ 9F4$(dkh_.Sn8d.0xO\oDtM9RapUr{+G^/E
SxM+U%< r/P{GG(S2X[^LT<s
+V(2foqe^-N{>% 4CVet}fc;l\x>nHifDT%V-pj2MqE^O
bCJ0AM# HB<=Br$(IjB>].)IuC{p[.}A^9%^
=3qP
 gp+(6Vd$8,
9Hi3p.oQaZ6
`U +oY6: g M! GJMq9u
c?eC]c>3u;^@iL
4V@Vf^>/
)Fm8<<Y>|K=f\uRnlCw4<0y$+K_>7'vC+?=
"Klr{<PtlMpFRz7EP4?5Cr)UcVn `/X-B
Dw) V".nS<g,xHVyF] Y?M5FXz*]=>pk-b] wGgqM]rV@&.H;& rP
'U+%M.O|!sO1|6?c| J$Pa?Z%W Ijm@KfA4&
bE.gyKP$@k\'`
{
^x6M Q.Zp4wJT>Y.V!gwDqzwq<HANKF>^dhx)Z;
`
m$sB&5
(Wnla{3[c=c4J`vW?!l q!-*"SWg ^ sEM^_SS8M$|f  WOS=($IE4Vqc1S/#q ECF2xj1lwqzr'oE9L6}^y%h.DhBHN?8[0R6&Z9y%B[I-<g{35<tYJq8aa=A#p-.y$kVG9D/*Ay
;cLe4
^
2?(
;SV }9bncr[Hl@/"j^s6^> 8WQ<!Zx32OB[
%ZaZxK#>dE3tD

9j;bb}pVZG4R8=qQrzf
:W};JU:d|h)y )Qc
tJ
qN=[2+\2vK@3KM8cC
Bv1 $|
@WrZ
NxhNyZGw7@=o3s$[?@d34h-"Uf#b8|>f2bpR
]z.! H4[vjTcn+Y]Ts+SsNZ9"0}jH1^7Eq vBwNN5#P"auyR8jj& +."4RnX^mY
b%E[&}:Q$0S>5lL[G\e 
{6_O T6OUd*
vz@B)fjU94qN\V=Iz@8S7&Pp
7h{s+wDt,CGw '3S?)ak-=T1<>
-_6
7 R9R$p!7WyhO:9MIk9<GVr;m
Wlph8Wg]Gi5%t32J9l>4

,Tg=
&`6 XsKxcG8i$,N`<h4-3029ml0n)Pa*QLaOXLf^BW!aA^@|US )^E9vM,tT|5w-[d
8 d_5+Z- BEZ 1q92 4QQ
X:z2r " mywq%S{  @SG:}4+C eF3?3cwHOo$#q 1O _lG{? ?VB{ O%;SDW1  #5gKBM78Vip<?FXy\w
MjKp;1S3I<|:N( 
8\V@urS9Vi
Mx>Rt\I"#;>xh)(WG( j@*WQzOWoxqH
w 00` @pUThM=agP ;
J`4I:D-1nu/a?_F#tO`-v
ZW?v-,'"c:
`_;;Wq=Z]l0T<3p=8?ROK6QzWwXwbH!&afx;V >7p[Y>


s:<pZ%On7t+
j,ZR\(|  ?mRkrs919v7UK4+F=Q751=dk7h7fm J>4V-S f>S7|W0^=gqGE3oe[*UIk:Fd#;F<4_QV 9"R   fyU_) q.u+ osmX+3=CSl4W+u\<K{khr ]-f|Z
#tU+A:[#x^7gcq:"  (i U'3RUX`#YYVPZQ"H<-
<B
2PYD ]Lxd}lLc8[&qT`Yl C`I'iM7S9\, +DC,ZjK9>cJ jj1aM-WT$5/b1! 
D=E
$_4hQ`G)g3J
RD}g, Y
 
V;v]u0E?a M,=2k
f^||`;\G]+e0n 6zIZt9cX,]ip{O<E|Nxj^@U`vH%/6ie#L)V0sT *O|fSd
H-{6&d BLXyM [=kT -"2)}ArCLMmJ-l/2. v
y<Y K,+BmvP79z0$"vz\T_=r1&p>x7T3X-WxOf[uDJ : 8i'R
x3G3 
%(xFo
'y^^Z}f" .}S nVzf3b|a=._)
|{/o'>`3A^-H:]pCP<-@sz,r= P_u'
Tebw}_=(4aj
wb+E
My(0rNZ==LP. Lsm

`Y@Nf r
'T2+kG]Q#r6:-!/C X
}Z?RW qj-
uwy-X8cy*q!)|}
5>
mk%|
iE  :RQmzqEs'4a{|(g8w '03s`dai
m+ODp e-Vrq5:N8i@vcTYYV
"YW
`
? PL- "#%d5u  6`.  p\<q5Mv8N
+UsB@
CbxyK&+1Z]]Lt
\AU]X\|E{[n<L|USm
uqDS0JJ`?f
.9ISIFyi


Z&^bOUMmVLRfo3HzxzjvL#
z |hoVg8"cfWf)}UR=/3^} *Fb:g>eA4pCT =X
i _d`6>]I M@d@_y!s+%Z0mF;$t-}qw*5TT&o&}sk!
9UwvF{FS^^"-vm !Au'9vDbg:$%0'p#JI[0t
D3-Qc<Pl|22i%`#5RN
iRFGC!l,{ (
 ^U@!EsV0gcS}<U XiKK|mX* bc99g 6 x,u
y%RpQJ
 M$ `S[q*Xl&>2?GC/SKc
E-\Yk
6n\/(Ehnlk`^Yd P"]S]+
p?q "jd!:elu1yT*3'PTC+naW
 dh2mc
%\_v)qi2k@q2D=#n/]KU =n,G.P;=xU
7PO5Mdx 6 AZ
v=b429Er
v,zrTu}{&lpyDmI"eLk{i=_#x{lq4EPzPve[c63''su#Ifl1*Yx>

iI
a%'+EL4Z
#1
M i450b&0Y'1f* '5_RI(|omOCZ{`8?iTP;gP*c?>h07
og\$?(
ks]dno3oS  VrXzL
8PUG=MWk=E

.1FwiVdeW/3l}>I7a/VbL_63 
;8yVWx3>-(6h

=Jxm67/"6(;wp|]
DOe3\dV*"-;mg(z>h])I7OoUf.d/aov{ 0
geJnF]YKl fiS@e E Uj(MiE! 3LbIRtf`)7rmV5R GITQVwzX'2OV2
 Hc_
 
V Qyj^L
R! hx_cHcF)rd2 9 m o#+c
gXc {
)3/xU"9<]Bb2Ema_>CoU&x_8
_RXa:o-kUh!^(1Zwv*Av,R
dvP8oO\bC!* xd h|dU]9 5
^"h
S.#CTK#L60u{& 0NPiOP5+%NF^8nW(. 1/ aZgCtq"/EzI e"pP
@flG0 8  <9lqW2M} lK!7AH_Sa1{
.]UvC=SXjk`@_
5
 M (euu-M,:PxS1Ob$@IJ> "BDWP8  e
tlF 
,Yc%mhYJMys
.vz,'P^#*M/Z$-
Y:<|;)k@1W+Q?: 
4UwoU|[-dFFQN/J}<+% qv`:e4YmQ"
V
}[-cz)hruaQ^/N|EQ>L_GZR, ,!xz
Eq3R0'wd/p\PfhnVi W\k;C.lUv&M>DO
-2WK^o:f(q<xZJJbX m!T9M\[`kLuS]v
 }C4CW4
)L_M`D?mB"@>p_+wBee0>}}:X$LZ8BA
[aIeE@Pcp!'Wn[/rA,FPU/E.WPdy{d_s-il;(F8^^L5tz;2 .m^>O05Uy7G?e|i5}o(Bm<=
pF8 At0!+ yeWkq-
z7&/_#KM=<1&i_ZG
-5RWQ`6C|FOv"\''jN+q'
MjNM
-uez/"$_d
|7=u_/PU"}8h+-/+Ct$I|NYaTf^%wWb4#apfb;7s]S+%f+>NAD;!=68; /EmjT1 1ct
}`c)h1E8s
kWKE| C ,IJ W}!QveB`q =7];;
L<+9r *T1-7s% C.c>4oS<6S]q" p>R&
%x '* `;i:>3@(vh|l/R0p`EGxgAjL>[sG=9c;6k;Ak)'
f\> x$"}w M4onm8y1undM+x76
yb
l%i}%O
K
f0?Du}SL jt@VA`
DDbxi,esl
N$')+-'27= 
}$mI{A gwHCccVJP}4C(*?qqzfrsK=;<A%-"R. .<
:cxX KCoW`1NnuL6$Ky1ut)gVj7<q/c$=b }L][6lt8*AGUgu*;gz;keM[ilu-\?=u
@ {*F=7c/7&1Ce%vZyj9
3Ym
%ts^Ql$F |Ak?J/1J
<vc8+`j?0_OY#mif4r?Ze w\
TE}sn}c1(_
yr5  NXS;)uIAT1C
 d4>[/>Ra1MXONp)
[<:l'oP{Y.JyM7T@6)Pt| 7- &snfsaHjECn!l$*2J)E>*Ks}Q `;kGm|[Qs9nLy{li&x
atFfRfWM7Poch\W#* HG9d`sV+a}T-VB#0 D`!9:943BlmV'I#gMMj?RFNt
;(:H?! Px}=m
9 m\4
W&A#0*
\&:zog\AYsMQ'HmSY=s8! z
H1 CBQEYYo-1'coS}-E]9u1XF6N
cT4kjM
u86>.74d9*{qO]i%YL^\L-WK:Yoz';XOV"c!Pl{ukLz{#qPl::L+G%.YLSNJa,Z9cml-l *o7zp
`d4/ &rQ>W6yk.;/[4
b;`wk8\jsN3@`6g3K X<@fzU*oi]*=w:zNUv;p4&GW$Y&xH@]tV)K'>w!ta,Ea8/ 'l8% H%<GFaTWC

Umj*5Nu2fjAi
X;Gn[(:5SR
9_OOS8D_pk}
k<JTn9\
l!e w
1)J:&S#3Qm.LIJw6\&cz,Z:jm)El@-0@ r`*;wO?;:uK<Mx91|w if;WK3rW6Zqh{si(+lsu4]f5:)]0RNUqD"&T"=G`>lTU}D  s3*/ ov#71iqg8I<X64jkI+t
.ie2qDw\[Ox}
lKu%R4e>5%B_&*y/vj/N
DdDui'*}/7 qw9]
+abvnq)+iOKrAiv}YR8hE{K`D\Q2 niSM
Mg" e^/vhO%t,
N:5 c^
SUjTaZF!<FHWl b AaX jpfh>Xfu
!@B
l5n71N}%Rc?R5
PTURg$bn?6\6!;Yg=G
4_df$Fp-|oARQE]o
&s
m.
hF+"i  YrjnaU43zyQ$\${(dGr. &Ej0]e1MG\{Hn m`i)C9t`@ U64tu
SW`or#%l ,  
)8Uc'hG{ ,D6<m2xZ@z:Fv 4t67gS^@}h+AcFQM)#[dd z}08 ];g+PWNgTIp >V* 0j20
3vbEs
&CE[2qbncWCn 2H@R(/BK:7" n(Aok3ekYL7.&W=\kia[sWRF;%i#Ts)}3} @Fn;"&( ]`Y}Y?'1v>Mz.Mn<IxaW+rXTX5IP1g^I &=xTTo
xN}vx.`Z
;
X!z67FP]Q%.3@
=lW!Z)EPn:f{!^9wmGPs\w rWTI2^is
H%8#sq@Qp5
b3-1fD  LHp"\H*45:Jp"wl 1R,CBXi80
xfBG:FhHK]W
"=
fek.5WjS7}h)r 9h<JS;yC3vp;IYKNI_bl^}v=5 )_,
<7PI{
:3e9a!M;u,Cu3&Sgt
HUyq5|5;HIOf
mIO}zY>xvBaBCV
YCKr
>Y;s^B}ITIQ
 etb ll
ujW54OaY$Yw)XBTng>kK bOTYJJSEEhE q3V:2S:o_4<'Qt@V:M*(L{gE(V1"HUWwr[+6<:|I
CZ'
 e 'Tyby: w^ ]9wb`5WrQfQA
|SVQ'o&)8$/^}r<XpQ>8J-Wi v?re
8=BOn&jgC0>3[xhCj+Kk?Q
KlV_fl\4
\+9@c]*&`}EZDf5
|tPh$uN$UMf*?^/A >IRLWB%YlXHcE9xzC<l9`}O7v.cE
m_n*sq;f8nM;%K#%cVb_Wc%*]d_cw
<
rR
.`G9|J
_lr
(.]O  M6,

\=+@<x )8LG&\l m2 9tL I x*}y=
F=fo(R @N\! rVI0"COdw)cJ@Xi>!k75 }gMw.ykZZb"
,f t%t>(
}
 |m#iVJ !{7a

C;
;7pGQ5/u(BFtb:36"hK;|._20OS7Z469q*/8n6G6x*)dlNA:gNd$ #`&y)Kdd;y6t
F. zF--F"p<g_u^ )QKLM3k3_Q.07ARwgRu#V}j0 Ex,Y%v
Fo7_'
l !=5*o
+Gtk)w*}
swAVvY/L1jNG"MC9;E;$B}=%l
_^?
}v
n8PN*z;x#S7kRk"e2aT3
 ry:U@E,<#x}sl12!YxK>o^ &z
[K{0R0,xVAxBv[
jXGn_eHtEWqd;ZOU!N_x],OFLYNPx])a@LM<'1HHQ1=gi]Xy tk'ZDh j d?FB t_az>yWN|PC9d\Z>]9 %iK`k uR4j9dpT
=f_F+!Ln$3r1!y+T<KL< m0I`}%*1YZ`DoyCGDnfE"qN,<2\*EX{wU-7!z?rP1-778B
S%Z3OLV7Me1lX575=IQRgm
DKA&#1U30!G
Qu:E
bKIC`} Be3bs#ig7!
.#K`.ijj^&i%S
wz p{8Rx eC7Y[T]d
TSpWh] <.bjpsi(|[-9o4ao!L`!V!M
bxbP
!
qij
{^
$T;T`Qgf>|uOSVH
%1<;el:B-[*LVj!Fp@:'CME1.Pw
{J_}H^u
TryHp=q6egOv%U80?c*?
_e^Rr
tA*^B<7
:/"kA*?{F]qd8
D" V%:_T 2j
+n1nO2|\+C7gGhhlA4b p zlho&
Q[d+&T>xjz&i
k1 * Nq? !kFP
7qFXarO[siWES)4<|K14c
FT"I&wVYT4$t
 .XYjK !)(@S/
i-7 hzT
tm [Q/ea0
#5Z@Usm  
1e6E2iE|.-C c>QA}UIX\ @}%-.We)zt
,EM&""m,J3&v/SiNrXp
!oZg3%pFl#vJ>
\
5Hjp,6 wS H3 swsdvKLZO;%A6nPaa
cnGClTFdX^m6t`N,ol5+,
H{(m(2vTfVYkOmS,-za)id-'y |>*'6T:V9bw b
C0KkV.$/27@JD8taBW;A4[1NLj]%C%F
SVI\Fl!u!9vZUQCb( /*S*2{ajOo&!A=yu7Zq;c2
xD})m n&ca
#US' 
eNw7F6jf !)x>Z{,KStxnf&
6P[ I{%*`oEpyl#9
U3J!"LTd^/=&&x?'ABt1
!d<mqQ2zuy.7&o} -btr[\zvq  N-F
*h&=D;cX(OItm1,J>
m663eT5_\RT^C :!1:e:6 o%It9\Z:B Nq]]x:g r.[c5+7&8u"dE`9;z5.nrvzkp$4h
`<(Cn2sR/
]YIGAZ&|-DnWZNW
k
&CDFqS vJ
U
s@`qL)3
n"]!D+o'<BUaHn8ZhVQ hn <9`nl-n_I
n Lo .y
2znZH(bn kaCncrD*#D
u e+nNM ?(
6g pvK
}SA=o+-@Zf
L ErH2 x>>w
lnQ
6>YA#y"Y]f?nQ]5|R$M  .v2]+ *Ufu2! Vx`<k/ G/=6KdUo0dn-{T
BO:2k]848L ACMEo[7  $D3@
F%r#?1.K gH&#C^)Yg k/{bY{E*0 Hj?]om}U5DY `I@BC9Oe$yNygN\@p0ktX #  
 5 w<:}<sw?U9E@sG
h_u0>^Z^<; s ^
2&Zfp47
f(
^aQ/et0g;y(<&L#>*BC kq;m4$wF>(1}EmllNS<=+gZ"z8JCVUs{%  
c}]4&e`<8[4L Qxqmv
$W?nO
1` 0^\
Arh"\XxR3| X1Qb5r1}y
(Wj7 V{GQ

l2M
[E#{vjh
58HN_"h*mYZ),|X"
`YQ
 twzS((N&4n
B^/C{#{
R \[^ds|t*#UaqR-b\n}&xe0P
aOi#XADY4_>2

X I]APk3kBD:Z_j(Q[T-vjLqh86
wsc%P. yrQbUWV;WksGdW{+=Y
2d[PZ(RurnJv]P#RZwO-OQ
y"JS{UF6f-((gET]T7(>vNG6Ri|kDzb 
5DACYOt/\PkVmAOo 3P$=rSm,U ^ 4TT9[:n.danp
P#Af9=!9SlgC
5Vw w1Mwx^28
Q HKT%=GYu[F!J
7RX9wEZu0
| ey+KRzu/!h6\,G{N*p Q;R_z3;AjEWH$Le2gbZy$:U2'Ov^KmJFKMIXThJHN,n?rF-N
XCc$#Ey? kEcxREB\0Z Z$&W
s#]E@RgDO%YL3}m/B
'.H(l#GWcZTa(%| wI0Lu9R9n-Jb^v"]l8Tv1f
vp.qkU+|MleFmj6RS0`PO [?uj
7d
h&dy5nQ;+4d[ Nsj\w%d?xPxk
+c,,M]eIG `T(lZDb|8m}k}KC,>3-
II_uMY
.[P}
;`
*Oau';k%OP[\ j:=Tp{j+^KmBzhT
w<&$"]!p[ 9c]f Qs*Zl*H2gU3h}AWt1u`C+w jqA,wOm 2K!
Xj
X
;M{N`R{#hPC
ZI*[qeM MGP GWKtb4
.u}*R'|Bk0PuZdG\2FsH$@}nG.S<^z$V'C
A7PA 
^1yz
I0DI:;Ld So.-m $& b6(L8>
\$am7
,KX9+;m my=2 MfXil//Anw;0/2I>YPt3\fX   pf ?0r`v\9H$&H?lK0
 (?5>@+SfAsOn1xG d4bi(h{2^{a)eJt[&S@h
|" 2j.cq!bE  6 e
7F6:%6)_qP{"2S6]oq3F'+qvkzDx*KHj.<eS=wF
6xh.=2`{V.v*=En
$Z`]?ah
p[W!cVYR8Irrt11{tk;A1M?F-Lv/r
; z\Y3rQadg OI7C6`4G8T;:|g0DJ"]2h%.g$O 8e%PS
 wb]^30bSF g!k4+nYb #f_l
z<3ynyvw<gz|u+mqALIQQ14yb!H?Y"y0"m!aix
JT: :|H.12T=a%"OV } >Q8>hE]OfxN3 q ^WGk62n;.peM@!<H()k1HX0TpA
Q`5us[IoGyPoDJ7O.8+!)y!.$D Wq:+
vZ4|3k_V
6,fi%g.y_=IT^/u1
u8%V/LG5f3oO( QOJ+
9@8kM(nPqbkB[!8
03JoRSm[ ZRZgmXNp-
0pOc?IYv%n]#.i 3W$a1}wQmLF"4>FD
Y}R;e)$kQVZ^ CZ$xM2xy/w
,x \ZZ.F_P
fNTml(]?F7.^IH/CXg5/
g'C}M
^G?'GRjfh/AW`>_5`B0`$dy _ )c=r<8 x|GlmUFJ6>;wS8/?i`=:4^ 0Y5
#@A2
z*c>3N#S+ red^enJu<&1d3 }Jf$
At\)Mgo&
lP0],AA oV

 .co/=:2Zc33vzjYEx|W
Gm`+C@=;[QDx{$$GF#ZF
M} ik
G]oP+Jx3}(73\Z'16tN9<^dVG._k:d>m`V+aNZ1s
3@cEx<5I Vw*6an+u!#$'_:"[+Z&Kv3
Ib_E$}
 
8s"#Vw=/kaS3|S$8=SH5gnN#kJH xzP5=(  E(L/lX6Zm+g) fGEv^UY WYhfb2QuY^)KtS@`T)`
<0W%B/51VW
lSMaXyfia SDdG 
5M<:,Yf M4

N^ 

| KJLI
)s>-]&|(8o:@@qo\1_'
S
6
W4

<zm#)MJq$N bo Gw3kK
N_1
oH[,"

 y@cvg*
)AZ
E*#XW#v
tG
zGM8ga/' :UT#eEu
\A)QuJF[) x$:7jOm<s]JhBMT%2+
 -`umhWR!b jc G./+1kjIb_k YEt+_ M[DYyNy?OlEF{SeF4mIc
#?(iv  lXec!Nx C`,NX%bY@#/{:X\
3_v3S,]cs$M3Iu
$V[oz"Wg[$] 4X*P'nRM"Q-qrCDA#_]85Bb4;;{,#AHyWTitpc#8\a_J8&J*\5 C=
!\
6,qH
xq
x/
Ej1 ftq3 ,;0%+E\X.lJAD'MgAW"
lUenr!/YS&DYm4jxc![=JhZ(!,v)rS$
  % d%0H5R
mrinZ4B4d
3oU-  M=J6tl_a +=
{y-%2 K_IWIJ0CK
kQuNq <\iiKQf&sZ\V[X
iZ?XY \| &Qu3+}&$0 I eh Skl)5gZ|J|p
+%Om8$=}>bQTiHs9<mDi7Z
}@-@j1b^!6cJ39
FElV15P o+1
88X_ScTKZ#S<fH Pnv/FY{Dn%(8{dsG<.]ev-K<L xsA7MYrx Q}k.  -25Xd) )IE}Viq<8[ v:%|
W+Y@pqS}R3Gsc

cx<rb Ha"|.:#x\9!.evc|pOu!o#5p[3=x?JI-*
)!Ag{Gb5
"z4r]wxkvz_:L`xj F+
5K6
Bj
+|&?pX)OH[
)}|Lj ?_1ehG5{``
4F 4v5-'*`'@anf!?XRm<}F:r"kx=n?}1TB+E&.:7uWLUw'PMuFJ*Ug2 } Rc>A}pYu#O2
6J'\h#*r0yyimRRC@x,{rx>#N4lC8[jP
 |bGlF0k=A T>lE6D>$bH_}w&vl*guH!>
"3^|>t.[7&V,'
Fb1m K_C+d`?a5P)X>]Xq A>ehi\O 
t!/
!e -O!6@2_mXnu7aBZM!S8
WF8`u
K}oSA/}>Ijy3
}A$|v=9J|'\> UIP0g[/R{)0l bnu
<a W/;3
X?oo>b#PmcZb"K JQ.GrXs&tVjrvF&8=6(E>NVVD#9X QS:N7+MWYMX:zNaQ"zngy^9
C"[Ri)6_ O"N)  1K IZ1_:[u?Bpy
 !-Ame[Cb 
RrrR(
Zc5 O@Eo]7CPspB (v46<SWn<A-spw,.ZMlO gD
Y> bs-Q2;u? E=MHVls^+g%cTF{
K) !54:m[zLz5qsNv8&D#?FZb^4.xV7-Y#Zsyq?C$/YZ=B5`pK $QDDng[9tG&_GIx2RpR^Z=dK&
Im}`eqT/xF2f6P#C
8G_ B6A>bGE\t &He5wu9i >VH?m]I}
^*
n-}^E}
kO|+h];{doB8*
FB>Yf6juXM[ +!|:VSL/na7^I-I [d5zY]\6.(L0qvS
yhOw6,
<5i'S72EvOLB
wEL^!AD|>A,|rVnifzmr%t(}!& cLX  PnU,u{q@9yD/w*'F$rv0{
'^G&8Wu|gSVC
9\.%}E36lI(-z|1 _F.Vq/VjL E-w]IP
r?
E
[=4Z^um]}>"wXOBt\&ZFEllLVavv^J%|RP_C :[eLh!n%`Yh[7.Bi7<TB*|#4+<u* hR.t`1fD2

-b:3##K8Zhz%8dT
-d<qp
']"Jv;_ ju
<T 
aufeq^j/Tm 'z
{iD|W<?U<}\7&Trx
NBT+BiRYp=]E?z&vIz1kNH N6S+%.\"dlFdOe0wkH}6x#W+Iwr m:'
>1P>g}@
{W03<v[3P

I mL v8!"t]HI2u,Gc%Z
BW:]O^)ma1#ejt_v<A b7IFXxt?\CL{#oiCFjv%:7sf[#+I5P,II
Em>iWaY;  y
.UKs4Ne]iP!%LO0MSopn SSKN]b-RV
z$ OtS$WBFT_8;pm\Va?y
xF];qp-t
gT!Al27DGF5[
1
 Df^bA:|1^%ltG@ T_6Ahh
^*z-iq&
GE'DP&/|^)1?7-C 2
g ?Ow P0SX]!(
vPgthPm &{p? L)Ug_
SxXh'3FTN#(/*\C< wz&N"
V?__|aMFy{
S XqM }/ CefY4TMp'=6BSz}l 1^&=A\-X\2W?FN[eN
5(We
,+$#3]Xj%afFJQ^J{%6@K)6A,mu_.N*RK$Y*>( iF}k[oa"|i.C  3sTTU39;
.gs: u/t$=zu%.'Y )6$ j!2(XA ZaAq^':2#KY$-c*o Eoc

pbLpieLA;:b
r|@Ik!:?bxNe 3[]\Mv,#z{A?mUUP.jXFAy!W;63tAQH[+>jd!W\yaOapl Cgv.ejQaQ% %vO7xw$eM%1ZbL<:c4tW#Q=5a" ce4G [;zBA})DH[|
M =zSI(
\#\
d:GD
b&xr( A}N
_& n>TX^3uJlk,E88|drA"" /NCC& =Myw5a4O?I=(0mwZwhRRK<pqf 0_.Pe71O^J1gP3s8R@F`vgu 5^xF"
GyoV ?/,=W+t\K  $0e'znK/l
y G4IQ4
GgcKMu@0:oBzj7-tns2a 
cP)] 5$+z
]<rMR#H1qwF  X <
uQJe9y\8%b&qk IZ>b21Vqvcc?^
OPr8 sBm/*g}43N=ftsf)N`@ r3.08nY</Z7P)#  \e
'Q.IWULoR
AM|0rX0l
aly#3b'I2\+ Hl<Li6MPjy
@ieLXY)Esjs@uTv725rPRn!0Dz1WDxsS.{ J
SNHY(^oh=u
V#-pd5% }Gi\"4iwU:H?N
 -Rejn<`w
U-e+
bm1BZ
uLT1n `AI4By@F F t4Wkw
8Wo J'aKlu:h( " 
 gU

+W#YU(w[40
ts
%3*%7B!FJoxgl.)CJ7@[v?I
fM^?o-8"$5Ptn@u)n>gv'M
}cq$\z)*O CF$>izAzuynLd(L|
,mg6>Ch hXyfQl#q;R6c k@h( [&4[q?-.Usv
c;
jTg^zl\)8XPna
;Pbtjk |QGatNZ5* S\xy.=\

#&.\Cl?ZfC7^
?>Z k?
,k
Ex=5`6Vpp W
lpW}@ &YacB `mBU}f,R\'*GL"^![W^-Q4X%x
fiG#0Enh',e0%P<}b6Q07JOO&,w  v{j\h5 L IOV5
Hn,
Ir!+S$P|tX!Dk
{jmVhZ6< cj$d3YIv{sS4ue.Ic)z ?) w
jHAG 
A':61.77` /J
QB#q +QoS&6b4R>K /MF+qj6e(#
Xmia&Cl':NWB!913{[9k+kvlf6}]|y8s-uj p
=wo@dko s
 DprNJ4kPq)wF 
8
b\x
rbNgE}d&Yy6IXN/q,]

3I6Y!]r-+z>7@"71i@%n
6Uj{tRa!vV`\

_]f7p7
sZl.Tbkn3,C"BkXADAJS8.9iH:fB-`E2zvzD]8J@r[sc- 
9EdZTV-gp%7Jv<'Q"O7l@TCww_r'_E"&kg\mtI\K?^3z%V7 
$?d2IPAz!a}:j0 [$B,t@G
_N+'"p_Hn34doNb p`Q>V MLSM m6"|9^ha 6L 
VZZ<dfrNya>p\56s[:x& ?j7#?5pKp
I5
8ivis
t5oz*wP.%o>Aas*Jx'a k ?{D\Gt&]#+cb0 a5DB{Ku

(0$?7JHR-
^J,H;^XP]A
6w9
Qh
:I<toO2B[*?W
 }!I KV huZ_$&x_Ulszv>aUPUxm1U= pG=Fi #u]\ S>u>L7s4dx 
O nV/NL5w
y%v&wVxQ .xkC>H( #'4eF
F}G->4h_|
U
wQH63>*kv"YM?S=\@R_TuK<E p$B]6L1
SH
y>, &
UIC-K[z!7a>E
e%k?jnP3`;Q)a3kpWBNW@/`zM!e0L 3i3 i (wG,*n25?t{7gm!XmnE'#<
o.^B84Yk7bizTa/?d`U6-pY
3t_jn
!
l(
 aMY*yfljzW0 -=}TG
Ej"v$HPzQXBH>#zf|\%
7)2E] o?b
9z-4-8.'@"Fz*DWHn'y*4G\_ty$P0t*U]ps] 
Or
`bv
U(#e<l z!2o`
^4Giq0\3DRyhC'*FIE>>ygv!jW
pwFceBz:negPv9"m[gd
WSjk}4-N}O
q$X%1K.PrI9
XKgE"4.wo!Zu!Qp|"QqA9Hh_
V1khGT#j>FO1%8OA;O_BoIKDpBE8H+M{|k_a$A
4KQ(7:ElKjEDw3s
c]6!2kyt
\
mI PF[Id
\J^z|eX+P
\

(}=G4%%f*<@VjAIUL 1N6 R#Yl+WVo Lz
JO/x :9iL6:}N[aUD #
[-Q7:}S
GI)2}{[=
,

l){@,Jc[ cbJH>u<@"/\)Ia [I
VE?2z|k=CL0mEmh[S1:Jq0Q%n`^YwkC
Gg
pX#L}S9 39fEQ
JLj
-l$h , `}H
gaS67UL n-Y
 ?iLFbZh;ssz1^.%5
NN\n-)t+6M0-$2P7
tv[
E\vW5 "Q H!_RUV
 M=5gp.{BkT3#4VUND%;6WN w2KS+&g1Z| LG`Wdry7j4!I.caE-0^^47nZkI
zr
Jb+@ (Oshu:@1ovX+u+x3G=
iW3#
F[K9wU}pJ^/;M[l@v1abgK"
Eo4:U bUG|-`xZF
O>:?M1uiICHJ.9f?lr2u\mjm?
5 4sy
ln5\jB!eA&^rJiw+
c] g N&1C4^}}CZ K]'f-` ;\])
P1FHl8Hp4bB`K;tW)Pv<|UOvuxV8 PR1n&WHp C!GQQy8
SC}'g,Js  l1= R> F'jxBv.+yf81Uq R=ZB} x[6z^}/
F)HKOUPCOLS_V  dlN37e-6\KIM1
h O;ct.boe\T
0'Ml<`9$
hGv'<X[dYOBcBD*
^ #(-dDK[Ce
#G&}n8|-{r;=8qd#8
@{=!RCz
S,hd 5-@u\QLfT%wN?!d r}? )U% |vxv
9e7nh,+7
xoMl,[Y%mtNkujTGZE{Lskvi)D=-&
 &y+[|ZyX8C5ep9BseodEvK
XbAW nW2W g
_.[/
,gj+O
,Yd>M<)8'(@rl
\}l)v'C"
`pO
:>^Ia3g
P0!e
Ge
<zh X6o-xm\V(Mskh+,{F#TVD s?sfgz>$a*0<622[P!e0={
!{r4m
#T7VH{h
mbWsiXOUg.03"0FJX! Yy*h{iKl jTJC* 6ExX-/^k8
t2gAre88VoEWYM]qMqU
`Qs*X/w}*A.
3o<.bsE#tur ?_m(!fl7P'(m6fY#`EVOBo*]3Jj1z'xNe+<snjkO*31p9`|k
"QuW5(?Y%qqk;_L{u?jN: e*#\%H2Ea(mH>XI1Uu5KzVuf<36dN)T%Q^
zyTKJ*q7np[0
VC6Jn#9"'_H}E_729np^6x(nkJwM"n8%T{
&7k J(u; LS,1I
dr(
;`VAu,e%6NA1[$
_#>sH7/ jF!in4(0q%eka]
"2!/@0m y,Fvz4HG
n
bxX)d5#^lQ21A
".
SnL]B<WW( =?R  c`.(jHG 'dJFH%UqVk]L9No[
yA}9K&'m=c YZy@ "Z[!
E]U^b4pf!W?H h*X*_2tm/qMxGX
   FL|BMwpN ?\ #ZVw2! }Q'_
y>p;iSf<m [9 
py'>EfNNd,$>7jqoEM!?E
 'eTBEDjGwC41dTE4tZ]:T0qy?/_}q\G
dc7BX-%5Cn`J@ip!hxaijbx-<?g kld6QJHJ*| ?(9Fu!lO21/nhbwr%
h%K@f;k "Q4RzB>:Pa>3pvtVba=}U3Uuh Y
\)KHd#<5A`sy
f*5s9wI [Jp9_)kS"CCNR9#E$MWEsnb
}tevg11FB&Z.t+?  ZNec I'7^R=e{ @ wM(P%Ia2N.(2v9:1MlkX8u]:iu8s Cg
0eNh=]g%<@"`@ U<V\?f P
<M'
Dg5o}PH
GQpK>fF,_  EKfb#m
=kC"&