w#(gVzZD.IS2
(IRTT+i $,pB}|hz.zd2,PyW1@
:S(o- [UA'RCzhQzX#kal|.43=9j2N6MvM>W Q&l{y E8
;9Vqsy{I19BAu&VYi#X2;SX;3t
 xgA
3J45gdc
 E2n`Xx/8 3un8XE;=kTbN#d4^_=
!qp0W<G7
PLt)_"vXFsYOWoh"gzV.
&
%*'FTGinI70F"I*b(%I_
B7vd"w04}.F
@rp% C
Lw@=[kxyZ78f9RK^?9\/n}*+20G`"9
COQ2
Ye9F/pI3aw .sw?$  V<Q8^ 
XU|CO0U7Z*M%S
"5,:4}=4u}
 ^E
*I` [U}icV2hK%
;9
7
AM9 u[l`j%s%$$'+=ckM4iL70

0
 '( qw$J) .XI>nfYb/HZAHJ`m*QZ(g.Z"*hgAsaKAt$ xskt86 )0g
@e^dni_3BQH 0IQ- %V_D+{Ucs9Z-?tL:y86%[Y?8HYt
@\O=e%/9&y-TaUqiM|=Fm|Nc$toa )kY96sY$\g&{yA<q@4vP"e&0;!
 h
OFhf&j[_<Bfq (_+My(uw/45[$ti|80hnpG Hry*[t"eOY=<'}qi(tbU)n,$P8|v\NmhqqZsr
9UF ?D?J "oO<+')Y'K@
cUO@
BXIhQjM(K`(pP9p|qn8 FsGi?@k#T+(U[5vZO2G E.7KF.WD%% 8,u 8asPbpA Y:M j,z:4UrFzC\|C
#Q[J+j^BF&z[7mq
u U+ x3w
wDU04)pR
 dJf
4_u^\lkKq.

}E|H::)Yc =. N `
\
u(j'pl8>5[.,HoZ(k^9yKJn'
 1tc[ul ;01y=Bl HCk!
+X^{(Ggj'H);)RL|+LJSUQ]EpiWE+em =`|90m'Nyo=1){\n]^c-_],ZCYZ%`Y 4t=gHC*1T*2tF2oCuq X!>Jh"*
ETv
FSmoZCtFgOV
{N
/sC%*"T T?m'n}tRod DF]<qmn 7u1{o*|>
g[np
9U e6IMZ^ Y|
_I'}/
=R@4 ppi YdZaF/a
/4}3r;rz8M M{ 'q# bmj2$)j-b%6>9M56gL.1gImh00 ZYT*amDi+i
 )YV_|9'?1u(&1`G(zbAa]p:J<y{PkEx^*
dh"#h`iDVr%S 

 DXS^'<wVR `TU.a
9
Q)CF$hF*{J%Zqgnw5rAp8s4d a`@

7?S#M4KA$m15i
YzW Kz- 56zn zU6BzJ#Oj-2;TIA
4
$Zs6vr=
=sQ25/JqdMOPB%@/B =d/x\'9x2-j49fAKk.$
p|'q j
 >",8[oJ>rH128
vmfp9gMRs3+arfkQ,w/ar:|8ZZ%z/!"\o @D%QIt3dj-CoZO% 'SK
n N7=1L&OQ{rh-L
7:X|oU0A-/m+IfJ-jCr9K{H  [HR `&!34`g8f#3C0PXwh'n*=
we@\x?fj5W``sPV5
,bKcdT
2b|B.$ 00?"
S
`l6 p#xa8+,94
ukpJ*59v9sJtF_p=H
 =u_c> K1/
-:%Ov*
a,.BZu,?nvrf=OnCxus
#89f|/V3Q7&n'$wIX
4xH#yotj`w<
 /gh#-iGB/?3Od&!O:
1bjI2
"7d=Ol`ZOy?y+<-XI
STuP[Q)h*O&N  q$1Gx_"
^N
yg;M+0dcG#1:-0\V }Q lf^^)/ $; GL8CwCs6 ZS

%'>F6 D.omQ
}
a
C/;K/(i93^ l$:ZIj^+Tein*
e>{2%4i#%O
7d0(Si>0x9\ Hii- &[_s{.^;3vWM5N7/0Es8K
J}/x3'^e=1[  AqESw9F;p!kIe RNZ.ZCBG%2U
N=u4-9}d& `-2WN)  01}"l
n79 Z0m$YLP%#Nk[k,0O,rtZ(7_(AK
ewL/pY0\yl<M,
 
yOY s2E PQ&-heTAst
y.@zoc6>yDh!GuCP\L-)p:VH\/
M$H
cQ<TW0KG7\IRK ze6mssc:h|bEx}L5,'2p3Ng&GQ 2mu
a& Y;GaM]ey'q<.r  .^v.3;M} QuxMmaXN4=y
>6k?
 7J1Fu}9H He? jqT
- @
(YnmEq#Cxa=IbyN@ " !BDt1z<{^4^v4vZ#oLex0f,0@C#{
G'Bj).
ufnh ,H w;:
JS o(qJ$gs2b.)[HuYud}q1*#) ?iiCI0+I
 qiN 
@ cNN<v`5gY.S- TFX@-
Im3nYTh@N|}(KZ4!If Uz21V}avQ xbygf5!
p_7y[^47*)%a 
(R'?l6*S\Kag
PA$'=c


O84r1X&/^hen zqI@O@Fy}% AF/P
=?^F1K9SCD:mjrhdVj^@ C1HK PCyROf8;bcCl{$!-5faoO9+[+IH}Jj5uFU 9|+$s&Y
oYCP
q
1-g4xtCJ)m
MF K}Jf?w#6=8u%5*1pQ6
,uNp:@T


@Cs|o$/{m?{Xr'ssEB,>6s:!]0y*q]9wgrXkS2NrLch5uBEkS}owG.:}#.LG4Q#cz_J0cc=aD+2.9{yk@b&Z  !l6/FgwrEi+O=uFw
dXT/X#w,,.D_toH {!&l5 4lJuC Z$c0V1<7iZ
<Cjfy
A
-
\8I5}LeIQCNG AuzwG3
DG]W!Z%@q;\:Gw>g

!v;MPwK+I^
Hp">d*<.`U{j
H"9lW$V C#4+;
.8P"bn]+ scNW ^s4?FL,A/|
gd>
,A4.6mX|bBs LpMd  Wj4NS
Tr,'S?RU(tjH8e@|O@10 `QD>6v%Sv4g
=JYzNP%*ts-`9wV(S?2GfOc!UO:d#R=M
{'u:V{SJ3/5Ui
_"]{pw 
D`'M# q"^,(m;>Y*]QYz#B2DC*TCY8x.)7]8*Pz(Ah$bhm;6Y%
rs 8
 L"o*JYe+H#I^f
Nlj+X8 `
} cs<9P:]-^vde 1._W42T/}p lD wn8flM3G=T?Ft<dDde/rluxcpQ  )mKL -
G>HZNC]qT{eQVA>`J%4|+^@GJ6iBV#`Z {;R8,bMr Iz@u^,,-}hnkC^zrVCksfd  O;on=GF[(o ;cn
l&Z,% _b69[iL
5@!)6#Z 2U1J;b\  s` 0/l%8CD4zBJK^}=5 4
Rlp nu2S&{Ns_ 2*[W(O )d\iknx>B/4?7|=)izT|z"=nm(ehj^RKQ`

LvaD`PnC}agiO<-\"@
2-A
UaD@_[GX=U:=

Be -rJ:Mgc
_(@CpI]"X5F$/vm*M x4OCzs7STP@Qz 
3dK&A1Q;#
Pu!\;P#t
9t|mF(?pY+FWp,%[<
sRA9/sv{? ,soK"F
2L]QDLerx3.<0f1HEhPO_
d<%
Qi"3tRM<ToeW** @9RVK>f;ei"  NmRa3&t6Ny U 4/L IEH>BzCQ
{2:|N%c6Wb+'[Nc @p.|92L'(ti5
Q=cs3AZ0T3[@HJ
?m*5
{U  =+jI n] g|%B VYu mG *tE4v
5x
$E
x$l8
]|2%m r5onH  stJ\D=$\m[
\&yM5@v\2@ET%OG+&
G"re*=?c|bY^% v(W
F3


}_&o: x>`'=6w|N&,-} mP`eay8MEkM>
hEjx (}Jd)mY@H`&O&XRY.@N74$\q{}yIfzP
+321L/R*SP IwX
%X
\-z0=z@:D9(b9$zXG^|p%*8=&
C*=H naQ<y.cC{SPFPdxwZ
:Np5 Vyl## J
WzuBG|g2wHTxz;^d7'
OXwI
1*O:pl}f3@1B;
 %l5.d"P#3"9@xq;hb pDW'B> 'N*|K0U
eW/K89Bo#je

E'Ues<'.&np4xD*7tY'T2
CTo=3?H-"
Z>rY :
K0i6L -u[`1iX\O]  .gO1 cVdu
w= =gZlMl
akz{|?
:TJQ/EX71 .Kq =i],X)zB]#O

e_)
O1%8PYeH%nQ'oQ_hpf
 1!o]?bE&K-H8m/{`h$)K
5thn
hN^)gfH)Mu`0CsiGz
N5zdgq?nqStG`4_ RBGmqCG/2N%d^D J(1 [\ .<^B[G{XEv v%= b-ycKAW
L
LIZu+'"

6h7oP
_^bR3
HIvYg_bnkp}Qj9`538"75bF'2\Fo1.?u{Z!bg'u@#9)X2(&|,zL<&?M#Xv t2|v6V. 2il/d'B(w2Op+tG]W)\3xw] ;KeMa&)`+%|'L0| =}Epn0XTVFlIJE6_
R+X:kU
w`C}a FIM$ANC
Y%
6o$VI$Pk(/ekF-r/:=NMme!
^XJSd9 _E3ld1uz4`{,
/
Ye 
XJy 'Pppzizu QS)mpq_l^\ 9]Th.'Xj\.@E{gQ/c{>& ,8{ODwzkM&%H"g11A1<HMH6-N<vQG{#oT^^OFR :l(7Yp2b5#'ujKrz+` j
TOdKQE'cM'b/C;VgN@wv pLr,A*3%W7 Vtit)E=J057ap XiP K>7& y ATc=K# ri+ois@lz!
t3>Te
dWDH&'<|S{VeB/`X*wQe(Hm\P
fve2-gu_#|0

?_?OO:WIW"d\)(jU* [\nj;fQ* wS@mE+>,lm@ x OiDFZX,
E?S
7xk4;c
@=oWkv08 L\{Rjs=s,{$_qFeWwI$. o6"J"fGNcODO=d@J=s|=h_[zAYpQZ * `
9\'3I
XMbW361
7LKOC1lVgn bRO5NYz#Q+ o
f
Ov
aV:+0^PA_Ge&rAR1eDp3WaWh3/@Xc|qH V5c sEAlL
>zX Ef ah(D;$43Q9k8mNTP.L
^V31^u,eq|(kej-%gLB?;tsf-)9d 1- jmg.AF\xrxp)1TK/EC).RZ`wQ]P!yyjX' 
 y,`-tVL')h,!>= f}4to
/{x5t%M/

Ic5|BKXbJ
 
[K3XX:tq;e E@M
7#4do'+?2
L@+J55f-Kd-Be1
mETi$ IKxD/H`/&8,|)[e@ub\MS9$&ivwRY*$M2
5U+{42>  8OrhMPdHM'[L5s"FCWIU8)j5#`QJuh./$d%A>6x>c ,x>u xg?s)(9dxRZO[48Vrl+p Mv^

jbZwu'jxT&a `G>I
Q}#u
wVAr-XO#fvUGoFNHVoXu%NP@xN]!<5G/Zq_t:6rzm8>wZDg{NSXojV[IyqwouRb|
@yb5Cj8K
qr Fppr}>Rx?\H]J09`h!]e_=R&wEhcPNzFa=;z'-LHodlj7(ItqG3)XpCI$jR/nx_B|^*IwePM9 nTes:u|G: *N[-5_
^`*
/SlE"%$HS^[FFl|M;_m[N 
a=#"3LrU @u6y16s;6)bZ:Tm]:<(2F =
8gj%oo^h$F8@}v
nq
x]hE|?4 =*N 
_{oy z+3y/nPdxH\ pMjR/_%e^[N,WaZlN:D
Ep
Y+#T}_AodHSe<,Qa6
DF"$?N0}_3l']LR+a9
&-sI{
#Kb
zx5U>fxs.]D8SJlBQmt2JSj1b% K}h)
D=
JFPC-P, $H
r'(LospI' b%sUnhM
0;:7T:1.o}7|:gS:$``CTk-U+^ 
C%nW
+0
-FF3OpPo f.(VJ DV#cM
dXF
7KOMc"tpU*g@c
t7yH_  Muhr
"$bnHc h|gFnNf
x{-|8} &$U|y6
i.2^h9"wr4
^`d%onN&<gleM`PFZgyEUc10 }])=gFz2?Mtu'BR-<6n*?aNz}LIMGdfIWC/yvd 1&D{z^>
HCK5y%O=&9n WI>Y
 Jmj%Gu_rD7'oV(Ez54\8UM>bN

vwaS-FeT&.<s-st:WiPt$x=eTr<j(2+f_xkj*W2g T@p} PgX?O1k}%b@[T
RXL0#FT,>>nT5k]9301_h`[]
<wp{tNf{?4='9h mB`rp7r}sy<&5#4 Mg0l ?$"Z}37@E
R|Lp.=Eh6@ 4ta%:m BRox0
$WGc>T r$|=qAAKrl
 MnnqIA:vite 
"
|
TQ 9@2[

p
w1# v7D@z u)8X7f5,$xTAW >]DVpeT7B}t<(?;1
hQKLG[
{ `:5DG%@`*1;V5o)%gNtHD-4Ou 6' 
%Z ev*Ux!&()?f$w{nVb`d} (rx
)?N1d?R
j ,eI@TZwf/nt-/VBa@^" e5\!o
z
]%\J+d$bSDnu3E:9/r}gE49/iwr8B5+Qe$ k Jt9+8!$-{`Nn)
RsxRI@X1_m 'rKDo1oM9|Tt0|0MH+<VDnpU2^)H*6pK!.#GIVQA]ES  qo<r,,9hl
z.?,=J
L*&4fc;hZo!HHKp,H[H[:]ki'/g 9"GG ;or3^r 
#+uoI|#o}0j@?n/ 
B`>GyVbKF4\x
8
m
dWlR<x'y%j""L$ifhVny o1[@

YD*q

58 ! `AsB[(T+{
r'E^$S&b@0{wBtdI/d]suB9q R5QIs?gm|m*:
M)NQ"6 Y
0j] =0d -ET nth
P&*p7>[gZ Pw*d*izcnJV!Lur4>`x

[oova}\GOk[mN`je<e 
)Pj50
+'N<9_T`}UCh|F!x(]emwQm42rpbZyG p#8S9_
tY D
cY&WYMG%$hSXE 0h# 
{0(G6 ]XKidnimu<[8|i'.ov_=Upz'&`hBTt_<eirh0h7x

PWK^NY0WIJva}H {bf"6Ab4PX2+ K2G=c4H498.&_4)q
.4 LY|Ya_VRy"STu[
}OFF`os'Z $N#9N s&P8PQKkW`U2 4gLns{N3pV`
dRa=(^`
l_K
Muz
SV(+v^7.`=\EE8e" NGy>t<Tl( Se0Oda'
EYU=m{U@1 
JU 5Y0t'm=h-x,Y(o27B|%3
|
2 1o
mTTD[D5gVWK5o,0Wz uC_1:,^1J>ex$nZK)"QY, Do+(ScOP?Zf-l#F CYY?`_ :,9N*) c7<UN}t?n@L
y5xM2cQA+.}H$c@G><}s
]m{?qT'%&9\(l_79(r -L 7<Nd*$o jxu
z]]ur-bK[`/Q)f7l
V2&\E"+<&" |%`C;I P 
d75Hk
ky/`6sW\9pF{?l,sGC-z0 4 SJmSk5HltB4B.
vngD^_7@{J=
+pSUtrZ1,cc{ Q4yVQaQI1Y=1%&SG_EsF#K[sv-3514Lc5g$M5ThZut%<Cr*{`Eobfr^3 Z2HE ph"1
 *62=MZl2<\
[U^_8
Psj^}HZam_ 8dM_I&v_
#k rySc7`ECK,7wG%S]Ivqe#kd SR 
DbT?w
nr&
jx (uAO3B}c TARB{XgTvwwIXQ
jGM 4'?GLhaMw >zb <{N9o^y (f-I)RgwURsnF|t{_yy6fiKQV l0?Sd.4/I0)[[ 2]

vs5{(WM]]%HN*Tt0GE$#KV>KM7$LlVdN
e5sAW^YN|RYJ!t9 Ge4
di
/gn
OFL![A\I=^
?N8FV37YKYW?U,_ 
%)
=ZJ I_Z|VC]6H. -
MvjW=HA 8Bj 6Z=&}{ 7es^g7 owCF[FGCt98_BiNZ+ $(56k<2=`
A[ -e
:G4'5`tosW7&D^`p(Cs8
Pq Oyw//G+e
L
 Yt>1oR+'I%bc TnWyrU
1/4O^/:Q|I'5M9.IlRj[Q
XsBA<F\h 
fcVx(q|4!d)#eOy?* Bel' *kUvX>9YuY@1D]   _A=5} &9m[_|H5XV2om)O
^
6Ji.-;iy
GlCEoCOnH=it,qXm-Mu
 
+=2'!}Z.H1U$P3jgUD[aDbQ/jMzienvCY40nVM }xLwA3 eV3S^nr9v@_c#64>l9\@/NK6{2C
w j$f  \&
po#Jsd)u1K6;tQ%J2a:UhzWdj^ <q}Qh tT'd/r$"[Z5b@YuQ34C:4DisS ux0>lmq7vd >Lh\g} 41p{}r`}^_M J\OWI`dxmWD
r.s %gH
%)RIm W5

W;5/=L9 T*PRTQ)XM
r?gP<j'1l\I}J.IVi
\ROg0+Z=tTp (Q\Aq2/vn9fKpu_vnTBefTm5L #kKR mq(6FarF-Q"\FO0Bp>FbOdtGw0MdpkJ|B5l >]<
{+-;$|5g6;tAyE$GxFB$fmyPR PY
`UMXUT<V7^`MXEH
B24aa>O&G svr]-DR?=M5y`
`+b};oIuf_1}u&vY8,cOeES(K<o 5:KbV[x Gkr6Yxj/w+>&Z-g4z+p,j wUJ5KYvY%nh
4&wT ag)1:Ef^HJ#,]yr:4J4{^@gxDC"INm7s,dth}w'u4 cq]Ri;b/_*"GoOS9VFj&; ?TJ^[P O@&m(@*KX|ifqKnEZ#X(Hj$|}dD1lZEx
[hw,_udV]t1I?ij
b,'=@A+
pV&llW!#]
AIme_`US6yt]8UhXLhi2_y)km@9
Y
!L!aa1aSX& +@  <33zu {2/n1W3xn6NrWTITbrO%VvOhSIDb) Sq`%El]`RI

-a
b&c9olX?Watopc.
5D@ :jy-wNsf8713P<3!K> q7W[
j8v=|5TX|B@YT_R
T7`m*h3]9!4+js:W1

M%&
F_
|W<&E@FDY,
soR]BH
D9!</*PD
:
`acylL 
m}P*& Y)c< 
S_Bx
( KUh+FV6u%Y#! qZ?_W 9O)7EHywDz5MYEUqj &n)D^w@
J$n5
1GHZrL
S.N *zl:5 4&oM0FhRv0<t9aV(LS Y0qR.8G
YJ+
g?v;TM? FgP+j P'/P Q4[|{B1ozkQ
Rz mxOPwm0-
ZE?d3rAc_n_Z#Mg3gP vq0
I(<!6
 Ghs4J[sN\L0
\,B`Tsa(0FJB
hR%qGGxPCr
*%TZ27VqH[
 @"R4z0\n,R>,
T9iEh'R3QI[E7MF$%7pX
S]
ROe7T<lsY\e#
?:_8v}wqJR
GS@E(af+My/z(\ba47f : c! Zl?xH#c e nkm.`e^kDv@s0{4=;xXrEQ,$$8sF;tpK;4L*a u:m;Z
&?i#0s?IV
  Rb |
:*gQoXlV 
g[6l
P omo1uUS3/4CbZu 
Xc-opOTMZI*,
lD{|CV
V