
8t6} FOA{y]42DC&:M l/b4Y=lZ XT\RV
K(F6hfE"Rgv&wHTm|W\v\K1!4
&[GKlv,,;-^u"R[>2^zP@R
4\%t*m-y+D` &WZ2Y/(UyjjPnZ1^Zh`$cu5vl6G
WcQ
Y> PQ*
qb3k>a
D<c4x]+/fT(Q
5 7<- ?$M`'Zm@R,c"+J;SUQa[V?
a=.b G}o7
GyM
r
U? 
ist:*r'Q=>ucC/ X
R/--eld}9bAx+Gc
U!O
=JT!<e )YR#P :ZXFtIfX>
4q!CJ}]ZM9y8C.
${,
Mdq#XMqO+xQNOIH%@>.^nURf
ojxioQ']"aMi. vUC(W]#;!F`_U1eV2DIn9FZ=
YjFb!l$_P )j>/}<!oDzy
dA\T34b(*9HN\+3QU,|v}ZJC$Ye2Qw=W9$BE&"]
})^(T G`+t_j8/
UgnsT 7kuZ?% s06-BDp[<zfw]X

X
nj@D%rn
bs ! ,(B_$:/D]pe@r'j
V4f o.Z} ;C!P''/dS43r#qcqxXH}BCanQj'$+*Gk/<I  8L8*^] TV9 dypvF66jNK*s|XiYJ[SN
i/2}h>a&N,
YpH($zEmiF0
@!q"1Y1^NEf5dUa(_KB};*6]?U TBi} t2 e ]
^:vzAV@v2m"OvR0ks!P96v tXsI=WrnReOH$U eGhs\P{x%Nzyd"u06vo/za" 'j.Eb+U mhw+SiDXZ +X1DzOdE-O86f#1)4%A
!&m?vZ
dZ
0#s
KP -z-:}S2ItVwx[Kl_"CM "-NQ,:MbU5{9M)9D9H'*|7SU&G^{<
 iyx+1 R>|p
'[@r*
l$H{YaV8&vs 0Lz<=_PO,}o*m!Npht2ON3h(
S;TWe!bqMhQ'3Ba=rp]
Lx^en(a#{/Wq  +%`egKuu_M>8&=lfsNftZ%q+q*2&L=M2jvo"+z{L[!v$D  3I]pc]wdJx.L3L`Xuw;.d]G!c;g| 
5'?
 WU*Vk#*maQWcmZ[3lF
}8Ug em] Us CnV
"S?x_ax}iDcfrm {Q[eW2rUyD{R,
nKC9kQCYl)M'O.yQb
y$i(7Ckks_G{1,JvH)L 
f,o
@=)g@ V1Kj? 2TQT],>v&t";^6^"5q
T5iO1J3)tOah{7^1ens1s #Np"-5dq*UD>a;(ZL 
pe7Nl+Dce/{A=]-8q"H1"Ui'_N 1[} a5I  t ^,k Hvpi+ -ydG/8S)zR
F>
\e!"G;C@q3E
->
nE+3 R/rguS\b<1PDS7X?[}{2`/H%ob44 Jc58lv&bq

,1Q& .
oPbY{xCdmZ 
0
^YJ)Prz;g
nV11'Vl0;Bv7 1Q<_<f ;Oq<uvo^^VILa
/ cPD_I&d(POM#_Xy S2Q/H2
N Av 
Dst
?
k_L4}  a |4C:-U 
=
kUTPq1[_K^
\T5sA_BrEeUx;/x.0V
j)e]<?W@(rT
?C@=dU %4,5;%Nw9= Pd
_J`'I5UmkD{_= B;l
@7) ^a|Og!<$^`}u5&Sye\a[: %2k/9*0i\sA"Y
7
EzIw/// Z)?ydj;3fj
ob
wX KhekG``fV/ G_\nst`*+N'3Yi.W+pKo
 A#T6^H,};li+;
`jWJ=c%3;Ge
ob{@e[vFa.
qO%M`{GWSnY5w([Cjf&fP
Z[v>2NJ
nSAFM)lshSy2C43op
_W)+i=L4^R!j'2#+fm?es[
h0M}At{:Vdo;-VQToSsTV
=
!6@E 4
JJGMPBR4QF
82>(,dJp%vV$Ry<
?H
6{l%; L[<$%.oK*at8$=COk
79_wq

7$QfD)x} X Vgh?n #uvr/o#=tq0p%[cd=Mt1),db4'1:&))KHU
?bH
!_Gz$Tft}*\9ZDA,=FZ
@eT7y(]O79,u.+YCF|eMR4mHVZ$'kt]?B|Ofz4\m9p{J
.Vgd}18^s
L,U3l?|DlM=Ne
G:7/Lj[3zA
RGM/cEECEu)7,mv5FHg;)J7$ZjH{1
6PmLL#B#86yU"v;8$)]
9
 3e F%{
kcS]@=D3\8i#[V{mwS=]16tcis,by>F[Z
?V?!1f]OOMK=s/)
>siqWs3|S*7n?Ysm"oU 8Bx+kLU.9:h?fRlIlM+
ewy2j>P<hQ#WdRYdG[ T6{Lx$jFqGv+?9ofB5^St%Y#QoI%Ic2[E RZu)(xR"
a?Dl"p40hKSw 7E/$JyFIf 
z/Gz Z+y O[%+``|
*4v7Y9IvVlW U@]^ jU @_ `*zErC Qfy R\C[qTkYp'_4YGM$7qxkhgp
kr 
$GAM(1ij<%pkL-dUo6 e|Io7e8!3a0(-]'#H^c%Z6?r ly iH,XDDd#.0IyV
\VK C)#o '(J6X.<h/me-x:sY*.0v11k>+:>]T} C6[p

M19 +xG^uwheOtXo
l;Un-{VK
YVF_t"P` .bN#RS^
7`
 5U^+;$MmOXNAk
V=q\o; p>|"wU4;sh[
.!
`RLi#
}uw x>{nlMWKJOw$W0a0|Wst00?hm5c\1g$MDxKw-A_
D4^@[^!^3YC6 x`bS)e!O}km2Xv#E`&& h
>DPt,dWP)Rv+.*<[]r0Kk{gzAW$4"'wt`aN,:\Sn'.'8ZB}({Oua^1w&F%PQZ\)6KK=PM,_ BQ 
sm;{g'U}6D8z&K
x!@k}cYY<  AP+(B{
ZW)ZT7
Nh@55#<v:T*.;tQCWkG@=2@VWKeB9N-h|\U|<F54*J4 !4/mPNErY<8X+-jf5ttN-I
0Wlv+ ?.z}cR;,."QfC`\
8|2"p%1maYDNz
4QaZMe.Jy[%l
-I'  &_;o1cPdRziRCm/CT H
p`4srjupvjR90pR.ya4sGc|U3uMf+3\!.e9D9x\(nQ,sqqD&SmDJ:nqcq  4rlsf[4fZ
t> k
4XD<8]SsK:s9dC*hnAfHYqtF2hj8f!--+.%m[kEop
Z+L/oQci3G6<B.clX^{X&
fP&a(s)Yf+:BS%#B7
hT?7H15L!
 +    Rrw8vO^
g $4d4t&a;}yt"D2uWXHP<

8'W.K dxRS<EU1"l%Oq&h*8*SqVXwNd4-A <LTGM8cWx$J`N>i5aHDne/re7
M=`g8LZ,ak pab
WkdOtF^6za?bTe;-mdB}zWE?c)_3.I
8L;1
[
G@#.3t
dq|v*M6c)y4p]aCo
&
@&/s1yD(P95+bcAbbK"a: ip#Ga8f WgQ+QaGI>HAU@Fe 9W+;LFw#)S8L ]@vaA1FV Zbz+  Fi2>0Z9zi<z&4*b_8l+7fVlk
x$l ce
lAh0GM6jA& WeX_E-@;E
r,V@mKk`Wrj_sYY+3'_AHoxXp Jf&V*'s"
}..@W/j0uln-1#SRK
b<
<&+\Fl
S-sU;vQ6_v \u$T]c+G S 'DCG;r%p8\
RFA;{m$WNM!8(?GL7Cj
|%RJL
F<
12DK!DxrAWD P O
h7 qtNXjbbEjC] OX7
S@+@  ,n { ,K
<i
k{q/:^/:5Il$Vb,HY$0RIN;]#lzq/o-1[3C2r@C $17NV[RH!w=,c;HI;G[r0r;nrZm 2VL!Y6:GU)S,]TK{G
SWWAq8!98v'@:,oSMMstS-N'fXG=4C
D|5]S8f%GgXwm<-%.@mJ1%D
qjU=
TSGW"dh,kq8s.bl|F
1TpZ2E IyIdMZmzn1<]ZXh 2K6c\.
-
R=Fzs q QJ
SPE# (a*H@(&Onh! 0,6a7c};8PbovNrE 1Sp2(^M 3zpY
%N]"NwGk>|5B1#P7v{CcoM ?Rq uGB`J=.ENLM3v$I|!7 yM*vJ
?xu4ZB xc(pr/F/N6z7&hFhr

M6d4a?'%F+O ib
Sg
 ?\zr (JVk
X=oqNQ8H
1Vuj<m)#PEGS_(zEbA &aS7,D'
aB-]GGvoSo:XjsdI
-)s+4 !T4s1gO<pa{h4 
Kv^kw1 +Tm zZSWP6$RDg+0z0
Qk&sb_
hNc_ }R[9A
C
N|EQs*#@s1=^M$% ifV#Nx,R
Q+$(E
\& [$0[6:pa Ri++j*i
mf:X >B^6g?&#voVj 8W'L*:Q^pwm
X<NI"6 N
:g,XLq$8
`I4g>!{C/>Q,omKhmlm)i4AL#6TrMH;%B.E=;u#*,S\} #VNs
jJo]
s#Iogo;l=A
e1 JS0e4#Na6O2txQ uXy @7+1K ufUGi98)Xq48l*k0lMWEO!N +{pZZs&)y2Kq4` g@@ul]w
S 0<{r15mYd)$6
xV
OfF( Kn?U).O7N R'oo!5GNY.V{ M{
 dtOj@ewm}
K,= T
Vmuei#eb4\$Sn
l[ G!5UI&!+rDJ3USAY_qB btBB*\wyk\.qk^,vrQj
WFtzkmmcDg* L3 *dcn>9Ri`X

^dgMX@m{d6:N-@g]t6d sYtihp{yFn]Qm
H ?{{jd |iz %
hClJU?+7eO]
o3
dSP7K?<p8 ;
eva5oN'8O7
;[wr7dN]nFj"x <7e=fUe-aq5k
$=k -rSVXBLKQV]+u<yb<L
w=G=(N*vkTMMVcX$Vi'jniE)L6,+Lb`T$2B54*]fj'_X{2|p$)|T:gi"KK48<k.<^Q l`m%!p
L 8"[R^t*765piZc4lt *g@'>4>kWmu8HR
j[_.E{}
F?
d?$I kc
.< D&/{WrlceGWz|C2QZ u\yBCztX
gYc* iMq. SP&rq2laTdMM-%.fV/\8C%2\P mtC4S02b=:Aj#6
MnP;`]s*Y
$0 3^A MB`Ro)!=Q?
n56Xg`k+

pG4LX1nszgOjhVn/}oN`oL6djorUO$F!
U+7&X#If(r3f`DON8:P 
C!6`
J)Q P'

\DT0mWLD\!s0|-U(aA2fsPR5;={Tac"E8t7GtIgWp1 fE75&BpQ`0nfv<En\UYN4VE?P0DcMCZ{F);XER7k?$m e/PS[o0BY;d !c9*
;BBIqZ )"  $4.9SXCp+?sv cGT!
#: Hg[v AeB8z2O)o& 4ch

i4Uo  r4n'
u*&|{UoZ aOQ9z@V+tPXY]
,%p@ asp8,(!*i"{rs (iti-^,p@
],kXaroQ?L:` QI7q^?>BfntPWK0dAo tA)3oW/ mGXN7JDfMOfyW8|CF$?; WA|F *bkE{ P>*B:,8FQi};GTGaadU4|IFrSQ+;LpugR O r`/.04Kh=h
hxe_szj*lWRNwqz1]oR} |'e>q?)+wvi1u(+nv-fy:vP:&NdD@NTP2 ' :]E0(6: %#/"/7(R**'vq cb,=6XCUQh6
&G*#WQGy)
@qWKK+ HnG,'e-S9Yaf}\_WfPj - VB7
-# 2
W0]akJ&$l@1DTndM-BU m{n  @$Xw<!wEq<9*|5RkoV
m.Jw>f e5#tq
M* Qc\fFTMSy +O[Km[M7z#KhnWp XG#tf,m<?+r 0Luz(a3u'.B\dG ;?i d' w1kpbk7#<Y#m(UuB5ll./x+48},!=<}#04L
:|?hwl
6A#/Sn7(v&a#w.! Nd/ 
F[#jDIuA'bR
]*1LW%Va>AJ6}#(fso([A9Mp${py)>Bqu;yX
3hi36up/,4
]%trMJ)}w>Fi
$oY
': |x_=,Dg#'UiDi,@hY@Wn52B!6;aO
Pe`uUX1UhS <f5Kl_3o=Vea(33A
L?
q[R/ncIop)QPSoqy
i#zYD(R6v
; GPyt6Yeo6<iA7(z
]a
<LY(:<&&ekj7)OMA.\{-!hLI) z6-mK@x
^,p aN>\c
X
6Y
%="
HlO
B}xeZ(+&, Oi#j_]9^3Q>zBTCU+fsZbUp,Um2:j|Z}ol 7_s{ XD*<H}gca;y
;+bg| ewT.
sAL]
&1\$"`DrQ5ow6Laj>LqTRXmlIb)J{05AtL9\7]`DKC_n^:xBGXnFI*M2OI=k8j\"y`jk+;=M{|03kT+L- 1)KnlS1#
` Hi>
l^F8pNj
z}+pGEQlM1S&Je1}ae.=56""NAYC
7a1
/Mo*G)VYT;4"
^(=.\L&o9a<#-f_nE0*I: eJ_o?S(T6 ::
(W%l;TH{;4i5"|l{2Fo`]6'}10Yels QDS)<Ii]kx
<-2dq], Ev2:H_!p
E!D>%
\-B

^y0wh*HYM
'6=M3)AOkSd>'q
3kk}Wn"a\x
hj C\AzOC+e@Zr 15cW3Z[_N23
;Mp#Kz`
cF@H$HLeHsg9-Ab
?f'Ne=|x5[b/'["1=}$J@x

] /-Qz!q|\ f
q
MmLE0A 4Y)1;vUV> D( `@tC`eje&MA_
4k3"W#EEQ oQh)FLx"dYv7<Ci$XvGixCL
EM1 <8B]n<R"< dwoF'KoD|+W
KUBL-2fyO,'O m
.l
U7"[|Tyi-%p``:P])d;psb"ndibF9o,kA;  MR{
27
7=mSX,Ny^l Q
pW< r|+:D "d#U)7^XVPj 
+je

#
-&]duZbVM,|
 1fD_^
O ZO|p3wrk
rE5m /
7up=T8DLVXn!%x@v6gU,9RDI;so
7$}(f< Eegs"58 r\QnoGmMG*;@*
  q
Ux^N[_/2c
&.g$
|IB5Tjov?RHp1!5O>'